-target:library
-out:"Library/Bee/artifacts/1300b0aE.dag/Assembly-CSharp.dll"
-refout:"Library/Bee/artifacts/1300b0aE.dag/Assembly-CSharp.ref.dll"
-define:UNITY_2021_3_3
-define:UNITY_2021_3
-define:UNITY_2021
-define:UNITY_5_3_OR_NEWER
-define:UNITY_5_4_OR_NEWER
-define:UNITY_5_5_OR_NEWER
-define:UNITY_5_6_OR_NEWER
-define:UNITY_2017_1_OR_NEWER
-define:UNITY_2017_2_OR_NEWER
-define:UNITY_2017_3_OR_NEWER
-define:UNITY_2017_4_OR_NEWER
-define:UNITY_2018_1_OR_NEWER
-define:UNITY_2018_2_OR_NEWER
-define:UNITY_2018_3_OR_NEWER
-define:UNITY_2018_4_OR_NEWER
-define:UNITY_2019_1_OR_NEWER
-define:UNITY_2019_2_OR_NEWER
-define:UNITY_2019_3_OR_NEWER
-define:UNITY_2019_4_OR_NEWER
-define:UNITY_2020_1_OR_NEWER
-define:UNITY_2020_2_OR_NEWER
-define:UNITY_2020_3_OR_NEWER
-define:UNITY_2021_1_OR_NEWER
-define:UNITY_2021_2_OR_NEWER
-define:UNITY_2021_3_OR_NEWER
-define:UNITY_INCLUDE_TESTS
-define:UNITY_ANALYTICS
-define:USE_SEARCH_ENGINE_API
-define:USE_SEARCH_TABLE
-define:USE_SEARCH_MODULE
-define:USE_PROPERTY_DATABASE
-define:USE_SEARCH_EXTENSION_API
-define:SCENE_TEMPLATE_MODULE
-define:ENABLE_AR
-define:ENABLE_AUDIO
-define:ENABLE_CACHING
-define:ENABLE_CLOTH
-define:ENABLE_EVENT_QUEUE
-define:ENABLE_MICROPHONE
-define:ENABLE_MULTIPLE_DISPLAYS
-define:ENABLE_PHYSICS
-define:ENABLE_TEXTURE_STREAMING
-define:ENABLE_UNET
-define:ENABLE_LZMA
-define:ENABLE_UNITYEVENTS
-define:ENABLE_VR
-define:ENABLE_WEBCAM
-define:ENABLE_UNITYWEBREQUEST
-define:ENABLE_WWW
-define:ENABLE_CLOUD_SERVICES
-define:ENABLE_CLOUD_SERVICES_COLLAB
-define:ENABLE_CLOUD_SERVICES_COLLAB_SOFTLOCKS
-define:ENABLE_CLOUD_SERVICES_ADS
-define:ENABLE_CLOUD_SERVICES_USE_WEBREQUEST
-define:ENABLE_CLOUD_SERVICES_CRASH_REPORTING
-define:ENABLE_CLOUD_SERVICES_NATIVE_CRASH_REPORTING
-define:ENABLE_CLOUD_SERVICES_PURCHASING
-define:ENABLE_CLOUD_SERVICES_ANALYTICS
-define:ENABLE_CLOUD_SERVICES_UNET
-define:ENABLE_CLOUD_SERVICES_BUILD
-define:ENABLE_CLOUD_LICENSE
-define:ENABLE_EDITOR_HUB_LICENSE
-define:ENABLE_WEBSOCKET_CLIENT
-define:ENABLE_DIRECTOR_AUDIO
-define:ENABLE_DIRECTOR_TEXTURE
-define:ENABLE_MANAGED_JOBS
-define:ENABLE_MANAGED_TRANSFORM_JOBS
-define:ENABLE_MANAGED_ANIMATION_JOBS
-define:ENABLE_MANAGED_AUDIO_JOBS
-define:ENABLE_RUNTIME_PERMISSIONS
-define:ENABLE_ENGINE_CODE_STRIPPING
-define:ENABLE_ONSCREEN_KEYBOARD
-define:ENABLE_MANAGED_UNITYTLS
-define:INCLUDE_DYNAMIC_GI
-define:ENABLE_SCRIPTING_GC_WBARRIERS
-define:PLATFORM_SUPPORTS_MONO
-define:ENABLE_VIDEO
-define:ENABLE_ACCELERATOR_CLIENT_DEBUGGING
-define:PLATFORM_ANDROID
-define:TEXTCORE_1_0_OR_NEWER
-define:UNITY_ANDROID
-define:UNITY_ANDROID_API
-define:ENABLE_EGL
-define:ENABLE_NETWORK
-define:ENABLE_RUNTIME_GI
-define:ENABLE_CRUNCH_TEXTURE_COMPRESSION
-define:UNITY_CAN_SHOW_SPLASH_SCREEN
-define:UNITY_HAS_GOOGLEVR
-define:UNITY_HAS_TANGO
-define:ENABLE_SPATIALTRACKING
-define:ENABLE_ETC_COMPRESSION
-define:PLATFORM_EXTENDS_VULKAN_DEVICE
-define:PLATFORM_HAS_MULTIPLE_SWAPCHAINS
-define:UNITY_ANDROID_SUPPORTS_SHADOWFILES
-define:PLATFORM_UPDATES_TIME_OUTSIDE_OF_PLAYER_LOOP
-define:ENABLE_UNITYADS_RUNTIME
-define:UNITY_UNITYADS_API
-define:ENABLE_MONO
-define:NET_STANDARD_2_0
-define:NET_STANDARD
-define:ENABLE_PROFILER
-define:DEBUG
-define:TRACE
-define:UNITY_ASSERTIONS
-define:UNITY_EDITOR
-define:UNITY_EDITOR_64
-define:UNITY_EDITOR_WIN
-define:ENABLE_UNITY_COLLECTIONS_CHECKS
-define:ENABLE_BURST_AOT
-define:UNITY_TEAM_LICENSE
-define:ENABLE_CUSTOM_RENDER_TEXTURE
-define:ENABLE_DIRECTOR
-define:ENABLE_LOCALIZATION
-define:ENABLE_SPRITES
-define:ENABLE_TERRAIN
-define:ENABLE_TILEMAP
-define:ENABLE_TIMELINE
-define:ENABLE_LEGACY_INPUT_MANAGER
-define:TTP_REWARDED_ADS
-define:TTP_REWARDED_INTERSTITIALS
-define:TTP_POPUPMGR
-define:TTP_PRIVACY_SETTINGS
-define:TTP_PROMOTION
-define:TTP_GAMEPROGRESSION
-define:TTP_CRASHTOOL
-define:TTP_APPSFLYER
-define:TTP_RATEUS
-define:TTP_BANNERS
-define:TTP_INTERSTITIALS
-define:TTP_OPENADS
-define:TTP_ANALYTICS
-define:CSHARP_7_OR_LATER
-define:CSHARP_7_3_OR_NEWER
-r:"Assets/Demigiant/DOTween/DOTween.dll"
-r:"Assets/Tabtale/TTPlugins/Core/Common/Ionic.Zip.dll"
-r:"C:/Program Files/Unity/Hub/Editor/2021.3.3f1/Editor/Data/Managed/UnityEngine/UnityEditor.CoreModule.dll"
-r:"C:/Program Files/Unity/Hub/Editor/2021.3.3f1/Editor/Data/Managed/UnityEngine/UnityEditor.DeviceSimulatorModule.dll"
-r:"C:/Program Files/Unity/Hub/Editor/2021.3.3f1/Editor/Data/Managed/UnityEngine/UnityEditor.DiagnosticsModule.dll"
-r:"C:/Program Files/Unity/Hub/Editor/2021.3.3f1/Editor/Data/Managed/UnityEngine/UnityEditor.dll"
-r:"C:/Program Files/Unity/Hub/Editor/2021.3.3f1/Editor/Data/Managed/UnityEngine/UnityEditor.GraphViewModule.dll"
-r:"C:/Program Files/Unity/Hub/Editor/2021.3.3f1/Editor/Data/Managed/UnityEngine/UnityEditor.PackageManagerUIModule.dll"
-r:"C:/Program Files/Unity/Hub/Editor/2021.3.3f1/Editor/Data/Managed/UnityEngine/UnityEditor.QuickSearchModule.dll"
-r:"C:/Program Files/Unity/Hub/Editor/2021.3.3f1/Editor/Data/Managed/UnityEngine/UnityEditor.SceneTemplateModule.dll"
-r:"C:/Program Files/Unity/Hub/Editor/2021.3.3f1/Editor/Data/Managed/UnityEngine/UnityEditor.TextCoreFontEngineModule.dll"
-r:"C:/Program Files/Unity/Hub/Editor/2021.3.3f1/Editor/Data/Managed/UnityEngine/UnityEditor.TextCoreTextEngineModule.dll"
-r:"C:/Program Files/Unity/Hub/Editor/2021.3.3f1/Editor/Data/Managed/UnityEngine/UnityEditor.UIBuilderModule.dll"
-r:"C:/Program Files/Unity/Hub/Editor/2021.3.3f1/Editor/Data/Managed/UnityEngine/UnityEditor.UIElementsModule.dll"
-r:"C:/Program Files/Unity/Hub/Editor/2021.3.3f1/Editor/Data/Managed/UnityEngine/UnityEditor.UIElementsSamplesModule.dll"
-r:"C:/Program Files/Unity/Hub/Editor/2021.3.3f1/Editor/Data/Managed/UnityEngine/UnityEditor.UIServiceModule.dll"
-r:"C:/Program Files/Unity/Hub/Editor/2021.3.3f1/Editor/Data/Managed/UnityEngine/UnityEditor.UnityConnectModule.dll"
-r:"C:/Program Files/Unity/Hub/Editor/2021.3.3f1/Editor/Data/Managed/UnityEngine/UnityEngine.AccessibilityModule.dll"
-r:"C:/Program Files/Unity/Hub/Editor/2021.3.3f1/Editor/Data/Managed/UnityEngine/UnityEngine.AIModule.dll"
-r:"C:/Program Files/Unity/Hub/Editor/2021.3.3f1/Editor/Data/Managed/UnityEngine/UnityEngine.AndroidJNIModule.dll"
-r:"C:/Program Files/Unity/Hub/Editor/2021.3.3f1/Editor/Data/Managed/UnityEngine/UnityEngine.AnimationModule.dll"
-r:"C:/Program Files/Unity/Hub/Editor/2021.3.3f1/Editor/Data/Managed/UnityEngine/UnityEngine.ARModule.dll"
-r:"C:/Program Files/Unity/Hub/Editor/2021.3.3f1/Editor/Data/Managed/UnityEngine/UnityEngine.AssetBundleModule.dll"
-r:"C:/Program Files/Unity/Hub/Editor/2021.3.3f1/Editor/Data/Managed/UnityEngine/UnityEngine.AudioModule.dll"
-r:"C:/Program Files/Unity/Hub/Editor/2021.3.3f1/Editor/Data/Managed/UnityEngine/UnityEngine.ClothModule.dll"
-r:"C:/Program Files/Unity/Hub/Editor/2021.3.3f1/Editor/Data/Managed/UnityEngine/UnityEngine.CoreModule.dll"
-r:"C:/Program Files/Unity/Hub/Editor/2021.3.3f1/Editor/Data/Managed/UnityEngine/UnityEngine.CrashReportingModule.dll"
-r:"C:/Program Files/Unity/Hub/Editor/2021.3.3f1/Editor/Data/Managed/UnityEngine/UnityEngine.DirectorModule.dll"
-r:"C:/Program Files/Unity/Hub/Editor/2021.3.3f1/Editor/Data/Managed/UnityEngine/UnityEngine.dll"
-r:"C:/Program Files/Unity/Hub/Editor/2021.3.3f1/Editor/Data/Managed/UnityEngine/UnityEngine.DSPGraphModule.dll"
-r:"C:/Program Files/Unity/Hub/Editor/2021.3.3f1/Editor/Data/Managed/UnityEngine/UnityEngine.GameCenterModule.dll"
-r:"C:/Program Files/Unity/Hub/Editor/2021.3.3f1/Editor/Data/Managed/UnityEngine/UnityEngine.GIModule.dll"
-r:"C:/Program Files/Unity/Hub/Editor/2021.3.3f1/Editor/Data/Managed/UnityEngine/UnityEngine.GridModule.dll"
-r:"C:/Program Files/Unity/Hub/Editor/2021.3.3f1/Editor/Data/Managed/UnityEngine/UnityEngine.HotReloadModule.dll"
-r:"C:/Program Files/Unity/Hub/Editor/2021.3.3f1/Editor/Data/Managed/UnityEngine/UnityEngine.ImageConversionModule.dll"
-r:"C:/Program Files/Unity/Hub/Editor/2021.3.3f1/Editor/Data/Managed/UnityEngine/UnityEngine.IMGUIModule.dll"
-r:"C:/Program Files/Unity/Hub/Editor/2021.3.3f1/Editor/Data/Managed/UnityEngine/UnityEngine.InputLegacyModule.dll"
-r:"C:/Program Files/Unity/Hub/Editor/2021.3.3f1/Editor/Data/Managed/UnityEngine/UnityEngine.InputModule.dll"
-r:"C:/Program Files/Unity/Hub/Editor/2021.3.3f1/Editor/Data/Managed/UnityEngine/UnityEngine.JSONSerializeModule.dll"
-r:"C:/Program Files/Unity/Hub/Editor/2021.3.3f1/Editor/Data/Managed/UnityEngine/UnityEngine.LocalizationModule.dll"
-r:"C:/Program Files/Unity/Hub/Editor/2021.3.3f1/Editor/Data/Managed/UnityEngine/UnityEngine.ParticleSystemModule.dll"
-r:"C:/Program Files/Unity/Hub/Editor/2021.3.3f1/Editor/Data/Managed/UnityEngine/UnityEngine.PerformanceReportingModule.dll"
-r:"C:/Program Files/Unity/Hub/Editor/2021.3.3f1/Editor/Data/Managed/UnityEngine/UnityEngine.Physics2DModule.dll"
-r:"C:/Program Files/Unity/Hub/Editor/2021.3.3f1/Editor/Data/Managed/UnityEngine/UnityEngine.PhysicsModule.dll"
-r:"C:/Program Files/Unity/Hub/Editor/2021.3.3f1/Editor/Data/Managed/UnityEngine/UnityEngine.ProfilerModule.dll"
-r:"C:/Program Files/Unity/Hub/Editor/2021.3.3f1/Editor/Data/Managed/UnityEngine/UnityEngine.RuntimeInitializeOnLoadManagerInitializerModule.dll"
-r:"C:/Program Files/Unity/Hub/Editor/2021.3.3f1/Editor/Data/Managed/UnityEngine/UnityEngine.ScreenCaptureModule.dll"
-r:"C:/Program Files/Unity/Hub/Editor/2021.3.3f1/Editor/Data/Managed/UnityEngine/UnityEngine.SharedInternalsModule.dll"
-r:"C:/Program Files/Unity/Hub/Editor/2021.3.3f1/Editor/Data/Managed/UnityEngine/UnityEngine.SpriteMaskModule.dll"
-r:"C:/Program Files/Unity/Hub/Editor/2021.3.3f1/Editor/Data/Managed/UnityEngine/UnityEngine.SpriteShapeModule.dll"
-r:"C:/Program Files/Unity/Hub/Editor/2021.3.3f1/Editor/Data/Managed/UnityEngine/UnityEngine.StreamingModule.dll"
-r:"C:/Program Files/Unity/Hub/Editor/2021.3.3f1/Editor/Data/Managed/UnityEngine/UnityEngine.SubstanceModule.dll"
-r:"C:/Program Files/Unity/Hub/Editor/2021.3.3f1/Editor/Data/Managed/UnityEngine/UnityEngine.SubsystemsModule.dll"
-r:"C:/Program Files/Unity/Hub/Editor/2021.3.3f1/Editor/Data/Managed/UnityEngine/UnityEngine.TerrainModule.dll"
-r:"C:/Program Files/Unity/Hub/Editor/2021.3.3f1/Editor/Data/Managed/UnityEngine/UnityEngine.TerrainPhysicsModule.dll"
-r:"C:/Program Files/Unity/Hub/Editor/2021.3.3f1/Editor/Data/Managed/UnityEngine/UnityEngine.TextCoreFontEngineModule.dll"
-r:"C:/Program Files/Unity/Hub/Editor/2021.3.3f1/Editor/Data/Managed/UnityEngine/UnityEngine.TextCoreTextEngineModule.dll"
-r:"C:/Program Files/Unity/Hub/Editor/2021.3.3f1/Editor/Data/Managed/UnityEngine/UnityEngine.TextRenderingModule.dll"
-r:"C:/Program Files/Unity/Hub/Editor/2021.3.3f1/Editor/Data/Managed/UnityEngine/UnityEngine.TilemapModule.dll"
-r:"C:/Program Files/Unity/Hub/Editor/2021.3.3f1/Editor/Data/Managed/UnityEngine/UnityEngine.TLSModule.dll"
-r:"C:/Program Files/Unity/Hub/Editor/2021.3.3f1/Editor/Data/Managed/UnityEngine/UnityEngine.UIElementsModule.dll"
-r:"C:/Program Files/Unity/Hub/Editor/2021.3.3f1/Editor/Data/Managed/UnityEngine/UnityEngine.UIElementsNativeModule.dll"
-r:"C:/Program Files/Unity/Hub/Editor/2021.3.3f1/Editor/Data/Managed/UnityEngine/UnityEngine.UIModule.dll"
-r:"C:/Program Files/Unity/Hub/Editor/2021.3.3f1/Editor/Data/Managed/UnityEngine/UnityEngine.UmbraModule.dll"
-r:"C:/Program Files/Unity/Hub/Editor/2021.3.3f1/Editor/Data/Managed/UnityEngine/UnityEngine.UNETModule.dll"
-r:"C:/Program Files/Unity/Hub/Editor/2021.3.3f1/Editor/Data/Managed/UnityEngine/UnityEngine.UnityAnalyticsModule.dll"
-r:"C:/Program Files/Unity/Hub/Editor/2021.3.3f1/Editor/Data/Managed/UnityEngine/UnityEngine.UnityConnectModule.dll"
-r:"C:/Program Files/Unity/Hub/Editor/2021.3.3f1/Editor/Data/Managed/UnityEngine/UnityEngine.UnityCurlModule.dll"
-r:"C:/Program Files/Unity/Hub/Editor/2021.3.3f1/Editor/Data/Managed/UnityEngine/UnityEngine.UnityTestProtocolModule.dll"
-r:"C:/Program Files/Unity/Hub/Editor/2021.3.3f1/Editor/Data/Managed/UnityEngine/UnityEngine.UnityWebRequestAssetBundleModule.dll"
-r:"C:/Program Files/Unity/Hub/Editor/2021.3.3f1/Editor/Data/Managed/UnityEngine/UnityEngine.UnityWebRequestAudioModule.dll"
-r:"C:/Program Files/Unity/Hub/Editor/2021.3.3f1/Editor/Data/Managed/UnityEngine/UnityEngine.UnityWebRequestModule.dll"
-r:"C:/Program Files/Unity/Hub/Editor/2021.3.3f1/Editor/Data/Managed/UnityEngine/UnityEngine.UnityWebRequestTextureModule.dll"
-r:"C:/Program Files/Unity/Hub/Editor/2021.3.3f1/Editor/Data/Managed/UnityEngine/UnityEngine.UnityWebRequestWWWModule.dll"
-r:"C:/Program Files/Unity/Hub/Editor/2021.3.3f1/Editor/Data/Managed/UnityEngine/UnityEngine.VehiclesModule.dll"
-r:"C:/Program Files/Unity/Hub/Editor/2021.3.3f1/Editor/Data/Managed/UnityEngine/UnityEngine.VFXModule.dll"
-r:"C:/Program Files/Unity/Hub/Editor/2021.3.3f1/Editor/Data/Managed/UnityEngine/UnityEngine.VideoModule.dll"
-r:"C:/Program Files/Unity/Hub/Editor/2021.3.3f1/Editor/Data/Managed/UnityEngine/UnityEngine.VRModule.dll"
-r:"C:/Program Files/Unity/Hub/Editor/2021.3.3f1/Editor/Data/Managed/UnityEngine/UnityEngine.WindModule.dll"
-r:"C:/Program Files/Unity/Hub/Editor/2021.3.3f1/Editor/Data/Managed/UnityEngine/UnityEngine.XRModule.dll"
-r:"C:/Program Files/Unity/Hub/Editor/2021.3.3f1/Editor/Data/NetStandard/compat/2.1.0/shims/netfx/mscorlib.dll"
-r:"C:/Program Files/Unity/Hub/Editor/2021.3.3f1/Editor/Data/NetStandard/compat/2.1.0/shims/netfx/System.ComponentModel.Composition.dll"
-r:"C:/Program Files/Unity/Hub/Editor/2021.3.3f1/Editor/Data/NetStandard/compat/2.1.0/shims/netfx/System.Core.dll"
-r:"C:/Program Files/Unity/Hub/Editor/2021.3.3f1/Editor/Data/NetStandard/compat/2.1.0/shims/netfx/System.Data.dll"
-r:"C:/Program Files/Unity/Hub/Editor/2021.3.3f1/Editor/Data/NetStandard/compat/2.1.0/shims/netfx/System.dll"
-r:"C:/Program Files/Unity/Hub/Editor/2021.3.3f1/Editor/Data/NetStandard/compat/2.1.0/shims/netfx/System.Drawing.dll"
-r:"C:/Program Files/Unity/Hub/Editor/2021.3.3f1/Editor/Data/NetStandard/compat/2.1.0/shims/netfx/System.IO.Compression.FileSystem.dll"
-r:"C:/Program Files/Unity/Hub/Editor/2021.3.3f1/Editor/Data/NetStandard/compat/2.1.0/shims/netfx/System.Net.dll"
-r:"C:/Program Files/Unity/Hub/Editor/2021.3.3f1/Editor/Data/NetStandard/compat/2.1.0/shims/netfx/System.Numerics.dll"
-r:"C:/Program Files/Unity/Hub/Editor/2021.3.3f1/Editor/Data/NetStandard/compat/2.1.0/shims/netfx/System.Runtime.Serialization.dll"
-r:"C:/Program Files/Unity/Hub/Editor/2021.3.3f1/Editor/Data/NetStandard/compat/2.1.0/shims/netfx/System.ServiceModel.Web.dll"
-r:"C:/Program Files/Unity/Hub/Editor/2021.3.3f1/Editor/Data/NetStandard/compat/2.1.0/shims/netfx/System.Transactions.dll"
-r:"C:/Program Files/Unity/Hub/Editor/2021.3.3f1/Editor/Data/NetStandard/compat/2.1.0/shims/netfx/System.Web.dll"
-r:"C:/Program Files/Unity/Hub/Editor/2021.3.3f1/Editor/Data/NetStandard/compat/2.1.0/shims/netfx/System.Windows.dll"
-r:"C:/Program Files/Unity/Hub/Editor/2021.3.3f1/Editor/Data/NetStandard/compat/2.1.0/shims/netfx/System.Xml.dll"
-r:"C:/Program Files/Unity/Hub/Editor/2021.3.3f1/Editor/Data/NetStandard/compat/2.1.0/shims/netfx/System.Xml.Linq.dll"
-r:"C:/Program Files/Unity/Hub/Editor/2021.3.3f1/Editor/Data/NetStandard/compat/2.1.0/shims/netfx/System.Xml.Serialization.dll"
-r:"C:/Program Files/Unity/Hub/Editor/2021.3.3f1/Editor/Data/NetStandard/compat/2.1.0/shims/netstandard/Microsoft.Win32.Primitives.dll"
-r:"C:/Program Files/Unity/Hub/Editor/2021.3.3f1/Editor/Data/NetStandard/compat/2.1.0/shims/netstandard/System.AppContext.dll"
-r:"C:/Program Files/Unity/Hub/Editor/2021.3.3f1/Editor/Data/NetStandard/compat/2.1.0/shims/netstandard/System.Buffers.dll"
-r:"C:/Program Files/Unity/Hub/Editor/2021.3.3f1/Editor/Data/NetStandard/compat/2.1.0/shims/netstandard/System.Collections.Concurrent.dll"
-r:"C:/Program Files/Unity/Hub/Editor/2021.3.3f1/Editor/Data/NetStandard/compat/2.1.0/shims/netstandard/System.Collections.dll"
-r:"C:/Program Files/Unity/Hub/Editor/2021.3.3f1/Editor/Data/NetStandard/compat/2.1.0/shims/netstandard/System.Collections.NonGeneric.dll"
-r:"C:/Program Files/Unity/Hub/Editor/2021.3.3f1/Editor/Data/NetStandard/compat/2.1.0/shims/netstandard/System.Collections.Specialized.dll"
-r:"C:/Program Files/Unity/Hub/Editor/2021.3.3f1/Editor/Data/NetStandard/compat/2.1.0/shims/netstandard/System.ComponentModel.dll"
-r:"C:/Program Files/Unity/Hub/Editor/2021.3.3f1/Editor/Data/NetStandard/compat/2.1.0/shims/netstandard/System.ComponentModel.EventBasedAsync.dll"
-r:"C:/Program Files/Unity/Hub/Editor/2021.3.3f1/Editor/Data/NetStandard/compat/2.1.0/shims/netstandard/System.ComponentModel.Primitives.dll"
-r:"C:/Program Files/Unity/Hub/Editor/2021.3.3f1/Editor/Data/NetStandard/compat/2.1.0/shims/netstandard/System.ComponentModel.TypeConverter.dll"
-r:"C:/Program Files/Unity/Hub/Editor/2021.3.3f1/Editor/Data/NetStandard/compat/2.1.0/shims/netstandard/System.Console.dll"
-r:"C:/Program Files/Unity/Hub/Editor/2021.3.3f1/Editor/Data/NetStandard/compat/2.1.0/shims/netstandard/System.Data.Common.dll"
-r:"C:/Program Files/Unity/Hub/Editor/2021.3.3f1/Editor/Data/NetStandard/compat/2.1.0/shims/netstandard/System.Diagnostics.Contracts.dll"
-r:"C:/Program Files/Unity/Hub/Editor/2021.3.3f1/Editor/Data/NetStandard/compat/2.1.0/shims/netstandard/System.Diagnostics.Debug.dll"
-r:"C:/Program Files/Unity/Hub/Editor/2021.3.3f1/Editor/Data/NetStandard/compat/2.1.0/shims/netstandard/System.Diagnostics.FileVersionInfo.dll"
-r:"C:/Program Files/Unity/Hub/Editor/2021.3.3f1/Editor/Data/NetStandard/compat/2.1.0/shims/netstandard/System.Diagnostics.Process.dll"
-r:"C:/Program Files/Unity/Hub/Editor/2021.3.3f1/Editor/Data/NetStandard/compat/2.1.0/shims/netstandard/System.Diagnostics.StackTrace.dll"
-r:"C:/Program Files/Unity/Hub/Editor/2021.3.3f1/Editor/Data/NetStandard/compat/2.1.0/shims/netstandard/System.Diagnostics.TextWriterTraceListener.dll"
-r:"C:/Program Files/Unity/Hub/Editor/2021.3.3f1/Editor/Data/NetStandard/compat/2.1.0/shims/netstandard/System.Diagnostics.Tools.dll"
-r:"C:/Program Files/Unity/Hub/Editor/2021.3.3f1/Editor/Data/NetStandard/compat/2.1.0/shims/netstandard/System.Diagnostics.TraceSource.dll"
-r:"C:/Program Files/Unity/Hub/Editor/2021.3.3f1/Editor/Data/NetStandard/compat/2.1.0/shims/netstandard/System.Diagnostics.Tracing.dll"
-r:"C:/Program Files/Unity/Hub/Editor/2021.3.3f1/Editor/Data/NetStandard/compat/2.1.0/shims/netstandard/System.Drawing.Primitives.dll"
-r:"C:/Program Files/Unity/Hub/Editor/2021.3.3f1/Editor/Data/NetStandard/compat/2.1.0/shims/netstandard/System.Dynamic.Runtime.dll"
-r:"C:/Program Files/Unity/Hub/Editor/2021.3.3f1/Editor/Data/NetStandard/compat/2.1.0/shims/netstandard/System.Globalization.Calendars.dll"
-r:"C:/Program Files/Unity/Hub/Editor/2021.3.3f1/Editor/Data/NetStandard/compat/2.1.0/shims/netstandard/System.Globalization.dll"
-r:"C:/Program Files/Unity/Hub/Editor/2021.3.3f1/Editor/Data/NetStandard/compat/2.1.0/shims/netstandard/System.Globalization.Extensions.dll"
-r:"C:/Program Files/Unity/Hub/Editor/2021.3.3f1/Editor/Data/NetStandard/compat/2.1.0/shims/netstandard/System.IO.Compression.dll"
-r:"C:/Program Files/Unity/Hub/Editor/2021.3.3f1/Editor/Data/NetStandard/compat/2.1.0/shims/netstandard/System.IO.Compression.ZipFile.dll"
-r:"C:/Program Files/Unity/Hub/Editor/2021.3.3f1/Editor/Data/NetStandard/compat/2.1.0/shims/netstandard/System.IO.dll"
-r:"C:/Program Files/Unity/Hub/Editor/2021.3.3f1/Editor/Data/NetStandard/compat/2.1.0/shims/netstandard/System.IO.FileSystem.dll"
-r:"C:/Program Files/Unity/Hub/Editor/2021.3.3f1/Editor/Data/NetStandard/compat/2.1.0/shims/netstandard/System.IO.FileSystem.DriveInfo.dll"
-r:"C:/Program Files/Unity/Hub/Editor/2021.3.3f1/Editor/Data/NetStandard/compat/2.1.0/shims/netstandard/System.IO.FileSystem.Primitives.dll"
-r:"C:/Program Files/Unity/Hub/Editor/2021.3.3f1/Editor/Data/NetStandard/compat/2.1.0/shims/netstandard/System.IO.FileSystem.Watcher.dll"
-r:"C:/Program Files/Unity/Hub/Editor/2021.3.3f1/Editor/Data/NetStandard/compat/2.1.0/shims/netstandard/System.IO.IsolatedStorage.dll"
-r:"C:/Program Files/Unity/Hub/Editor/2021.3.3f1/Editor/Data/NetStandard/compat/2.1.0/shims/netstandard/System.IO.MemoryMappedFiles.dll"
-r:"C:/Program Files/Unity/Hub/Editor/2021.3.3f1/Editor/Data/NetStandard/compat/2.1.0/shims/netstandard/System.IO.Pipes.dll"
-r:"C:/Program Files/Unity/Hub/Editor/2021.3.3f1/Editor/Data/NetStandard/compat/2.1.0/shims/netstandard/System.IO.UnmanagedMemoryStream.dll"
-r:"C:/Program Files/Unity/Hub/Editor/2021.3.3f1/Editor/Data/NetStandard/compat/2.1.0/shims/netstandard/System.Linq.dll"
-r:"C:/Program Files/Unity/Hub/Editor/2021.3.3f1/Editor/Data/NetStandard/compat/2.1.0/shims/netstandard/System.Linq.Expressions.dll"
-r:"C:/Program Files/Unity/Hub/Editor/2021.3.3f1/Editor/Data/NetStandard/compat/2.1.0/shims/netstandard/System.Linq.Parallel.dll"
-r:"C:/Program Files/Unity/Hub/Editor/2021.3.3f1/Editor/Data/NetStandard/compat/2.1.0/shims/netstandard/System.Linq.Queryable.dll"
-r:"C:/Program Files/Unity/Hub/Editor/2021.3.3f1/Editor/Data/NetStandard/compat/2.1.0/shims/netstandard/System.Memory.dll"
-r:"C:/Program Files/Unity/Hub/Editor/2021.3.3f1/Editor/Data/NetStandard/compat/2.1.0/shims/netstandard/System.Net.Http.dll"
-r:"C:/Program Files/Unity/Hub/Editor/2021.3.3f1/Editor/Data/NetStandard/compat/2.1.0/shims/netstandard/System.Net.NameResolution.dll"
-r:"C:/Program Files/Unity/Hub/Editor/2021.3.3f1/Editor/Data/NetStandard/compat/2.1.0/shims/netstandard/System.Net.NetworkInformation.dll"
-r:"C:/Program Files/Unity/Hub/Editor/2021.3.3f1/Editor/Data/NetStandard/compat/2.1.0/shims/netstandard/System.Net.Ping.dll"
-r:"C:/Program Files/Unity/Hub/Editor/2021.3.3f1/Editor/Data/NetStandard/compat/2.1.0/shims/netstandard/System.Net.Primitives.dll"
-r:"C:/Program Files/Unity/Hub/Editor/2021.3.3f1/Editor/Data/NetStandard/compat/2.1.0/shims/netstandard/System.Net.Requests.dll"
-r:"C:/Program Files/Unity/Hub/Editor/2021.3.3f1/Editor/Data/NetStandard/compat/2.1.0/shims/netstandard/System.Net.Security.dll"
-r:"C:/Program Files/Unity/Hub/Editor/2021.3.3f1/Editor/Data/NetStandard/compat/2.1.0/shims/netstandard/System.Net.Sockets.dll"
-r:"C:/Program Files/Unity/Hub/Editor/2021.3.3f1/Editor/Data/NetStandard/compat/2.1.0/shims/netstandard/System.Net.WebHeaderCollection.dll"
-r:"C:/Program Files/Unity/Hub/Editor/2021.3.3f1/Editor/Data/NetStandard/compat/2.1.0/shims/netstandard/System.Net.WebSockets.Client.dll"
-r:"C:/Program Files/Unity/Hub/Editor/2021.3.3f1/Editor/Data/NetStandard/compat/2.1.0/shims/netstandard/System.Net.WebSockets.dll"
-r:"C:/Program Files/Unity/Hub/Editor/2021.3.3f1/Editor/Data/NetStandard/compat/2.1.0/shims/netstandard/System.Numerics.Vectors.dll"
-r:"C:/Program Files/Unity/Hub/Editor/2021.3.3f1/Editor/Data/NetStandard/compat/2.1.0/shims/netstandard/System.ObjectModel.dll"
-r:"C:/Program Files/Unity/Hub/Editor/2021.3.3f1/Editor/Data/NetStandard/compat/2.1.0/shims/netstandard/System.Reflection.DispatchProxy.dll"
-r:"C:/Program Files/Unity/Hub/Editor/2021.3.3f1/Editor/Data/NetStandard/compat/2.1.0/shims/netstandard/System.Reflection.dll"
-r:"C:/Program Files/Unity/Hub/Editor/2021.3.3f1/Editor/Data/NetStandard/compat/2.1.0/shims/netstandard/System.Reflection.Emit.dll"
-r:"C:/Program Files/Unity/Hub/Editor/2021.3.3f1/Editor/Data/NetStandard/compat/2.1.0/shims/netstandard/System.Reflection.Emit.ILGeneration.dll"
-r:"C:/Program Files/Unity/Hub/Editor/2021.3.3f1/Editor/Data/NetStandard/compat/2.1.0/shims/netstandard/System.Reflection.Emit.Lightweight.dll"
-r:"C:/Program Files/Unity/Hub/Editor/2021.3.3f1/Editor/Data/NetStandard/compat/2.1.0/shims/netstandard/System.Reflection.Extensions.dll"
-r:"C:/Program Files/Unity/Hub/Editor/2021.3.3f1/Editor/Data/NetStandard/compat/2.1.0/shims/netstandard/System.Reflection.Primitives.dll"
-r:"C:/Program Files/Unity/Hub/Editor/2021.3.3f1/Editor/Data/NetStandard/compat/2.1.0/shims/netstandard/System.Resources.Reader.dll"
-r:"C:/Program Files/Unity/Hub/Editor/2021.3.3f1/Editor/Data/NetStandard/compat/2.1.0/shims/netstandard/System.Resources.ResourceManager.dll"
-r:"C:/Program Files/Unity/Hub/Editor/2021.3.3f1/Editor/Data/NetStandard/compat/2.1.0/shims/netstandard/System.Resources.Writer.dll"
-r:"C:/Program Files/Unity/Hub/Editor/2021.3.3f1/Editor/Data/NetStandard/compat/2.1.0/shims/netstandard/System.Runtime.CompilerServices.VisualC.dll"
-r:"C:/Program Files/Unity/Hub/Editor/2021.3.3f1/Editor/Data/NetStandard/compat/2.1.0/shims/netstandard/System.Runtime.dll"
-r:"C:/Program Files/Unity/Hub/Editor/2021.3.3f1/Editor/Data/NetStandard/compat/2.1.0/shims/netstandard/System.Runtime.Extensions.dll"
-r:"C:/Program Files/Unity/Hub/Editor/2021.3.3f1/Editor/Data/NetStandard/compat/2.1.0/shims/netstandard/System.Runtime.Handles.dll"
-r:"C:/Program Files/Unity/Hub/Editor/2021.3.3f1/Editor/Data/NetStandard/compat/2.1.0/shims/netstandard/System.Runtime.InteropServices.dll"
-r:"C:/Program Files/Unity/Hub/Editor/2021.3.3f1/Editor/Data/NetStandard/compat/2.1.0/shims/netstandard/System.Runtime.InteropServices.RuntimeInformation.dll"
-r:"C:/Program Files/Unity/Hub/Editor/2021.3.3f1/Editor/Data/NetStandard/compat/2.1.0/shims/netstandard/System.Runtime.Numerics.dll"
-r:"C:/Program Files/Unity/Hub/Editor/2021.3.3f1/Editor/Data/NetStandard/compat/2.1.0/shims/netstandard/System.Runtime.Serialization.Formatters.dll"
-r:"C:/Program Files/Unity/Hub/Editor/2021.3.3f1/Editor/Data/NetStandard/compat/2.1.0/shims/netstandard/System.Runtime.Serialization.Json.dll"
-r:"C:/Program Files/Unity/Hub/Editor/2021.3.3f1/Editor/Data/NetStandard/compat/2.1.0/shims/netstandard/System.Runtime.Serialization.Primitives.dll"
-r:"C:/Program Files/Unity/Hub/Editor/2021.3.3f1/Editor/Data/NetStandard/compat/2.1.0/shims/netstandard/System.Runtime.Serialization.Xml.dll"
-r:"C:/Program Files/Unity/Hub/Editor/2021.3.3f1/Editor/Data/NetStandard/compat/2.1.0/shims/netstandard/System.Security.Claims.dll"
-r:"C:/Program Files/Unity/Hub/Editor/2021.3.3f1/Editor/Data/NetStandard/compat/2.1.0/shims/netstandard/System.Security.Cryptography.Algorithms.dll"
-r:"C:/Program Files/Unity/Hub/Editor/2021.3.3f1/Editor/Data/NetStandard/compat/2.1.0/shims/netstandard/System.Security.Cryptography.Csp.dll"
-r:"C:/Program Files/Unity/Hub/Editor/2021.3.3f1/Editor/Data/NetStandard/compat/2.1.0/shims/netstandard/System.Security.Cryptography.Encoding.dll"
-r:"C:/Program Files/Unity/Hub/Editor/2021.3.3f1/Editor/Data/NetStandard/compat/2.1.0/shims/netstandard/System.Security.Cryptography.Primitives.dll"
-r:"C:/Program Files/Unity/Hub/Editor/2021.3.3f1/Editor/Data/NetStandard/compat/2.1.0/shims/netstandard/System.Security.Cryptography.X509Certificates.dll"
-r:"C:/Program Files/Unity/Hub/Editor/2021.3.3f1/Editor/Data/NetStandard/compat/2.1.0/shims/netstandard/System.Security.Principal.dll"
-r:"C:/Program Files/Unity/Hub/Editor/2021.3.3f1/Editor/Data/NetStandard/compat/2.1.0/shims/netstandard/System.Security.SecureString.dll"
-r:"C:/Program Files/Unity/Hub/Editor/2021.3.3f1/Editor/Data/NetStandard/compat/2.1.0/shims/netstandard/System.Text.Encoding.dll"
-r:"C:/Program Files/Unity/Hub/Editor/2021.3.3f1/Editor/Data/NetStandard/compat/2.1.0/shims/netstandard/System.Text.Encoding.Extensions.dll"
-r:"C:/Program Files/Unity/Hub/Editor/2021.3.3f1/Editor/Data/NetStandard/compat/2.1.0/shims/netstandard/System.Text.RegularExpressions.dll"
-r:"C:/Program Files/Unity/Hub/Editor/2021.3.3f1/Editor/Data/NetStandard/compat/2.1.0/shims/netstandard/System.Threading.dll"
-r:"C:/Program Files/Unity/Hub/Editor/2021.3.3f1/Editor/Data/NetStandard/compat/2.1.0/shims/netstandard/System.Threading.Overlapped.dll"
-r:"C:/Program Files/Unity/Hub/Editor/2021.3.3f1/Editor/Data/NetStandard/compat/2.1.0/shims/netstandard/System.Threading.Tasks.dll"
-r:"C:/Program Files/Unity/Hub/Editor/2021.3.3f1/Editor/Data/NetStandard/compat/2.1.0/shims/netstandard/System.Threading.Tasks.Extensions.dll"
-r:"C:/Program Files/Unity/Hub/Editor/2021.3.3f1/Editor/Data/NetStandard/compat/2.1.0/shims/netstandard/System.Threading.Tasks.Parallel.dll"
-r:"C:/Program Files/Unity/Hub/Editor/2021.3.3f1/Editor/Data/NetStandard/compat/2.1.0/shims/netstandard/System.Threading.Thread.dll"
-r:"C:/Program Files/Unity/Hub/Editor/2021.3.3f1/Editor/Data/NetStandard/compat/2.1.0/shims/netstandard/System.Threading.ThreadPool.dll"
-r:"C:/Program Files/Unity/Hub/Editor/2021.3.3f1/Editor/Data/NetStandard/compat/2.1.0/shims/netstandard/System.Threading.Timer.dll"
-r:"C:/Program Files/Unity/Hub/Editor/2021.3.3f1/Editor/Data/NetStandard/compat/2.1.0/shims/netstandard/System.ValueTuple.dll"
-r:"C:/Program Files/Unity/Hub/Editor/2021.3.3f1/Editor/Data/NetStandard/compat/2.1.0/shims/netstandard/System.Xml.ReaderWriter.dll"
-r:"C:/Program Files/Unity/Hub/Editor/2021.3.3f1/Editor/Data/NetStandard/compat/2.1.0/shims/netstandard/System.Xml.XDocument.dll"
-r:"C:/Program Files/Unity/Hub/Editor/2021.3.3f1/Editor/Data/NetStandard/compat/2.1.0/shims/netstandard/System.Xml.XmlDocument.dll"
-r:"C:/Program Files/Unity/Hub/Editor/2021.3.3f1/Editor/Data/NetStandard/compat/2.1.0/shims/netstandard/System.Xml.XmlSerializer.dll"
-r:"C:/Program Files/Unity/Hub/Editor/2021.3.3f1/Editor/Data/NetStandard/compat/2.1.0/shims/netstandard/System.Xml.XPath.dll"
-r:"C:/Program Files/Unity/Hub/Editor/2021.3.3f1/Editor/Data/NetStandard/compat/2.1.0/shims/netstandard/System.Xml.XPath.XDocument.dll"
-r:"C:/Program Files/Unity/Hub/Editor/2021.3.3f1/Editor/Data/NetStandard/Extensions/2.0.0/System.Runtime.InteropServices.WindowsRuntime.dll"
-r:"C:/Program Files/Unity/Hub/Editor/2021.3.3f1/Editor/Data/NetStandard/ref/2.1.0/netstandard.dll"
-r:"C:/Program Files/Unity/Hub/Editor/2021.3.3f1/Editor/Data/PlaybackEngines/AndroidPlayer/Unity.Android.Gradle.dll"
-r:"C:/Program Files/Unity/Hub/Editor/2021.3.3f1/Editor/Data/PlaybackEngines/AndroidPlayer/Unity.Android.Types.dll"
-r:"D:/SnM_Project/Cake_3d_gitlap/Library/PackageCache/com.unity.analytics@3.6.12/AnalyticsStandardEvents/Unity.Analytics.StandardEvents.dll"
-r:"D:/SnM_Project/Cake_3d_gitlap/Library/PackageCache/com.unity.analytics@3.6.12/Unity.Analytics.Editor.dll"
-r:"D:/SnM_Project/Cake_3d_gitlap/Library/PackageCache/com.unity.analytics@3.6.12/Unity.Analytics.Tracker.dll"
-r:"D:/SnM_Project/Cake_3d_gitlap/Library/PackageCache/com.unity.nuget.newtonsoft-json@3.0.2/Runtime/Newtonsoft.Json.dll"
-r:"Library/Bee/artifacts/1300b0aE.dag/Analytics.ref.dll"
-r:"Library/Bee/artifacts/1300b0aE.dag/NavMeshComponents.ref.dll"
-r:"Library/Bee/artifacts/1300b0aE.dag/NavMeshComponentsEditor.ref.dll"
-r:"Library/Bee/artifacts/1300b0aE.dag/Purchasing.Common.ref.dll"
-r:"Library/Bee/artifacts/1300b0aE.dag/spine-unity-editor.ref.dll"
-r:"Library/Bee/artifacts/1300b0aE.dag/spine-unity.ref.dll"
-r:"Library/Bee/artifacts/1300b0aE.dag/ToonyColorsPro.Editor.ref.dll"
-r:"Library/Bee/artifacts/1300b0aE.dag/ToonyColorsPro.Runtime.ref.dll"
-r:"Library/Bee/artifacts/1300b0aE.dag/Unity.2D.Sprite.Editor.ref.dll"
-r:"Library/Bee/artifacts/1300b0aE.dag/Unity.2D.Tilemap.Editor.ref.dll"
-r:"Library/Bee/artifacts/1300b0aE.dag/Unity.Analytics.DataPrivacy.ref.dll"
-r:"Library/Bee/artifacts/1300b0aE.dag/Unity.PlasticSCM.Editor.ref.dll"
-r:"Library/Bee/artifacts/1300b0aE.dag/Unity.Recorder.Base.ref.dll"
-r:"Library/Bee/artifacts/1300b0aE.dag/Unity.Recorder.Editor.ref.dll"
-r:"Library/Bee/artifacts/1300b0aE.dag/Unity.Recorder.ref.dll"
-r:"Library/Bee/artifacts/1300b0aE.dag/Unity.Rider.Editor.ref.dll"
-r:"Library/Bee/artifacts/1300b0aE.dag/Unity.Services.Core.Analytics.ref.dll"
-r:"Library/Bee/artifacts/1300b0aE.dag/Unity.Services.Core.Environments.ref.dll"
-r:"Library/Bee/artifacts/1300b0aE.dag/Unity.Services.Core.ref.dll"
-r:"Library/Bee/artifacts/1300b0aE.dag/Unity.TextMeshPro.Editor.ref.dll"
-r:"Library/Bee/artifacts/1300b0aE.dag/Unity.TextMeshPro.ref.dll"
-r:"Library/Bee/artifacts/1300b0aE.dag/Unity.Timeline.Editor.ref.dll"
-r:"Library/Bee/artifacts/1300b0aE.dag/Unity.Timeline.ref.dll"
-r:"Library/Bee/artifacts/1300b0aE.dag/Unity.VisualStudio.Editor.ref.dll"
-r:"Library/Bee/artifacts/1300b0aE.dag/Unity.VSCode.Editor.ref.dll"
-r:"Library/Bee/artifacts/1300b0aE.dag/UnityEditor.Purchasing.ref.dll"
-r:"Library/Bee/artifacts/1300b0aE.dag/UnityEditor.SpatialTracking.ref.dll"
-r:"Library/Bee/artifacts/1300b0aE.dag/UnityEditor.UI.ref.dll"
-r:"Library/Bee/artifacts/1300b0aE.dag/UnityEditor.XR.LegacyInputHelpers.ref.dll"
-r:"Library/Bee/artifacts/1300b0aE.dag/UnityEngine.Advertisements.Editor.ref.dll"
-r:"Library/Bee/artifacts/1300b0aE.dag/UnityEngine.Advertisements.ref.dll"
-r:"Library/Bee/artifacts/1300b0aE.dag/UnityEngine.Monetization.ref.dll"
-r:"Library/Bee/artifacts/1300b0aE.dag/UnityEngine.Purchasing.Codeless.ref.dll"
-r:"Library/Bee/artifacts/1300b0aE.dag/UnityEngine.Purchasing.ref.dll"
-r:"Library/Bee/artifacts/1300b0aE.dag/UnityEngine.Purchasing.SecurityCore.ref.dll"
-r:"Library/Bee/artifacts/1300b0aE.dag/UnityEngine.Purchasing.SecurityStub.ref.dll"
-r:"Library/Bee/artifacts/1300b0aE.dag/UnityEngine.Purchasing.Stores.ref.dll"
-r:"Library/Bee/artifacts/1300b0aE.dag/UnityEngine.SpatialTracking.ref.dll"
-r:"Library/Bee/artifacts/1300b0aE.dag/UnityEngine.UI.ref.dll"
-r:"Library/Bee/artifacts/1300b0aE.dag/UnityEngine.XR.LegacyInputHelpers.ref.dll"
"Assets/Common/EventSystem/EventManager.cs"
"Assets/Common/EventSystem/EventType.cs"
"Assets/Common/FPS/FPS.cs"
"Assets/Common/Google Play License Verification/LicenseVerification/RSA.cs"
"Assets/Common/Google Play License Verification/LVL_Example/CheckLVL.cs"
"Assets/Common/GradientBackground/GradientBackground.cs"
"Assets/Common/Managers/Ads.cs"
"Assets/Common/Managers/Analytics.cs"
"Assets/Common/Managers/AssetManager.cs"
"Assets/Common/Managers/Config.cs"
"Assets/Common/Managers/GameManager.cs"
"Assets/Common/Managers/Localization.cs"
"Assets/Common/Managers/NamaDebug.cs"
"Assets/Common/Managers/Preference.cs"
"Assets/Common/Managers/Profile.cs"
"Assets/Common/Managers/Singleton.cs"
"Assets/Common/Managers/SoundManager.cs"
"Assets/Common/Managers/Statistics.cs"
"Assets/Common/Managers/UILocalization.cs"
"Assets/Common/SceneManagement/LoadingShield.cs"
"Assets/Common/SceneManagement/Popup.cs"
"Assets/Common/SceneManagement/PopupAnimation.cs"
"Assets/Common/SceneManagement/PopupFlyingAnimation.cs"
"Assets/Common/SceneManagement/PopupPoppingAnimation.cs"
"Assets/Common/SceneManagement/PopupTemplate.cs"
"Assets/Common/SceneManagement/ProjectConstants.cs"
"Assets/Common/SceneManagement/Scene.cs"
"Assets/Common/SceneManagement/SceneBase.cs"
"Assets/Common/SceneManagement/SceneManager.cs"
"Assets/Common/SceneManagement/SceneShield.cs"
"Assets/Common/Tuning/UISlider.cs"
"Assets/Common/Tuning/UIToggle.cs"
"Assets/Common/Tuning/UITuning.cs"
"Assets/Common/UI/CustomToggle.cs"
"Assets/Common/UI/LevelSelect.cs"
"Assets/Common/UI/UIGlobal.cs"
"Assets/Common/UI/UIListWrapper.cs"
"Assets/Common/UI/UIProgress.cs"
"Assets/Common/Utils/AutoScreenshot.cs"
"Assets/Common/Utils/CSVReader.cs"
"Assets/Common/Utils/MathUtils.cs"
"Assets/Common/Utils/NamaUtils.cs"
"Assets/Common/Utils/ObjectPool.cs"
"Assets/Common/Utils/Rotate.cs"
"Assets/Common/Utils/RotateX.cs"
"Assets/Common/Utils/Security.cs"
"Assets/Common/Utils/StringList.cs"
"Assets/Common/Utils/Utils.cs"
"Assets/Common/Utils/Vibrate.cs"
"Assets/Cute Animal Pet/Scripts/AnimalCharacterButton.cs"
"Assets/Cute Animal Pet/Scripts/eff_Jump.cs"
"Assets/DailyRewards/Examples/Scripts/DailyRewardsInterface.cs"
"Assets/DailyRewards/Examples/Scripts/DailyRewardUI.cs"
"Assets/DailyRewards/Scripts/DailyRewards.cs"
"Assets/DailyRewards/Scripts/DailyRewardsCore.cs"
"Assets/DailyRewards/Scripts/IntegrationDailyRewards.cs"
"Assets/DailyRewards/Scripts/Reward.cs"
"Assets/Demigiant/DOTween/Modules/DOTweenModuleAudio.cs"
"Assets/Demigiant/DOTween/Modules/DOTweenModulePhysics.cs"
"Assets/Demigiant/DOTween/Modules/DOTweenModulePhysics2D.cs"
"Assets/Demigiant/DOTween/Modules/DOTweenModuleSprite.cs"
"Assets/Demigiant/DOTween/Modules/DOTweenModuleUI.cs"
"Assets/Demigiant/DOTween/Modules/DOTweenModuleUnityVersion.cs"
"Assets/Demigiant/DOTween/Modules/DOTweenModuleUtils.cs"
"Assets/Game/BoxBakery/BoxCollection/BoxData.cs"
"Assets/Game/BoxBakery/BoxCollection/BrushColor.cs"
"Assets/Game/Brushes/Brush.cs"
"Assets/Game/Brushes/BrushOption.cs"
"Assets/Game/Brushes/BrushTip.cs"
"Assets/Game/CakePreview/CakePreview.cs"
"Assets/Game/CandlesFeature/AutoRound.cs"
"Assets/Game/CandlesFeature/Batlua.cs"
"Assets/Game/CandlesFeature/BigDecor.cs"
"Assets/Game/CandlesFeature/BigDecorManual.cs"
"Assets/Game/CandlesFeature/BigDecorPreview.cs"
"Assets/Game/CandlesFeature/CandlesFireType.cs"
"Assets/Game/CandlesFeature/CandlesPreview.cs"
"Assets/Game/CandlesFeature/CheckGround.cs"
"Assets/Game/CandlesFeature/Config/DataConfig.cs"
"Assets/Game/CandlesFeature/Config/DataConfigSO.cs"
"Assets/Game/CandlesFeature/HighLight.cs"
"Assets/Game/CandlesFeature/MiniDecorManual.cs"
"Assets/Game/CandlesFeature/MiniDecorObj.cs"
"Assets/Game/CandlesFeature/MiniDecorOptions.cs"
"Assets/Game/CandlesFeature/Photo/FixedTouchField.cs"
"Assets/Game/CandlesFeature/Photo/PhotoManual.cs"
"Assets/Game/ChooseStyle/ChooseCakePanel.cs"
"Assets/Game/Effects/ParticleEmitter.cs"
"Assets/Game/FreeStyleCakeFeature/MakePreviewSurface.cs"
"Assets/Game/FreeStyleCakeFeature/SelectSurfaceCakeManual.cs"
"Assets/Game/FunzillaPlugin.cs"
"Assets/Game/Gallery/Gallery.cs"
"Assets/Game/Gallery/GalleryItem.cs"
"Assets/Game/Gallery/OptimizedScrollItem.cs"
"Assets/Game/Gallery/OptimizedScrollViewY.cs"
"Assets/Game/Gameplay/Bakery/Clients.cs"
"Assets/Game/Gameplay/Bakery/DailyQuest/DailyQuestManager.cs"
"Assets/Game/Gameplay/Bakery/DailyQuest/DailyQuestReward.cs"
"Assets/Game/Gameplay/Bakery/GiveCake/GiveCakeController.cs"
"Assets/Game/Gameplay/Bakery/GiveCake/Receiver.cs"
"Assets/Game/Gameplay/Bakery/UIBakery.cs"
"Assets/Game/Gameplay/Bakery/UpgradeAreaController.cs"
"Assets/Game/Gameplay/Bakery/UpgradeFloors.cs"
"Assets/Game/Gameplay/Bakery/UpgradeItems.cs"
"Assets/Game/Gameplay/Bakery/UpgradeWalls.cs"
"Assets/Game/Gameplay/Bakery/VipUI.cs"
"Assets/Game/Gameplay/BezierPath.cs"
"Assets/Game/Gameplay/Bottle.cs"
"Assets/Game/Gameplay/BrushConfig.cs"
"Assets/Game/Gameplay/BrushTexture.cs"
"Assets/Game/Gameplay/Cake.cs"
"Assets/Game/Gameplay/CakeBase.cs"
"Assets/Game/Gameplay/CakeCustom.cs"
"Assets/Game/Gameplay/CakeRenderer.cs"
"Assets/Game/Gameplay/CakeSurface.cs"
"Assets/Game/Gameplay/CameraConfig.cs"
"Assets/Game/Gameplay/CameraController.cs"
"Assets/Game/Gameplay/CircleSurface.cs"
"Assets/Game/Gameplay/DashedHint.cs"
"Assets/Game/Gameplay/DecorationStep.cs"
"Assets/Game/Gameplay/DonutSurface.cs"
"Assets/Game/Gameplay/DrawPath.cs"
"Assets/Game/Gameplay/DrawSurface.cs"
"Assets/Game/Gameplay/FillManual.cs"
"Assets/Game/Gameplay/FillManualOption.cs"
"Assets/Game/Gameplay/FillTuning.cs"
"Assets/Game/Gameplay/Gameplay.cs"
"Assets/Game/Gameplay/GameplayScene.cs"
"Assets/Game/Gameplay/Guideline.cs"
"Assets/Game/Gameplay/HeartSurface.cs"
"Assets/Game/Gameplay/Layer/PutLayer.cs"
"Assets/Game/Gameplay/Level.cs"
"Assets/Game/Gameplay/LoangOption.cs"
"Assets/Game/Gameplay/MirrorGlaze/BakeGlazeMap.cs"
"Assets/Game/Gameplay/MirrorGlaze/MirrorGlazeButton.cs"
"Assets/Game/Gameplay/MirrorGlaze/MirrorGlazeManual.cs"
"Assets/Game/Gameplay/MirrorGlaze/MirrorGlazeUI.cs"
"Assets/Game/Gameplay/PastryBag.cs"
"Assets/Game/Gameplay/Path.cs"
"Assets/Game/Gameplay/PatrolBehavior.cs"
"Assets/Game/Gameplay/PieSurface.cs"
"Assets/Game/Gameplay/Pointer.cs"
"Assets/Game/Gameplay/PolygonSurface.cs"
"Assets/Game/Gameplay/Polyline.cs"
"Assets/Game/Gameplay/PolylineDistribution.cs"
"Assets/Game/Gameplay/RectangleSurface.cs"
"Assets/Game/Gameplay/RotateBehavior.cs"
"Assets/Game/Gameplay/SprinkleAuto.cs"
"Assets/Game/Gameplay/SprinkleCharacterPart.cs"
"Assets/Game/Gameplay/SprinkleManual.cs"
"Assets/Game/Gameplay/State/GameState.cs"
"Assets/Game/Gameplay/State/GameStateManager.cs"
"Assets/Game/Gameplay/State/InitState.cs"
"Assets/Game/Gameplay/State/LoseState.cs"
"Assets/Game/Gameplay/State/PauseState.cs"
"Assets/Game/Gameplay/State/PlayState.cs"
"Assets/Game/Gameplay/State/WinState.cs"
"Assets/Game/Gameplay/StrokeAuto.cs"
"Assets/Game/Gameplay/StrokeDisplay.cs"
"Assets/Game/Gameplay/StrokeManual.cs"
"Assets/Game/Gameplay/TextAnimation.cs"
"Assets/Game/Gameplay/TextUpdate.cs"
"Assets/Game/Gameplay/TikTokBehavior.cs"
"Assets/Game/Gameplay/Tutorial.cs"
"Assets/Game/Gameplay/TutorialSign.cs"
"Assets/Game/Gameplay/Vector2d.cs"
"Assets/Game/Gift/CollectEffect.cs"
"Assets/Game/Gift/GiftScene.cs"
"Assets/Game/GlazeToolUI/FillElementShopPreview.cs"
"Assets/Game/GlazeToolUI/FillManualShopPreview.cs"
"Assets/Game/GlazeToolUI/GlazeData.cs"
"Assets/Game/GlazeToolUI/GlazeDataHolder.cs"
"Assets/Game/GlazeToolUI/GlazeManager.cs"
"Assets/Game/GlazeToolUI/GlazeToolItemView.cs"
"Assets/Game/GlazeToolUI/GlazeToolPreview.cs"
"Assets/Game/GlazeToolUI/RenderCameaShopPreview.cs"
"Assets/Game/LevelPreview/LevelPreview.cs"
"Assets/Game/Loading/Loading.cs"
"Assets/Game/Loading/LoadingCheck.cs"
"Assets/Game/PetShop/Scripts/OpacityModel.cs"
"Assets/Game/PetShop/Scripts/PetController.cs"
"Assets/Game/PetShop/Scripts/PetData.cs"
"Assets/Game/PetShop/Scripts/PetDataHolder.cs"
"Assets/Game/PetShop/Scripts/PetItemView.cs"
"Assets/Game/PetShop/Scripts/PetManager.cs"
"Assets/Game/PetShop/Scripts/PetShopAnimation.cs"
"Assets/Game/RemoteConfig/CostData.cs"
"Assets/Game/RemoteConfig/GiftItemData.cs"
"Assets/Game/RemoteConfig/InComeData.cs"
"Assets/Game/RemoteConfig/RewardItemDataList.cs"
"Assets/Game/RewardProgress/ProgressData.cs"
"Assets/Game/RewardProgress/ProgressList.cs"
"Assets/Game/Shop/CharacterItemView.cs"
"Assets/Game/Shop/PastryBagPreview.cs"
"Assets/Game/Shop/PastryHard.cs"
"Assets/Game/Shop/PastrySkin.cs"
"Assets/Game/Shop/PastrySoft.cs"
"Assets/Game/Shop/PetPreview.cs"
"Assets/Game/Shop/ShopData.cs"
"Assets/Game/Shop/ShopItemView.cs"
"Assets/Game/Shop/ShopManager.cs"
"Assets/Game/Shop/SprinkleBottlePreview.cs"
"Assets/Game/Shop/StorageItemView.cs"
"Assets/Game/Shop/UIShop.cs"
"Assets/Game/Sprinkles/Sprinkles.cs"
"Assets/Game/StencilPainting/StencilButton.cs"
"Assets/Game/StencilPainting/StencilManual.cs"
"Assets/Game/StencilPainting/StencilTool.cs"
"Assets/Game/StencilPainting/StencilUI.cs"
"Assets/Game/Tutorial/FocusTutorial.cs"
"Assets/Game/UI/ChestItemView.cs"
"Assets/Game/UI/RoundItemView.cs"
"Assets/Game/UI/SettingsUI.cs"
"Assets/Game/UI/UIChestRoom.cs"
"Assets/Game/UI/UIExit.cs"
"Assets/Game/UI/UIHome.cs"
"Assets/Game/UI/UIRate.cs"
"Assets/Game/UI/UIResult.cs"
"Assets/Game/UI/UISettings.cs"
"Assets/Game/UI/UnlockItem.cs"
"Assets/JMO Assets/Cartoon FX/Demo/Assets/CFX_AutoStopLoopedEffect.cs"
"Assets/JMO Assets/Cartoon FX/Demo/Assets/CFX_Demo_New.cs"
"Assets/JMO Assets/Cartoon FX/Demo/Assets/CFX_Demo_RandomDir.cs"
"Assets/JMO Assets/Cartoon FX/Demo/Assets/CFX_Demo_RandomDirectionTranslate.cs"
"Assets/JMO Assets/Cartoon FX/Demo/Assets/CFX_Demo_RotateCamera.cs"
"Assets/JMO Assets/Cartoon FX/Demo/Assets/CFX_Demo_Translate.cs"
"Assets/JMO Assets/Cartoon FX/Scripts/CFX_AutoDestructShuriken.cs"
"Assets/JMO Assets/Cartoon FX/Scripts/CFX_AutoRotate.cs"
"Assets/JMO Assets/Cartoon FX/Scripts/CFX_LightFlicker.cs"
"Assets/JMO Assets/Cartoon FX/Scripts/CFX_LightIntensityFade.cs"
"Assets/Key.cs"
"Assets/KeyGroup.cs"
"Assets/QuickOutline/Scripts/Outline.cs"
"Assets/RVButtonChecker.cs"
"Assets/Shadow/ShadowCaster.cs"
"Assets/Shadow/SimpleShadowCaster.cs"
"Assets/SprinkleObject.cs"
"Assets/Tabtale/TTPlugins/Analytics/TTPAnalytics.cs"
"Assets/Tabtale/TTPlugins/Analytics/TTPAnalyticsHelper.cs"
"Assets/Tabtale/TTPlugins/AppsFlyer/TTPAppsFlyer.cs"
"Assets/Tabtale/TTPlugins/Banners/TTPBanners.cs"
"Assets/Tabtale/TTPlugins/Core/ATTDisclaimer.cs"
"Assets/Tabtale/TTPlugins/Core/Common/JsonUtilityWrapper.cs"
"Assets/Tabtale/TTPlugins/Core/Common/SimpleJSON.cs"
"Assets/Tabtale/TTPlugins/Core/Common/TTAssetBundlesManager/AssetBundleLoadOperation.cs"
"Assets/Tabtale/TTPlugins/Core/Common/TTAssetBundlesManager/AssetBundleManager.cs"
"Assets/Tabtale/TTPlugins/Core/Common/TTAssetBundlesManager/TTAssetBundleManager.cs"
"Assets/Tabtale/TTPlugins/Core/Common/TTAssetBundlesManager/Utility.cs"
"Assets/Tabtale/TTPlugins/Core/Common/TTPILRDData.cs"
"Assets/Tabtale/TTPlugins/Core/Common/TTPJson.cs"
"Assets/Tabtale/TTPlugins/Core/Common/TTPOnDemandsResources.cs"
"Assets/Tabtale/TTPlugins/Core/Common/TTPUtils.cs"
"Assets/Tabtale/TTPlugins/Core/Common/Zip.cs"
"Assets/Tabtale/TTPlugins/Core/TTPCore.cs"
"Assets/Tabtale/TTPlugins/Core/TTPIncludedServicesScriptableObject.cs"
"Assets/Tabtale/TTPlugins/GameProgression/TTPGameProgression.cs"
"Assets/Tabtale/TTPlugins/Interstitials/Locations.cs"
"Assets/Tabtale/TTPlugins/Interstitials/Resources/Prefabs/Scripts/TTPInterstitialCanvas.cs"
"Assets/Tabtale/TTPlugins/Interstitials/TTPInterstitials.cs"
"Assets/Tabtale/TTPlugins/OpenAds/TTPOpenAds.cs"
"Assets/Tabtale/TTPlugins/PopUpMgr/TTPPopupMgr.cs"
"Assets/Tabtale/TTPlugins/PrivacySettings/Resources/Prefabs/Scripts/PrivacySettingsPopUp.cs"
"Assets/Tabtale/TTPlugins/PrivacySettings/TTPPrivacySettings.cs"
"Assets/Tabtale/TTPlugins/Promotion/Resources/Prefabs/Scripts/TTPPromotionCanvas.cs"
"Assets/Tabtale/TTPlugins/Promotion/TTPPromotion.cs"
"Assets/Tabtale/TTPlugins/RateUs/Prefabs/Resources/Scripts/TTPRateUsCanvas.cs"
"Assets/Tabtale/TTPlugins/RateUs/Prefabs/Resources/Scripts/TTPRateUsNotConnectedCanvas.cs"
"Assets/Tabtale/TTPlugins/RateUs/TTPRateUs.cs"
"Assets/Tabtale/TTPlugins/RewardedAds/Resources/Prefabs/Scripts/TTPRewardedAdsCanvas.cs"
"Assets/Tabtale/TTPlugins/RewardedAds/TTPRewardedAds.cs"
"Assets/Tabtale/TTPlugins/RewardedInterstitials/Resources/Prefabs/Scripts/TTPRewardedInterstitialsCanvas.cs"
"Assets/Tabtale/TTPlugins/RewardedInterstitials/TTPRewardedInterstitials.cs"
"Assets/Tabtale/TTPlugins/TTPCrashTool/TTPCrashTool.cs"
"Assets/_FillColors/Carafe/Carafe.cs"
"Assets/_FillColors/Carafe/CarafeRotate.cs"
"Assets/_FillColors/Carafe/CarafeSkin.cs"
"Assets/_FillColors/Carafe/CarafeStream.cs"
"Assets/_FillColors/Outline/FillOutline.cs"
"Assets/_FillColors/Outline/FillOutlineData.cs"
"Assets/_FillColors/Scripts/ColorsPatternData.cs"
"Assets/_FillColors/Scripts/FillBrushElement.cs"
"Assets/_FillColors/Scripts/FillColorSurface.cs"
"Assets/_FillColors/Scripts/FillTextureOptionData.cs"
"Assets/_FillColors/Scripts/RenderCamera.cs"
"Assets/_FillColors/Wobble/Wobble.cs"
-langversion:9.0

/deterministic
/optimize+
/debug:portable
/nologo
/RuntimeMetadataVersion:v4.0.30319

/nowarn:0169
/nowarn:0649
/nowarn:1701
/nowarn:1702
-define:CRAZY_LABS_CLIK
-define:TTP_CORE
-define:TTP_ANALYTICS
-define:TTP_APPSFLYER
-define:TTP_BANNERS
-define:TTP_GAMEPROGRESSION
-define:TTP_INTERSTITIALS
-define:TTP_PRIVACY_SETTINGS
-define:TTP_REWARDED_ADS
-define:TTP_CRASHTOOL
-define:TTP_POPUPMGR
-define:TTP_OPENADS
/utf8output
/preferreduilang:en-US


/additionalfile:"Library/Bee/artifacts/1300b0aE.dag/Assembly-CSharp.AdditionalFile.txt"