%YAML 1.1
%TAG !u! tag:unity3d.com,2011:
--- !u!114 &11400000
MonoBehaviour:
  m_ObjectHideFlags: 0
  m_CorrespondingSourceObject: {fileID: 0}
  m_PrefabInstance: {fileID: 0}
  m_PrefabAsset: {fileID: 0}
  m_GameObject: {fileID: 0}
  m_Enabled: 1
  m_EditorHideFlags: 0
  m_Script: {fileID: 11500000, guid: 6755f6aefd9f75f40a925be206cb09b8, type: 3}
  m_Name: CameraConfig
  m_EditorClassIdentifier: 
  cameraRange: 1
  cameraMoveVelocity: 0.8
  resetCameraSpeed: 20
  minAreaRange: 0
  areaRange: 6
  BlockRangeX: 3
  BlockRangeZ: 3
