%YAML 1.1
%TAG !u! tag:unity3d.com,2011:
--- !u!114 &11400000
MonoBehaviour:
  m_ObjectHideFlags: 0
  m_CorrespondingSourceObject: {fileID: 0}
  m_PrefabInstance: {fileID: 0}
  m_PrefabAsset: {fileID: 0}
  m_GameObject: {fileID: 0}
  m_Enabled: 1
  m_EditorHideFlags: 0
  m_Script: {fileID: 11500000, guid: f23d3c63cc3aef341bf360cda2af8766, type: 3}
  m_Name: 05
  m_EditorClassIdentifier: 
  Option:
    PaintText: {fileID: 2800000, guid: 8c807e5fc3746534b9a8b58f65cced54, type: 3}
    Icon: {fileID: 21300000, guid: 8c807e5fc3746534b9a8b58f65cced54, type: 3}
    BlendColor: {r: 0.95294124, g: 0.7254902, b: 0.37254903, a: 1}
