%YAML 1.1
%TAG !u! tag:unity3d.com,2011:
--- !u!114 &11400000
MonoBehaviour:
  m_ObjectHideFlags: 0
  m_CorrespondingSourceObject: {fileID: 0}
  m_PrefabInstance: {fileID: 0}
  m_PrefabAsset: {fileID: 0}
  m_GameObject: {fileID: 0}
  m_Enabled: 1
  m_EditorHideFlags: 0
  m_Script: {fileID: 11500000, guid: f23d3c63cc3aef341bf360cda2af8766, type: 3}
  m_Name: 13
  m_EditorClassIdentifier: 
  Option:
    PaintText: {fileID: 2800000, guid: 4a61dab4e1d1b6c4b984f92edb6c29f5, type: 3}
    Icon: {fileID: 21300000, guid: 4a61dab4e1d1b6c4b984f92edb6c29f5, type: 3}
    BlendColor: {r: 0.22352943, g: 0.54901963, b: 0.09411766, a: 1}
