%YAML 1.1
%TAG !u! tag:unity3d.com,2011:
--- !u!1 &2762413984680043579
GameObject:
  m_ObjectHideFlags: 0
  m_CorrespondingSourceObject: {fileID: 0}
  m_PrefabInstance: {fileID: 0}
  m_PrefabAsset: {fileID: 0}
  serializedVersion: 6
  m_Component:
  - component: {fileID: 7670708618613264972}
  m_Layer: 8
  m_Name: Chef
  m_TagString: Untagged
  m_Icon: {fileID: 0}
  m_NavMeshLayer: 0
  m_StaticEditorFlags: 0
  m_IsActive: 1
--- !u!4 &7670708618613264972
Transform:
  m_ObjectHideFlags: 0
  m_CorrespondingSourceObject: {fileID: 0}
  m_PrefabInstance: {fileID: 0}
  m_PrefabAsset: {fileID: 0}
  m_GameObject: {fileID: 2762413984680043579}
  m_LocalRotation: {x: 0, y: 0, z: 0, w: 1}
  m_LocalPosition: {x: 0, y: 0, z: 0}
  m_LocalScale: {x: 5.5, y: 5.5, z: 5.5}
  m_Children:
  - {fileID: 8674109209699703635}
  m_Father: {fileID: 0}
  m_RootOrder: 0
  m_LocalEulerAnglesHint: {x: 0, y: 0, z: 0}
--- !u!1001 &8674109209700090243
PrefabInstance:
  m_ObjectHideFlags: 0
  serializedVersion: 2
  m_Modification:
    m_TransformParent: {fileID: 7670708618613264972}
    m_Modifications:
    - target: {fileID: 100080, guid: 003683def912cc54abf91fc41daf6b20, type: 3}
      propertyPath: m_Name
      value: Pointing_cheffinal
      objectReference: {fileID: 0}
    - target: {fileID: 100080, guid: 003683def912cc54abf91fc41daf6b20, type: 3}
      propertyPath: m_Layer
      value: 8
      objectReference: {fileID: 0}
    - target: {fileID: 100000, guid: 003683def912cc54abf91fc41daf6b20, type: 3}
      propertyPath: m_Layer
      value: 8
      objectReference: {fileID: 0}
    - target: {fileID: 100002, guid: 003683def912cc54abf91fc41daf6b20, type: 3}
      propertyPath: m_Layer
      value: 8
      objectReference: {fileID: 0}
    - target: {fileID: 100004, guid: 003683def912cc54abf91fc41daf6b20, type: 3}
      propertyPath: m_Layer
      value: 8
      objectReference: {fileID: 0}
    - target: {fileID: 100006, guid: 003683def912cc54abf91fc41daf6b20, type: 3}
      propertyPath: m_Layer
      value: 8
      objectReference: {fileID: 0}
    - target: {fileID: 100008, guid: 003683def912cc54abf91fc41daf6b20, type: 3}
      propertyPath: m_Layer
      value: 8
      objectReference: {fileID: 0}
    - target: {fileID: 100016, guid: 003683def912cc54abf91fc41daf6b20, type: 3}
      propertyPath: m_Layer
      value: 8
      objectReference: {fileID: 0}
    - target: {fileID: 100012, guid: 003683def912cc54abf91fc41daf6b20, type: 3}
      propertyPath: m_Layer
      value: 8
      objectReference: {fileID: 0}
    - target: {fileID: 100014, guid: 003683def912cc54abf91fc41daf6b20, type: 3}
      propertyPath: m_Layer
      value: 8
      objectReference: {fileID: 0}
    - target: {fileID: 100018, guid: 003683def912cc54abf91fc41daf6b20, type: 3}
      propertyPath: m_Layer
      value: 8
      objectReference: {fileID: 0}
    - target: {fileID: 100020, guid: 003683def912cc54abf91fc41daf6b20, type: 3}
      propertyPath: m_Layer
      value: 8
      objectReference: {fileID: 0}
    - target: {fileID: 100022, guid: 003683def912cc54abf91fc41daf6b20, type: 3}
      propertyPath: m_Layer
      value: 8
      objectReference: {fileID: 0}
    - target: {fileID: 100024, guid: 003683def912cc54abf91fc41daf6b20, type: 3}
      propertyPath: m_Layer
      value: 8
      objectReference: {fileID: 0}
    - target: {fileID: 100026, guid: 003683def912cc54abf91fc41daf6b20, type: 3}
      propertyPath: m_Layer
      value: 8
      objectReference: {fileID: 0}
    - target: {fileID: 100028, guid: 003683def912cc54abf91fc41daf6b20, type: 3}
      propertyPath: m_Layer
      value: 8
      objectReference: {fileID: 0}
    - target: {fileID: 100030, guid: 003683def912cc54abf91fc41daf6b20, type: 3}
      propertyPath: m_Layer
      value: 8
      objectReference: {fileID: 0}
    - target: {fileID: 100032, guid: 003683def912cc54abf91fc41daf6b20, type: 3}
      propertyPath: m_Layer
      value: 8
      objectReference: {fileID: 0}
    - target: {fileID: 100034, guid: 003683def912cc54abf91fc41daf6b20, type: 3}
      propertyPath: m_Layer
      value: 8
      objectReference: {fileID: 0}
    - target: {fileID: 100036, guid: 003683def912cc54abf91fc41daf6b20, type: 3}
      propertyPath: m_Layer
      value: 8
      objectReference: {fileID: 0}
    - target: {fileID: 100038, guid: 003683def912cc54abf91fc41daf6b20, type: 3}
      propertyPath: m_Layer
      value: 8
      objectReference: {fileID: 0}
    - target: {fileID: 100040, guid: 003683def912cc54abf91fc41daf6b20, type: 3}
      propertyPath: m_Layer
      value: 8
      objectReference: {fileID: 0}
    - target: {fileID: 100042, guid: 003683def912cc54abf91fc41daf6b20, type: 3}
      propertyPath: m_Layer
      value: 8
      objectReference: {fileID: 0}
    - target: {fileID: 100044, guid: 003683def912cc54abf91fc41daf6b20, type: 3}
      propertyPath: m_Layer
      value: 8
      objectReference: {fileID: 0}
    - target: {fileID: 100046, guid: 003683def912cc54abf91fc41daf6b20, type: 3}
      propertyPath: m_Layer
      value: 8
      objectReference: {fileID: 0}
    - target: {fileID: 100048, guid: 003683def912cc54abf91fc41daf6b20, type: 3}
      propertyPath: m_Layer
      value: 8
      objectReference: {fileID: 0}
    - target: {fileID: 100050, guid: 003683def912cc54abf91fc41daf6b20, type: 3}
      propertyPath: m_Layer
      value: 8
      objectReference: {fileID: 0}
    - target: {fileID: 100052, guid: 003683def912cc54abf91fc41daf6b20, type: 3}
      propertyPath: m_Layer
      value: 8
      objectReference: {fileID: 0}
    - target: {fileID: 100054, guid: 003683def912cc54abf91fc41daf6b20, type: 3}
      propertyPath: m_Layer
      value: 8
      objectReference: {fileID: 0}
    - target: {fileID: 100056, guid: 003683def912cc54abf91fc41daf6b20, type: 3}
      propertyPath: m_Layer
      value: 8
      objectReference: {fileID: 0}
    - target: {fileID: 100058, guid: 003683def912cc54abf91fc41daf6b20, type: 3}
      propertyPath: m_Layer
      value: 8
      objectReference: {fileID: 0}
    - target: {fileID: 100060, guid: 003683def912cc54abf91fc41daf6b20, type: 3}
      propertyPath: m_Layer
      value: 8
      objectReference: {fileID: 0}
    - target: {fileID: 100062, guid: 003683def912cc54abf91fc41daf6b20, type: 3}
      propertyPath: m_Layer
      value: 8
      objectReference: {fileID: 0}
    - target: {fileID: 100064, guid: 003683def912cc54abf91fc41daf6b20, type: 3}
      propertyPath: m_Layer
      value: 8
      objectReference: {fileID: 0}
    - target: {fileID: 100066, guid: 003683def912cc54abf91fc41daf6b20, type: 3}
      propertyPath: m_Layer
      value: 8
      objectReference: {fileID: 0}
    - target: {fileID: 100068, guid: 003683def912cc54abf91fc41daf6b20, type: 3}
      propertyPath: m_Layer
      value: 8
      objectReference: {fileID: 0}
    - target: {fileID: 100070, guid: 003683def912cc54abf91fc41daf6b20, type: 3}
      propertyPath: m_Layer
      value: 8
      objectReference: {fileID: 0}
    - target: {fileID: 100072, guid: 003683def912cc54abf91fc41daf6b20, type: 3}
      propertyPath: m_Layer
      value: 8
      objectReference: {fileID: 0}
    - target: {fileID: 100074, guid: 003683def912cc54abf91fc41daf6b20, type: 3}
      propertyPath: m_Layer
      value: 8
      objectReference: {fileID: 0}
    - target: {fileID: 100076, guid: 003683def912cc54abf91fc41daf6b20, type: 3}
      propertyPath: m_Layer
      value: 8
      objectReference: {fileID: 0}
    - target: {fileID: 400080, guid: 003683def912cc54abf91fc41daf6b20, type: 3}
      propertyPath: m_LocalPosition.x
      value: 0
      objectReference: {fileID: 0}
    - target: {fileID: 400080, guid: 003683def912cc54abf91fc41daf6b20, type: 3}
      propertyPath: m_LocalPosition.y
      value: 0
      objectReference: {fileID: 0}
    - target: {fileID: 400080, guid: 003683def912cc54abf91fc41daf6b20, type: 3}
      propertyPath: m_LocalPosition.z
      value: 0
      objectReference: {fileID: 0}
    - target: {fileID: 400080, guid: 003683def912cc54abf91fc41daf6b20, type: 3}
      propertyPath: m_LocalRotation.x
      value: -0
      objectReference: {fileID: 0}
    - target: {fileID: 400080, guid: 003683def912cc54abf91fc41daf6b20, type: 3}
      propertyPath: m_LocalRotation.y
      value: -0
      objectReference: {fileID: 0}
    - target: {fileID: 400080, guid: 003683def912cc54abf91fc41daf6b20, type: 3}
      propertyPath: m_LocalRotation.z
      value: -0
      objectReference: {fileID: 0}
    - target: {fileID: 400080, guid: 003683def912cc54abf91fc41daf6b20, type: 3}
      propertyPath: m_LocalRotation.w
      value: 1
      objectReference: {fileID: 0}
    - target: {fileID: 400080, guid: 003683def912cc54abf91fc41daf6b20, type: 3}
      propertyPath: m_RootOrder
      value: 0
      objectReference: {fileID: 0}
    - target: {fileID: 400080, guid: 003683def912cc54abf91fc41daf6b20, type: 3}
      propertyPath: m_LocalEulerAnglesHint.x
      value: 0
      objectReference: {fileID: 0}
    - target: {fileID: 400080, guid: 003683def912cc54abf91fc41daf6b20, type: 3}
      propertyPath: m_LocalEulerAnglesHint.y
      value: 0
      objectReference: {fileID: 0}
    - target: {fileID: 400080, guid: 003683def912cc54abf91fc41daf6b20, type: 3}
      propertyPath: m_LocalEulerAnglesHint.z
      value: 0
      objectReference: {fileID: 0}
    - target: {fileID: 9500000, guid: 003683def912cc54abf91fc41daf6b20, type: 3}
      propertyPath: m_Controller
      value: 
      objectReference: {fileID: 9100000, guid: 0ad1af49b1ea10c42b0979951f6231f5, type: 2}
    - target: {fileID: 13700000, guid: 003683def912cc54abf91fc41daf6b20, type: 3}
      propertyPath: m_Materials.Array.data[0]
      value: 
      objectReference: {fileID: 2100000, guid: ad379857edd431e42806840ad5b0c278, type: 2}
    - target: {fileID: 13700000, guid: 003683def912cc54abf91fc41daf6b20, type: 3}
      propertyPath: m_Materials.Array.data[1]
      value: 
      objectReference: {fileID: 2100000, guid: 612206f2d6c2d7642b851fb8e5640150, type: 2}
    - target: {fileID: 13700002, guid: 003683def912cc54abf91fc41daf6b20, type: 3}
      propertyPath: m_Materials.Array.data[0]
      value: 
      objectReference: {fileID: 2100000, guid: 34536b34702835b47b452a0a83f5b3fb, type: 2}
    - target: {fileID: 13700004, guid: 003683def912cc54abf91fc41daf6b20, type: 3}
      propertyPath: m_Materials.Array.data[0]
      value: 
      objectReference: {fileID: 2100000, guid: 34536b34702835b47b452a0a83f5b3fb, type: 2}
    - target: {fileID: 13700006, guid: 003683def912cc54abf91fc41daf6b20, type: 3}
      propertyPath: m_Materials.Array.data[0]
      value: 
      objectReference: {fileID: 2100000, guid: ad379857edd431e42806840ad5b0c278, type: 2}
    - target: {fileID: 13700008, guid: 003683def912cc54abf91fc41daf6b20, type: 3}
      propertyPath: m_Materials.Array.data[0]
      value: 
      objectReference: {fileID: 2100000, guid: 612206f2d6c2d7642b851fb8e5640150, type: 2}
    - target: {fileID: 100082, guid: 003683def912cc54abf91fc41daf6b20, type: 3}
      propertyPath: m_Layer
      value: 8
      objectReference: {fileID: 0}
    - target: {fileID: 13700012, guid: 003683def912cc54abf91fc41daf6b20, type: 3}
      propertyPath: m_Materials.Array.data[0]
      value: 
      objectReference: {fileID: 2100000, guid: 34536b34702835b47b452a0a83f5b3fb, type: 2}
    - target: {fileID: 100084, guid: 003683def912cc54abf91fc41daf6b20, type: 3}
      propertyPath: m_Layer
      value: 8
      objectReference: {fileID: 0}
    m_RemovedComponents: []
  m_SourcePrefab: {fileID: 100100000, guid: 003683def912cc54abf91fc41daf6b20, type: 3}
--- !u!4 &8674109209699703635 stripped
Transform:
  m_CorrespondingSourceObject: {fileID: 400080, guid: 003683def912cc54abf91fc41daf6b20,
    type: 3}
  m_PrefabInstance: {fileID: 8674109209700090243}
  m_PrefabAsset: {fileID: 0}
