%YAML 1.1
%TAG !u! tag:unity3d.com,2011:
--- !u!114 &11400000
MonoBehaviour:
  m_ObjectHideFlags: 0
  m_CorrespondingSourceObject: {fileID: 0}
  m_PrefabInstance: {fileID: 0}
  m_PrefabAsset: {fileID: 0}
  m_GameObject: {fileID: 0}
  m_Enabled: 1
  m_EditorHideFlags: 0
  m_Script: {fileID: 11500000, guid: 1f2d77184448949bc8e6e903093950b9, type: 3}
  m_Name: ttpIncludedServices
  m_EditorClassIdentifier: 
  appsFlyer: 1
  analytics: 1
  banners: 1
  interstitials: 1
  rvs: 1
  crashTool: 1
  privacySettings: 1
  rateUs: 1
  openAds: 1
  rvInter: 1
  promotion: 1
