g Shelf_Wall_03
v -1.597476 0.2972519 1.410223
v -1.580986 0.2807609 1.410223
v -1.597476 0.2807609 1.426713
v -1.597476 0.09244077 1.426713
v -1.580986 0.09244077 1.410223
v -1.597476 0.07594936 1.410223
v -1.597476 0.2972517 0.01649138
v -1.597476 0.2807608 -3.346929E-08
v -1.580986 0.2807608 0.01649138
v -1.597476 0.07594919 0.0164914
v -1.580986 0.09244061 0.0164914
v -1.597476 0.09244061 -1.101978E-08
v -1.751575 0.2972519 1.410223
v -1.751575 0.2807609 1.426713
v -1.768067 0.2807609 1.410223
v -1.751575 0.07594936 1.410223
v -1.768067 0.09244077 1.410223
v -1.751575 0.09244077 1.426713
v -1.751575 0.2972517 0.01649138
v -1.768067 0.2807608 0.01649138
v -1.751575 0.2807608 -3.346929E-08
v -1.751575 0.07594919 0.0164914
v -1.751575 0.09244061 -1.101978E-08
v -1.768067 0.09244061 0.0164914
v 1.619489 0.2972519 1.410223
v 1.619489 0.2807609 1.426713
v 1.602997 0.2807609 1.410223
v 1.619489 0.09244077 1.426713
v 1.619489 0.07594936 1.410223
v 1.602997 0.09244077 1.410223
v 1.619489 0.2972517 0.01649138
v 1.602997 0.2807608 0.01649138
v 1.619489 0.2807608 -3.346929E-08
v 1.619489 0.07594919 0.0164914
v 1.619489 0.09244061 -1.101978E-08
v 1.602997 0.09244061 0.0164914
v 1.765592 0.2972519 1.410223
v 1.782083 0.2807609 1.410223
v 1.765592 0.2807609 1.426713
v 1.765592 0.07594936 1.410223
v 1.765592 0.09244077 1.426713
v 1.782083 0.09244077 1.410223
v 1.765592 0.2972517 0.01649138
v 1.765592 0.2807608 -3.346929E-08
v 1.782083 0.2807608 0.01649138
v 1.765592 0.07594919 0.0164914
v 1.782083 0.09244061 0.0164914
v 1.765592 0.09244061 -1.101978E-08
v -1.751575 0.2807609 1.426713
v -1.597476 0.2807609 1.426713
v -1.597476 0.09244077 1.426713
v -1.751575 0.09244077 1.426713
v -1.759327 0.1270873 1.375576
v -1.759327 0.1270871 0.05113791
v -1.752768 0.1270871 0.05113791
v -1.752768 0.1270873 1.375576
v -1.751575 0.07594919 0.0164914
v -1.751575 0.07594936 1.410223
v -1.597476 0.07594936 1.410223
v -1.597476 0.07594919 0.0164914
v -1.580986 0.2807609 1.410223
v -1.580986 0.2807608 0.01649138
v -1.580986 0.09244061 0.0164914
v -1.580986 0.09244077 1.410223
v -1.597476 0.2807608 -3.346929E-08
v -1.751575 0.2807608 -3.346929E-08
v -1.751575 0.09244061 -1.101978E-08
v -1.597476 0.09244061 -1.101978E-08
v -1.580986 0.2807608 0.01649138
v -1.580986 0.2807609 1.410223
v -1.597476 0.2972519 1.410223
v -1.597476 0.2972517 0.01649138
v -1.580986 0.2807609 1.410223
v -1.580986 0.09244077 1.410223
v -1.597476 0.09244077 1.426713
v -1.597476 0.2807609 1.426713
v -1.580986 0.09244077 1.410223
v -1.580986 0.09244061 0.0164914
v -1.597476 0.07594919 0.0164914
v -1.597476 0.07594936 1.410223
v -1.580986 0.09244061 0.0164914
v -1.580986 0.2807608 0.01649138
v -1.597476 0.2807608 -3.346929E-08
v -1.597476 0.09244061 -1.101978E-08
v -1.751575 0.2807608 -3.346929E-08
v -1.597476 0.2807608 -3.346929E-08
v -1.597476 0.2972517 0.01649138
v -1.751575 0.2972517 0.01649138
v -1.597476 0.09244061 -1.101978E-08
v -1.751575 0.09244061 -1.101978E-08
v -1.751575 0.07594919 0.0164914
v -1.597476 0.07594919 0.0164914
v -1.751575 0.09244061 -1.101978E-08
v -1.751575 0.2807608 -3.346929E-08
v -1.768067 0.2807608 0.01649138
v -1.768067 0.09244061 0.0164914
v -1.768067 0.2807609 1.410223
v -1.768067 0.2807608 0.01649138
v -1.751575 0.2972517 0.01649138
v -1.751575 0.2972519 1.410223
v -1.768067 0.09244061 0.0164914
v -1.768067 0.09244077 1.410223
v -1.751575 0.07594936 1.410223
v -1.751575 0.07594919 0.0164914
v -1.768067 0.09244077 1.410223
v -1.768067 0.2807609 1.410223
v -1.751575 0.2807609 1.426713
v -1.751575 0.09244077 1.426713
v -1.597476 0.2807609 1.426713
v -1.751575 0.2807609 1.426713
v -1.751575 0.2972519 1.410223
v -1.597476 0.2972519 1.410223
v -1.751575 0.09244077 1.426713
v -1.597476 0.09244077 1.426713
v -1.597476 0.07594936 1.410223
v -1.751575 0.07594936 1.410223
v -1.597476 0.2972517 0.01649138
v -1.597476 0.2972519 1.410223
v -1.751575 0.2972519 1.410223
v -1.751575 0.2972517 0.01649138
v -1.759327 0.2461139 1.375576
v -1.759327 0.1270873 1.375576
v -1.752768 0.1270873 1.375576
v -1.752768 0.2461139 1.375576
v -1.759327 0.1270871 0.05113791
v -1.759327 0.2461138 0.05113789
v -1.752768 0.2461138 0.05113789
v -1.752768 0.1270871 0.05113791
v -1.759327 0.2461138 0.05113789
v -1.759327 0.2461139 1.375576
v -1.752768 0.2461139 1.375576
v -1.752768 0.2461138 0.05113789
v -1.752768 0.2461138 0.05113789
v -1.752768 0.2461139 1.375576
v -1.752768 0.1270873 1.375576
v -1.752768 0.1270871 0.05113791
v -1.759327 0.2461138 0.05113789
v -1.759327 0.1270871 0.05113791
v -1.768067 0.1183476 0.04239844
v -1.768067 0.2548532 0.04239842
v -1.759327 0.2461139 1.375576
v -1.759327 0.2461138 0.05113789
v -1.768067 0.2548532 0.04239842
v -1.768067 0.2548534 1.384315
v -1.759327 0.1270871 0.05113791
v -1.759327 0.1270873 1.375576
v -1.768067 0.1183478 1.384315
v -1.768067 0.1183476 0.04239844
v -1.759327 0.1270873 1.375576
v -1.759327 0.2461139 1.375576
v -1.768067 0.2548534 1.384315
v -1.768067 0.1183478 1.384315
v 1.765592 0.2807609 1.426713
v 1.765592 0.09244077 1.426713
v 1.619489 0.09244077 1.426713
v 1.619489 0.2807609 1.426713
v 1.773344 0.1270873 1.375576
v 1.766784 0.1270873 1.375576
v 1.766784 0.1270871 0.05113791
v 1.773344 0.1270871 0.05113791
v 1.765592 0.07594919 0.0164914
v 1.619489 0.07594919 0.0164914
v 1.619489 0.07594936 1.410223
v 1.765592 0.07594936 1.410223
v 1.602997 0.2807609 1.410223
v 1.602997 0.09244077 1.410223
v 1.602997 0.09244061 0.0164914
v 1.602997 0.2807608 0.01649138
v 1.619489 0.2807608 -3.346929E-08
v 1.619489 0.09244061 -1.101978E-08
v 1.765592 0.09244061 -1.101978E-08
v 1.765592 0.2807608 -3.346929E-08
v 1.602997 0.2807608 0.01649138
v 1.619489 0.2972517 0.01649138
v 1.619489 0.2972519 1.410223
v 1.602997 0.2807609 1.410223
v 1.602997 0.2807609 1.410223
v 1.619489 0.2807609 1.426713
v 1.619489 0.09244077 1.426713
v 1.602997 0.09244077 1.410223
v 1.602997 0.09244077 1.410223
v 1.619489 0.07594936 1.410223
v 1.619489 0.07594919 0.0164914
v 1.602997 0.09244061 0.0164914
v 1.602997 0.09244061 0.0164914
v 1.619489 0.09244061 -1.101978E-08
v 1.619489 0.2807608 -3.346929E-08
v 1.602997 0.2807608 0.01649138
v 1.765592 0.2807608 -3.346929E-08
v 1.765592 0.2972517 0.01649138
v 1.619489 0.2972517 0.01649138
v 1.619489 0.2807608 -3.346929E-08
v 1.619489 0.09244061 -1.101978E-08
v 1.619489 0.07594919 0.0164914
v 1.765592 0.07594919 0.0164914
v 1.765592 0.09244061 -1.101978E-08
v 1.765592 0.09244061 -1.101978E-08
v 1.782083 0.09244061 0.0164914
v 1.782083 0.2807608 0.01649138
v 1.765592 0.2807608 -3.346929E-08
v 1.782083 0.2807609 1.410223
v 1.765592 0.2972519 1.410223
v 1.765592 0.2972517 0.01649138
v 1.782083 0.2807608 0.01649138
v 1.782083 0.09244061 0.0164914
v 1.765592 0.07594919 0.0164914
v 1.765592 0.07594936 1.410223
v 1.782083 0.09244077 1.410223
v 1.782083 0.09244077 1.410223
v 1.765592 0.09244077 1.426713
v 1.765592 0.2807609 1.426713
v 1.782083 0.2807609 1.410223
v 1.619489 0.2807609 1.426713
v 1.619489 0.2972519 1.410223
v 1.765592 0.2972519 1.410223
v 1.765592 0.2807609 1.426713
v 1.765592 0.09244077 1.426713
v 1.765592 0.07594936 1.410223
v 1.619489 0.07594936 1.410223
v 1.619489 0.09244077 1.426713
v 1.619489 0.2972517 0.01649138
v 1.765592 0.2972517 0.01649138
v 1.765592 0.2972519 1.410223
v 1.619489 0.2972519 1.410223
v 1.773344 0.2461139 1.375576
v 1.766784 0.2461139 1.375576
v 1.766784 0.1270873 1.375576
v 1.773344 0.1270873 1.375576
v 1.773344 0.1270871 0.05113791
v 1.766784 0.1270871 0.05113791
v 1.766784 0.2461138 0.05113789
v 1.773344 0.2461138 0.05113789
v 1.773344 0.2461138 0.05113789
v 1.766784 0.2461138 0.05113789
v 1.766784 0.2461139 1.375576
v 1.773344 0.2461139 1.375576
v 1.766784 0.2461138 0.05113789
v 1.766784 0.1270871 0.05113791
v 1.766784 0.1270873 1.375576
v 1.766784 0.2461139 1.375576
v 1.773344 0.2461138 0.05113789
v 1.782083 0.2548532 0.04239842
v 1.782083 0.1183476 0.04239844
v 1.773344 0.1270871 0.05113791
v 1.773344 0.2461139 1.375576
v 1.782083 0.2548534 1.384315
v 1.782083 0.2548532 0.04239842
v 1.773344 0.2461138 0.05113789
v 1.773344 0.1270871 0.05113791
v 1.782083 0.1183476 0.04239844
v 1.782083 0.1183478 1.384315
v 1.773344 0.1270873 1.375576
v 1.773344 0.1270873 1.375576
v 1.782083 0.1183478 1.384315
v 1.782083 0.2548534 1.384315
v 1.773344 0.2461139 1.375576
v 1.758316 0.2559635 1.327745
v -1.74694 0.2350003 1.378356
v -1.74694 0.2559635 1.327745
v 1.758316 0.2350003 1.378356
v -1.746941 0.1843893 1.399319
v 1.758316 0.1843893 1.399319
v -1.746941 0.1337787 1.378356
v 1.758316 0.1337787 1.378356
v -1.746941 0.1128151 1.327745
v 1.758316 0.1128151 1.327745
v 1.758316 0.2350003 1.277134
v 1.758316 0.2559635 1.327745
v -1.74694 0.2559635 1.327745
v -1.74694 0.2350003 1.277134
v 1.758316 0.1843893 1.256171
v -1.746941 0.1843893 1.25617
v 1.758316 0.1337787 1.277134
v -1.746941 0.1337787 1.277134
v 1.758316 0.1128151 1.327745
v -1.746941 0.1128151 1.327745
v 1.758316 0.2559635 1.099777
v -1.74694 0.2350003 1.150388
v -1.74694 0.2559635 1.099777
v 1.758316 0.2350003 1.150388
v -1.746941 0.1843892 1.171351
v 1.758316 0.1843892 1.171351
v -1.746941 0.1337787 1.150388
v 1.758316 0.1337787 1.150388
v -1.746941 0.112815 1.099777
v 1.758316 0.112815 1.099777
v 1.758316 0.2350003 1.049166
v 1.758316 0.2559635 1.099777
v -1.74694 0.2559635 1.099777
v -1.74694 0.2350003 1.049166
v 1.758316 0.1843892 1.028203
v -1.746941 0.1843892 1.028203
v 1.758316 0.1337787 1.049166
v -1.746941 0.1337787 1.049166
v 1.758316 0.112815 1.099777
v -1.746941 0.112815 1.099777
v 1.758316 0.2559634 0.871809
v -1.74694 0.2350003 0.92242
v -1.74694 0.2559634 0.871809
v 1.758316 0.2350003 0.92242
v -1.746941 0.1843892 0.9433832
v 1.758316 0.1843892 0.9433832
v -1.746941 0.1337787 0.92242
v 1.758316 0.1337787 0.92242
v -1.746941 0.112815 0.871809
v 1.758316 0.112815 0.871809
v 1.758316 0.2350002 0.8211985
v 1.758316 0.2559634 0.871809
v -1.74694 0.2559634 0.871809
v -1.74694 0.2350002 0.8211985
v 1.758316 0.1843892 0.8002348
v -1.746941 0.1843892 0.8002348
v 1.758316 0.1337787 0.8211985
v -1.746941 0.1337787 0.8211985
v 1.758316 0.112815 0.871809
v -1.746941 0.112815 0.871809
v 1.758316 0.2559634 0.6191382
v -1.74694 0.2350002 0.6697493
v -1.74694 0.2559634 0.6191382
v 1.758316 0.2350002 0.6697488
v -1.746941 0.1843892 0.6907125
v 1.758316 0.1843892 0.6907125
v -1.746941 0.1337786 0.6697488
v 1.758316 0.1337786 0.6697488
v -1.746941 0.112815 0.6191382
v 1.758316 0.112815 0.6191382
v 1.758316 0.2350002 0.5685277
v 1.758316 0.2559634 0.6191382
v -1.74694 0.2559634 0.6191382
v -1.74694 0.2350002 0.5685277
v 1.758316 0.1843892 0.547564
v -1.746941 0.1843892 0.547564
v 1.758316 0.1337786 0.5685277
v -1.746941 0.1337786 0.5685277
v 1.758316 0.112815 0.6191382
v -1.746941 0.112815 0.6191382
v 1.758316 0.2559634 0.3664674
v -1.74694 0.2350002 0.417078
v -1.74694 0.2559634 0.3664674
v 1.758316 0.2350002 0.417078
v -1.746941 0.1843892 0.4380417
v 1.758316 0.1843892 0.4380417
v -1.746941 0.1337786 0.417078
v 1.758316 0.1337786 0.417078
v -1.746941 0.1128149 0.3664675
v 1.758316 0.1128149 0.3664675
v 1.758316 0.2350002 0.3158564
v 1.758316 0.2559634 0.3664674
v -1.74694 0.2559634 0.3664674
v -1.74694 0.2350002 0.3158564
v 1.758316 0.1843891 0.2948933
v -1.746941 0.1843891 0.2948933
v 1.758316 0.1337786 0.3158565
v -1.746941 0.1337786 0.3158565
v 1.758316 0.1128149 0.3664675
v -1.746941 0.1128149 0.3664675
v 1.758316 0.2559633 0.1137967
v -1.74694 0.2350001 0.1644072
v -1.74694 0.2559633 0.1137967
v 1.758316 0.2350001 0.1644072
v -1.746941 0.1843891 0.1853709
v 1.758316 0.1843891 0.1853709
v -1.746941 0.1337786 0.1644072
v 1.758316 0.1337786 0.1644072
v -1.746941 0.1128149 0.1137967
v 1.758316 0.1128149 0.1137967
v 1.758316 0.2350001 0.06318567
v 1.758316 0.2559633 0.1137967
v -1.74694 0.2559633 0.1137967
v -1.74694 0.2350001 0.06318567
v 1.758316 0.1843891 0.042222
v -1.746941 0.1843891 0.042222
v 1.758316 0.1337786 0.06318568
v -1.746941 0.1337786 0.06318568
v 1.758316 0.1128149 0.1137967
v -1.746941 0.1128149 0.1137967
v 1.72401 0.05222655 0.06562757
v 1.72401 -0.5921044 0.06562764
v 1.72401 -0.5921044 0.09646089
v 1.72401 -0.5744281 0.2605501
v 1.72401 -0.5175719 0.4112101
v 1.72401 -0.4217586 0.5396133
v 1.72401 -0.2933559 0.6354265
v 1.72401 -0.1426953 0.6922822
v 1.72401 0.02139338 0.709959
v 1.72401 0.05222663 0.709959
v 1.71091 -0.6379881 0.01974447
v 1.71091 0.09810972 0.01974439
v 1.688649 0.09810972 0.01974439
v 1.688649 -0.6379881 0.01974447
v 1.71091 0.09810981 0.7558427
v 1.71091 0.0189291 0.7558427
v 1.688649 0.0189291 0.7558427
v 1.688649 0.09810981 0.7558427
v 1.71091 -0.454544 0.5723982
v 1.71091 -0.5582156 0.4334646
v 1.688649 -0.5582156 0.4334646
v 1.688649 -0.454544 0.5723982
v 1.71091 -0.6379881 0.09892567
v 1.71091 -0.6379881 0.01974447
v 1.688649 -0.6379881 0.01974447
v 1.688649 -0.6379881 0.09892567
v 1.71091 0.0189291 0.7558427
v 1.71091 -0.1534242 0.7372756
v 1.688649 -0.1534242 0.7372756
v 1.688649 0.0189291 0.7558427
v 1.71091 -0.5582156 0.4334646
v 1.71091 -0.619421 0.2712789
v 1.688649 -0.619421 0.2712789
v 1.688649 -0.5582156 0.4334646
v 1.71091 -0.1534242 0.7372756
v 1.71091 -0.3156103 0.6760697
v 1.688649 -0.3156103 0.6760697
v 1.688649 -0.1534242 0.7372756
v 1.675549 -0.606576 0.2682153
v 1.675549 -0.6248879 0.09822328
v 1.675549 -0.6248879 0.03284414
v 1.675549 0.08501005 0.03284453
v 1.675549 -0.5466112 0.4271112
v 1.675549 -0.4451837 0.5630384
v 1.675549 -0.3092569 0.6644659
v 1.675549 -0.150361 0.7244301
v 1.675549 0.01963147 0.7427425
v 1.675549 0.08501014 0.7427425
v 1.71091 -0.619421 0.2712789
v 1.71091 -0.6379881 0.09892567
v 1.688649 -0.6379881 0.09892567
v 1.688649 -0.619421 0.2712789
v 1.71091 -0.3156103 0.6760697
v 1.71091 -0.454544 0.5723982
v 1.688649 -0.454544 0.5723982
v 1.688649 -0.3156103 0.6760697
v 1.71091 0.09810972 0.01974439
v 1.72401 0.08501005 0.03284453
v 1.72401 0.08501014 0.7427425
v 1.71091 0.09810981 0.7558427
v 1.71091 -0.6379881 0.01974447
v 1.72401 -0.6248879 0.03284414
v 1.72401 0.08501005 0.03284453
v 1.71091 0.09810972 0.01974439
v 1.71091 0.09810981 0.7558427
v 1.72401 0.08501014 0.7427425
v 1.72401 0.01963243 0.7427425
v 1.71091 0.0189291 0.7558427
v 1.71091 0.0189291 0.7558427
v 1.72401 0.01963243 0.7427425
v 1.72401 -0.150361 0.7244296
v 1.71091 -0.1534242 0.7372756
v 1.71091 -0.1534242 0.7372756
v 1.72401 -0.150361 0.7244296
v 1.72401 -0.3092565 0.6644659
v 1.71091 -0.3156103 0.6760697
v 1.71091 -0.3156103 0.6760697
v 1.72401 -0.3092565 0.6644659
v 1.72401 -0.4451837 0.5630384
v 1.71091 -0.454544 0.5723982
v 1.71091 -0.454544 0.5723982
v 1.72401 -0.4451837 0.5630384
v 1.72401 -0.5466117 0.4271107
v 1.71091 -0.5582156 0.4334646
v 1.71091 -0.5582156 0.4334646
v 1.72401 -0.5466117 0.4271107
v 1.72401 -0.6065755 0.2682157
v 1.71091 -0.619421 0.2712789
v 1.71091 -0.619421 0.2712789
v 1.72401 -0.6065755 0.2682157
v 1.72401 -0.6248879 0.09822185
v 1.71091 -0.6379881 0.09892567
v 1.71091 -0.6379881 0.09892567
v 1.72401 -0.6248879 0.09822185
v 1.72401 -0.6248879 0.03284414
v 1.71091 -0.6379881 0.01974447
v 1.675549 0.08501005 0.03284453
v 1.688649 0.09810972 0.01974439
v 1.688649 0.09810981 0.7558427
v 1.675549 0.08501014 0.7427425
v 1.675549 -0.6248879 0.03284414
v 1.688649 -0.6379881 0.01974447
v 1.688649 0.09810972 0.01974439
v 1.675549 0.08501005 0.03284453
v 1.675549 0.08501014 0.7427425
v 1.688649 0.09810981 0.7558427
v 1.688649 0.0189291 0.7558427
v 1.675549 0.01963147 0.7427425
v 1.675549 0.01963147 0.7427425
v 1.688649 0.0189291 0.7558427
v 1.688649 -0.1534242 0.7372756
v 1.675549 -0.150361 0.7244301
v 1.675549 -0.150361 0.7244301
v 1.688649 -0.1534242 0.7372756
v 1.688649 -0.3156103 0.6760697
v 1.675549 -0.3092569 0.6644659
v 1.675549 -0.3092569 0.6644659
v 1.688649 -0.3156103 0.6760697
v 1.688649 -0.454544 0.5723982
v 1.675549 -0.4451837 0.5630384
v 1.675549 -0.4451837 0.5630384
v 1.688649 -0.454544 0.5723982
v 1.688649 -0.5582156 0.4334646
v 1.675549 -0.5466112 0.4271112
v 1.675549 -0.5466112 0.4271112
v 1.688649 -0.5582156 0.4334646
v 1.688649 -0.619421 0.2712789
v 1.675549 -0.606576 0.2682153
v 1.675549 -0.606576 0.2682153
v 1.688649 -0.619421 0.2712789
v 1.688649 -0.6379881 0.09892567
v 1.675549 -0.6248879 0.09822328
v 1.675549 -0.6248879 0.09822328
v 1.688649 -0.6379881 0.09892567
v 1.688649 -0.6379881 0.01974447
v 1.675549 -0.6248879 0.03284414
v 1.71091 0.09810972 0.01974439
v 1.71091 0.09810981 0.7558427
v 1.688649 0.09810981 0.7558427
v 1.688649 0.09810972 0.01974439
v -1.746896 -0.5744281 0.2605501
v -1.746896 -0.5921044 0.09646089
v -1.746896 -0.5921044 0.06562764
v -1.746896 0.05222655 0.06562757
v -1.746896 -0.5175719 0.4112101
v -1.746896 -0.4217586 0.5396133
v -1.746896 -0.2933559 0.6354265
v -1.746896 -0.1426953 0.6922822
v -1.746896 0.02139338 0.709959
v -1.746896 0.05222663 0.709959
v -1.733797 -0.6379881 0.01974447
v -1.711535 -0.6379881 0.01974447
v -1.711535 0.09810972 0.01974439
v -1.733797 0.09810972 0.01974439
v -1.733797 0.09810981 0.7558427
v -1.711535 0.09810981 0.7558427
v -1.711535 0.0189291 0.7558427
v -1.733797 0.0189291 0.7558427
v -1.733797 -0.454544 0.5723982
v -1.711535 -0.454544 0.5723982
v -1.711535 -0.5582156 0.4334646
v -1.733797 -0.5582156 0.4334646
v -1.733797 -0.6379881 0.09892567
v -1.711535 -0.6379881 0.09892567
v -1.711535 -0.6379881 0.01974447
v -1.733797 -0.6379881 0.01974447
v -1.733797 0.0189291 0.7558427
v -1.711535 0.0189291 0.7558427
v -1.711535 -0.1534242 0.7372756
v -1.733797 -0.1534242 0.7372756
v -1.733797 -0.5582156 0.4334646
v -1.711535 -0.5582156 0.4334646
v -1.711535 -0.619421 0.2712789
v -1.733797 -0.619421 0.2712789
v -1.733797 -0.1534242 0.7372756
v -1.711535 -0.1534242 0.7372756
v -1.711535 -0.3156103 0.6760697
v -1.733797 -0.3156103 0.6760697
v -1.698434 0.08501005 0.03284453
v -1.698434 -0.6248879 0.03284414
v -1.698434 -0.6248879 0.09822328
v -1.698434 -0.606576 0.2682153
v -1.698434 -0.5466112 0.4271112
v -1.698434 -0.4451837 0.5630384
v -1.698434 -0.3092569 0.6644659
v -1.698434 -0.150361 0.7244301
v -1.698434 0.01963147 0.7427425
v -1.698434 0.08501014 0.7427425
v -1.733797 -0.619421 0.2712789
v -1.711535 -0.619421 0.2712789
v -1.711535 -0.6379881 0.09892567
v -1.733797 -0.6379881 0.09892567
v -1.733797 -0.3156103 0.6760697
v -1.711535 -0.3156103 0.6760697
v -1.711535 -0.454544 0.5723982
v -1.733797 -0.454544 0.5723982
v -1.733797 0.09810972 0.01974439
v -1.733797 0.09810981 0.7558427
v -1.746896 0.08501014 0.7427425
v -1.746896 0.08501005 0.03284453
v -1.733797 -0.6379881 0.01974447
v -1.733797 0.09810972 0.01974439
v -1.746896 0.08501005 0.03284453
v -1.746896 -0.6248879 0.03284414
v -1.733797 0.09810981 0.7558427
v -1.733797 0.0189291 0.7558427
v -1.746896 0.01963243 0.7427425
v -1.746896 0.08501014 0.7427425
v -1.733797 0.0189291 0.7558427
v -1.733797 -0.1534242 0.7372756
v -1.746896 -0.150361 0.7244296
v -1.746896 0.01963243 0.7427425
v -1.733797 -0.1534242 0.7372756
v -1.733797 -0.3156103 0.6760697
v -1.746896 -0.3092565 0.6644659
v -1.746896 -0.150361 0.7244296
v -1.733797 -0.3156103 0.6760697
v -1.733797 -0.454544 0.5723982
v -1.746896 -0.4451837 0.5630384
v -1.746896 -0.3092565 0.6644659
v -1.733797 -0.454544 0.5723982
v -1.733797 -0.5582156 0.4334646
v -1.746896 -0.5466117 0.4271107
v -1.746896 -0.4451837 0.5630384
v -1.733797 -0.5582156 0.4334646
v -1.733797 -0.619421 0.2712789
v -1.746896 -0.6065755 0.2682157
v -1.746896 -0.5466117 0.4271107
v -1.733797 -0.619421 0.2712789
v -1.733797 -0.6379881 0.09892567
v -1.746896 -0.6248879 0.09822185
v -1.746896 -0.6065755 0.2682157
v -1.733797 -0.6379881 0.09892567
v -1.733797 -0.6379881 0.01974447
v -1.746896 -0.6248879 0.03284414
v -1.746896 -0.6248879 0.09822185
v -1.698434 0.08501005 0.03284453
v -1.698434 0.08501014 0.7427425
v -1.711535 0.09810981 0.7558427
v -1.711535 0.09810972 0.01974439
v -1.698434 -0.6248879 0.03284414
v -1.698434 0.08501005 0.03284453
v -1.711535 0.09810972 0.01974439
v -1.711535 -0.6379881 0.01974447
v -1.698434 0.08501014 0.7427425
v -1.698434 0.01963147 0.7427425
v -1.711535 0.0189291 0.7558427
v -1.711535 0.09810981 0.7558427
v -1.698434 0.01963147 0.7427425
v -1.698434 -0.150361 0.7244301
v -1.711535 -0.1534242 0.7372756
v -1.711535 0.0189291 0.7558427
v -1.698434 -0.150361 0.7244301
v -1.698434 -0.3092569 0.6644659
v -1.711535 -0.3156103 0.6760697
v -1.711535 -0.1534242 0.7372756
v -1.698434 -0.3092569 0.6644659
v -1.698434 -0.4451837 0.5630384
v -1.711535 -0.454544 0.5723982
v -1.711535 -0.3156103 0.6760697
v -1.698434 -0.4451837 0.5630384
v -1.698434 -0.5466112 0.4271112
v -1.711535 -0.5582156 0.4334646
v -1.711535 -0.454544 0.5723982
v -1.698434 -0.5466112 0.4271112
v -1.698434 -0.606576 0.2682153
v -1.711535 -0.619421 0.2712789
v -1.711535 -0.5582156 0.4334646
v -1.698434 -0.606576 0.2682153
v -1.698434 -0.6248879 0.09822328
v -1.711535 -0.6379881 0.09892567
v -1.711535 -0.619421 0.2712789
v -1.698434 -0.6248879 0.09822328
v -1.698434 -0.6248879 0.03284414
v -1.711535 -0.6379881 0.01974447
v -1.711535 -0.6379881 0.09892567
v -1.733797 0.09810972 0.01974439
v -1.711535 0.09810972 0.01974439
v -1.711535 0.09810981 0.7558427
v -1.733797 0.09810981 0.7558427
v -1.768067 0.1183478 1.384315
v -1.768067 0.2548534 1.384315
v -1.768067 0.2807609 1.410223
v -1.768067 0.09244077 1.410223
v -1.768067 0.2807608 0.01649138
v -1.768067 0.1183476 0.04239844
v -1.768067 0.2548532 0.04239842
v -1.768067 0.09244061 0.0164914
v 1.782083 0.1183478 1.384315
v 1.782083 0.2807609 1.410223
v 1.782083 0.2548534 1.384315
v 1.782083 0.09244077 1.410223
v 1.782083 0.2807608 0.01649138
v 1.782083 0.1183476 0.04239844
v 1.782083 0.2548532 0.04239842
v 1.782083 0.09244061 0.0164914
v 1.72401 0.05222663 0.709959
v 1.72401 0.08501014 0.7427425
v 1.72401 0.08501005 0.03284453
v 1.72401 0.05222655 0.06562757
v 1.72401 0.02139338 0.709959
v 1.72401 -0.6248879 0.03284414
v 1.72401 0.01963243 0.7427425
v 1.72401 -0.5921044 0.06562764
v 1.72401 -0.1426953 0.6922822
v 1.72401 -0.6248879 0.09822185
v 1.72401 -0.150361 0.7244296
v 1.72401 -0.5921044 0.09646089
v 1.72401 -0.2933559 0.6354265
v 1.72401 -0.6065755 0.2682157
v 1.72401 -0.3092565 0.6644659
v 1.72401 -0.5744281 0.2605501
v 1.72401 -0.4217586 0.5396133
v 1.72401 -0.5466117 0.4271107
v 1.72401 -0.4451837 0.5630384
v 1.72401 -0.5175719 0.4112101
v -1.746896 0.05222663 0.709959
v -1.746896 0.05222655 0.06562757
v -1.746896 0.08501005 0.03284453
v -1.746896 0.08501014 0.7427425
v -1.746896 -0.6248879 0.03284414
v -1.746896 0.02139338 0.709959
v -1.746896 -0.5921044 0.06562764
v -1.746896 0.01963243 0.7427425
v -1.746896 -0.6248879 0.09822185
v -1.746896 -0.1426953 0.6922822
v -1.746896 -0.5921044 0.09646089
v -1.746896 -0.150361 0.7244296
v -1.746896 -0.6065755 0.2682157
v -1.746896 -0.2933559 0.6354265
v -1.746896 -0.5744281 0.2605501
v -1.746896 -0.3092565 0.6644659
v -1.746896 -0.5466117 0.4271107
v -1.746896 -0.4217586 0.5396133
v -1.746896 -0.5175719 0.4112101
v -1.746896 -0.4451837 0.5630384
vt 0.1072388 0.9868164
vt 0.1072388 0.9868164
vt 0.1072388 0.9868164
vt 0.1072388 0.9858398
vt 0.1072388 0.9858398
vt 0.1072388 0.9858398
vt 0.1072388 0.9868164
vt 0.1072388 0.9868164
vt 0.1072388 0.9868164
vt 0.1072388 0.9858398
vt 0.1072388 0.9858398
vt 0.1072388 0.9858398
vt 0.1072388 0.9868164
vt 0.1072388 0.9868164
vt 0.1072388 0.9868164
vt 0.1072388 0.9858398
vt 0.1072388 0.9858398
vt 0.1072388 0.9858398
vt 0.1072388 0.9868164
vt 0.1072388 0.9868164
vt 0.1072388 0.9868164
vt 0.1072388 0.9858398
vt 0.1072388 0.9858398
vt 0.1072388 0.9858398
vt 0.1071167 0.9868164
vt 0.1071167 0.9868164
vt 0.1071167 0.9868164
vt 0.1071167 0.9858398
vt 0.1071167 0.9858398
vt 0.1071167 0.9858398
vt 0.1071167 0.9868164
vt 0.1071167 0.9868164
vt 0.1071167 0.9868164
vt 0.1071167 0.9858398
vt 0.1071167 0.9858398
vt 0.1071167 0.9858398
vt 0.1071167 0.9868164
vt 0.1071167 0.9868164
vt 0.1071167 0.9868164
vt 0.1071167 0.9858398
vt 0.1071167 0.9858398
vt 0.1071167 0.9858398
vt 0.1071167 0.9868164
vt 0.1071167 0.9868164
vt 0.1071167 0.9868164
vt 0.1071167 0.9858398
vt 0.1071167 0.9858398
vt 0.1071167 0.9858398
vt 0.1072388 0.9868164
vt 0.1072388 0.9868164
vt 0.1072388 0.9858398
vt 0.1072388 0.9858398
vt 0.1072388 0.9863281
vt 0.1072388 0.9863281
vt 0.1072388 0.9863281
vt 0.1072388 0.9863281
vt 0.1072388 0.9858398
vt 0.1072388 0.9858398
vt 0.1072388 0.9858398
vt 0.1072388 0.9858398
vt 0.1072388 0.9868164
vt 0.1072388 0.9868164
vt 0.1072388 0.9858398
vt 0.1072388 0.9858398
vt 0.1072388 0.9868164
vt 0.1072388 0.9868164
vt 0.1072388 0.9858398
vt 0.1072388 0.9858398
vt 0.1072388 0.9868164
vt 0.1072388 0.9868164
vt 0.1072388 0.9868164
vt 0.1072388 0.9868164
vt 0.1072388 0.9868164
vt 0.1072388 0.9858398
vt 0.1072388 0.9858398
vt 0.1072388 0.9868164
vt 0.1072388 0.9858398
vt 0.1072388 0.9858398
vt 0.1072388 0.9858398
vt 0.1072388 0.9858398
vt 0.1072388 0.9858398
vt 0.1072388 0.9868164
vt 0.1072388 0.9868164
vt 0.1072388 0.9858398
vt 0.1072388 0.9868164
vt 0.1072388 0.9868164
vt 0.1072388 0.9868164
vt 0.1072388 0.9868164
vt 0.1072388 0.9858398
vt 0.1072388 0.9858398
vt 0.1072388 0.9858398
vt 0.1072388 0.9858398
vt 0.1072388 0.9858398
vt 0.1072388 0.9868164
vt 0.1072388 0.9868164
vt 0.1072388 0.9858398
vt 0.1072388 0.9868164
vt 0.1072388 0.9868164
vt 0.1072388 0.9868164
vt 0.1072388 0.9868164
vt 0.1072388 0.9858398
vt 0.1072388 0.9858398
vt 0.1072388 0.9858398
vt 0.1072388 0.9858398
vt 0.1072388 0.9858398
vt 0.1072388 0.9868164
vt 0.1072388 0.9868164
vt 0.1072388 0.9858398
vt 0.1072388 0.9868164
vt 0.1072388 0.9868164
vt 0.1072388 0.9868164
vt 0.1072388 0.9868164
vt 0.1072388 0.9858398
vt 0.1072388 0.9858398
vt 0.1072388 0.9858398
vt 0.1072388 0.9858398
vt 0.1072388 0.9868164
vt 0.1072388 0.9868164
vt 0.1072388 0.9868164
vt 0.1072388 0.9868164
vt 0.1072388 0.9868164
vt 0.1072388 0.9863281
vt 0.1072388 0.9863281
vt 0.1072388 0.9868164
vt 0.1072388 0.9863281
vt 0.1072388 0.9868164
vt 0.1072388 0.9868164
vt 0.1072388 0.9863281
vt 0.1072388 0.9868164
vt 0.1072388 0.9868164
vt 0.1072388 0.9868164
vt 0.1072388 0.9868164
vt 0.5761719 0.9057617
vt 0.5878906 0.9057617
vt 0.5878906 0.8383789
vt 0.5761719 0.8383789
vt 0.1072388 0.9868164
vt 0.1072388 0.9863281
vt 0.1072388 0.9858398
vt 0.1072388 0.9868164
vt 0.1072388 0.9868164
vt 0.1072388 0.9868164
vt 0.1072388 0.9868164
vt 0.1072388 0.9868164
vt 0.1072388 0.9863281
vt 0.1072388 0.9863281
vt 0.1072388 0.9858398
vt 0.1072388 0.9858398
vt 0.1072388 0.9863281
vt 0.1072388 0.9868164
vt 0.1072388 0.9868164
vt 0.1072388 0.9858398
vt 0.1071167 0.9868164
vt 0.1071167 0.9858398
vt 0.1071167 0.9858398
vt 0.1071167 0.9868164
vt 0.1071167 0.9863281
vt 0.1071167 0.9863281
vt 0.1071167 0.9863281
vt 0.1071167 0.9863281
vt 0.1071167 0.9858398
vt 0.1071167 0.9858398
vt 0.1071167 0.9858398
vt 0.1071167 0.9858398
vt 0.1071167 0.9868164
vt 0.1071167 0.9858398
vt 0.1071167 0.9858398
vt 0.1071167 0.9868164
vt 0.1071167 0.9868164
vt 0.1071167 0.9858398
vt 0.1071167 0.9858398
vt 0.1071167 0.9868164
vt 0.1071167 0.9868164
vt 0.1071167 0.9868164
vt 0.1071167 0.9868164
vt 0.1071167 0.9868164
vt 0.1071167 0.9868164
vt 0.1071167 0.9868164
vt 0.1071167 0.9858398
vt 0.1071167 0.9858398
vt 0.1071167 0.9858398
vt 0.1071167 0.9858398
vt 0.1071167 0.9858398
vt 0.1071167 0.9858398
vt 0.1071167 0.9858398
vt 0.1071167 0.9858398
vt 0.1071167 0.9868164
vt 0.1071167 0.9868164
vt 0.1071167 0.9868164
vt 0.1071167 0.9868164
vt 0.1071167 0.9868164
vt 0.1071167 0.9868164
vt 0.1071167 0.9858398
vt 0.1071167 0.9858398
vt 0.1071167 0.9858398
vt 0.1071167 0.9858398
vt 0.1071167 0.9858398
vt 0.1071167 0.9858398
vt 0.1071167 0.9868164
vt 0.1071167 0.9868164
vt 0.1071167 0.9868164
vt 0.1071167 0.9868164
vt 0.1071167 0.9868164
vt 0.1071167 0.9868164
vt 0.1071167 0.9858398
vt 0.1071167 0.9858398
vt 0.1071167 0.9858398
vt 0.1071167 0.9858398
vt 0.1071167 0.9858398
vt 0.1071167 0.9858398
vt 0.1071167 0.9868164
vt 0.1071167 0.9868164
vt 0.1071167 0.9868164
vt 0.1071167 0.9868164
vt 0.1071167 0.9868164
vt 0.1071167 0.9868164
vt 0.1071167 0.9858398
vt 0.1071167 0.9858398
vt 0.1071167 0.9858398
vt 0.1071167 0.9858398
vt 0.1071167 0.9868164
vt 0.1071167 0.9868164
vt 0.1071167 0.9868164
vt 0.1071167 0.9868164
vt 0.1071167 0.9868164
vt 0.1071167 0.9868164
vt 0.1071167 0.9863281
vt 0.1071167 0.9863281
vt 0.1071167 0.9863281
vt 0.1071167 0.9863281
vt 0.1071167 0.9868164
vt 0.1071167 0.9868164
vt 0.1071167 0.9868164
vt 0.1071167 0.9868164
vt 0.1071167 0.9868164
vt 0.1071167 0.9868164
vt 0.5761719 0.9057617
vt 0.5761719 0.8383789
vt 0.5878906 0.8383789
vt 0.5878906 0.9057617
vt 0.1071167 0.9868164
vt 0.1071167 0.9868164
vt 0.1071167 0.9858398
vt 0.1071167 0.9863281
vt 0.1071167 0.9868164
vt 0.1071167 0.9868164
vt 0.1071167 0.9868164
vt 0.1071167 0.9868164
vt 0.1071167 0.9863281
vt 0.1071167 0.9858398
vt 0.1071167 0.9858398
vt 0.1071167 0.9863281
vt 0.1071167 0.9863281
vt 0.1071167 0.9858398
vt 0.1071167 0.9868164
vt 0.1071167 0.9868164
vt 0.01069641 0.8867188
vt 0.01078796 0.8862305
vt 0.01078796 0.8867188
vt 0.01069641 0.8862305
vt 0.01078796 0.8862305
vt 0.01069641 0.8862305
vt 0.01078796 0.8857422
vt 0.01069641 0.8857422
vt 0.01078796 0.8857422
vt 0.01069641 0.8857422
vt 0.01069641 0.8862305
vt 0.01069641 0.8867188
vt 0.01078796 0.8867188
vt 0.01078796 0.8862305
vt 0.01069641 0.8862305
vt 0.01078796 0.8862305
vt 0.01069641 0.8857422
vt 0.01078796 0.8857422
vt 0.01069641 0.8857422
vt 0.01078796 0.8857422
vt 0.01069641 0.8867188
vt 0.01078796 0.8862305
vt 0.01078796 0.8867188
vt 0.01069641 0.8862305
vt 0.01078796 0.8862305
vt 0.01069641 0.8862305
vt 0.01078796 0.8857422
vt 0.01069641 0.8857422
vt 0.01078796 0.8857422
vt 0.01069641 0.8857422
vt 0.01069641 0.8862305
vt 0.01069641 0.8867188
vt 0.01078796 0.8867188
vt 0.01078796 0.8862305
vt 0.01069641 0.8862305
vt 0.01078796 0.8862305
vt 0.01069641 0.8857422
vt 0.01078796 0.8857422
vt 0.01069641 0.8857422
vt 0.01078796 0.8857422
vt 0.01069641 0.8867188
vt 0.01078796 0.8862305
vt 0.01078796 0.8867188
vt 0.01069641 0.8862305
vt 0.01078796 0.8862305
vt 0.01069641 0.8862305
vt 0.01078796 0.8857422
vt 0.01069641 0.8857422
vt 0.01078796 0.8857422
vt 0.01069641 0.8857422
vt 0.01069641 0.8862305
vt 0.01069641 0.8867188
vt 0.01078796 0.8867188
vt 0.01078796 0.8862305
vt 0.01069641 0.8862305
vt 0.01078796 0.8862305
vt 0.01069641 0.8857422
vt 0.01078796 0.8857422
vt 0.01069641 0.8857422
vt 0.01078796 0.8857422
vt 0.01069641 0.8867188
vt 0.01078796 0.8862305
vt 0.01078796 0.8867188
vt 0.01069641 0.8862305
vt 0.01078796 0.8862305
vt 0.01069641 0.8862305
vt 0.01078796 0.8857422
vt 0.01069641 0.8857422
vt 0.01078796 0.8857422
vt 0.01069641 0.8857422
vt 0.01069641 0.8862305
vt 0.01069641 0.8867188
vt 0.01078796 0.8867188
vt 0.01078796 0.8862305
vt 0.01069641 0.8862305
vt 0.01078796 0.8862305
vt 0.01069641 0.8857422
vt 0.01078796 0.8857422
vt 0.01069641 0.8857422
vt 0.01078796 0.8857422
vt 0.01069641 0.8867188
vt 0.01078796 0.8862305
vt 0.01078796 0.8867188
vt 0.01069641 0.8862305
vt 0.01078796 0.8862305
vt 0.01069641 0.8862305
vt 0.01078796 0.8857422
vt 0.01069641 0.8857422
vt 0.01078796 0.8857422
vt 0.01069641 0.8857422
vt 0.01069641 0.8862305
vt 0.01069641 0.8867188
vt 0.01078796 0.8867188
vt 0.01078796 0.8862305
vt 0.01069641 0.8862305
vt 0.01078796 0.8862305
vt 0.01069641 0.8857422
vt 0.01078796 0.8857422
vt 0.01069641 0.8857422
vt 0.01078796 0.8857422
vt 0.01069641 0.8867188
vt 0.01078796 0.8862305
vt 0.01078796 0.8867188
vt 0.01069641 0.8862305
vt 0.01078796 0.8862305
vt 0.01069641 0.8862305
vt 0.01078796 0.8857422
vt 0.01069641 0.8857422
vt 0.01078796 0.8857422
vt 0.01069641 0.8857422
vt 0.01069641 0.8862305
vt 0.01069641 0.8867188
vt 0.01078796 0.8867188
vt 0.01078796 0.8862305
vt 0.01069641 0.8862305
vt 0.01078796 0.8862305
vt 0.01069641 0.8857422
vt 0.01078796 0.8857422
vt 0.01069641 0.8857422
vt 0.01078796 0.8857422
vt 0.01239777 0.8837891
vt 0.004779816 0.8837891
vt 0.004779816 0.8842773
vt 0.004989624 0.8862305
vt 0.005661011 0.8876953
vt 0.006793976 0.8891602
vt 0.008308411 0.890625
vt 0.01009369 0.8911133
vt 0.01203156 0.8911133
vt 0.01239777 0.8911133
vt 0.09881592 0.9853516
vt 0.1074829 0.9853516
vt 0.1074829 0.9853516
vt 0.09881592 0.9853516
vt 0.1074829 0.9941406
vt 0.1065674 0.9941406
vt 0.1065674 0.9941406
vt 0.1074829 0.9941406
vt 0.1009521 0.9921875
vt 0.09973145 0.9902344
vt 0.09973145 0.9902344
vt 0.1009521 0.9921875
vt 0.09881592 0.9863281
vt 0.09881592 0.9853516
vt 0.09881592 0.9853516
vt 0.09881592 0.9863281
vt 0.1065674 0.9941406
vt 0.1045532 0.9941406
vt 0.1045532 0.9941406
vt 0.1065674 0.9941406
vt 0.09973145 0.9902344
vt 0.09899902 0.9882813
vt 0.09899902 0.9882813
vt 0.09973145 0.9902344
vt 0.1045532 0.9941406
vt 0.1026001 0.9931641
vt 0.1026001 0.9931641
vt 0.1045532 0.9941406
vt 0.09918213 0.9882813
vt 0.09893799 0.9863281
vt 0.09893799 0.9858398
vt 0.1073608 0.9858398
vt 0.09985352 0.9902344
vt 0.1010742 0.9916992
vt 0.1026611 0.9931641
vt 0.1045532 0.9936523
vt 0.1065674 0.9941406
vt 0.1073608 0.9941406
vt 0.09899902 0.9882813
vt 0.09881592 0.9863281
vt 0.09881592 0.9863281
vt 0.09899902 0.9882813
vt 0.1026001 0.9931641
vt 0.1009521 0.9921875
vt 0.1009521 0.9921875
vt 0.1026001 0.9931641
vt 0.1074829 0.9853516
vt 0.1073608 0.9858398
vt 0.1073608 0.9941406
vt 0.1074829 0.9941406
vt 0.09881592 0.9853516
vt 0.09893799 0.9858398
vt 0.1073608 0.9858398
vt 0.1074829 0.9853516
vt 0.1074829 0.9941406
vt 0.1073608 0.9941406
vt 0.1065674 0.9941406
vt 0.1065674 0.9941406
vt 0.1065674 0.9941406
vt 0.1065674 0.9941406
vt 0.1045532 0.9936523
vt 0.1045532 0.9941406
vt 0.1045532 0.9941406
vt 0.1045532 0.9936523
vt 0.1026611 0.9931641
vt 0.1026001 0.9931641
vt 0.1026001 0.9931641
vt 0.1026611 0.9931641
vt 0.1010742 0.9916992
vt 0.1009521 0.9921875
vt 0.1009521 0.9921875
vt 0.1010742 0.9916992
vt 0.09985352 0.9902344
vt 0.09973145 0.9902344
vt 0.09973145 0.9902344
vt 0.09985352 0.9902344
vt 0.09918213 0.9882813
vt 0.09899902 0.9882813
vt 0.09899902 0.9882813
vt 0.09918213 0.9882813
vt 0.09893799 0.9863281
vt 0.09881592 0.9863281
vt 0.09881592 0.9863281
vt 0.09893799 0.9863281
vt 0.09893799 0.9858398
vt 0.09881592 0.9853516
vt 0.1073608 0.9858398
vt 0.1074829 0.9853516
vt 0.1074829 0.9941406
vt 0.1073608 0.9941406
vt 0.09893799 0.9858398
vt 0.09881592 0.9853516
vt 0.1074829 0.9853516
vt 0.1073608 0.9858398
vt 0.1073608 0.9941406
vt 0.1074829 0.9941406
vt 0.1065674 0.9941406
vt 0.1065674 0.9941406
vt 0.1065674 0.9941406
vt 0.1065674 0.9941406
vt 0.1045532 0.9941406
vt 0.1045532 0.9936523
vt 0.1045532 0.9936523
vt 0.1045532 0.9941406
vt 0.1026001 0.9931641
vt 0.1026611 0.9931641
vt 0.1026611 0.9931641
vt 0.1026001 0.9931641
vt 0.1009521 0.9921875
vt 0.1010742 0.9916992
vt 0.1010742 0.9916992
vt 0.1009521 0.9921875
vt 0.09973145 0.9902344
vt 0.09985352 0.9902344
vt 0.09985352 0.9902344
vt 0.09973145 0.9902344
vt 0.09899902 0.9882813
vt 0.09918213 0.9882813
vt 0.09918213 0.9882813
vt 0.09899902 0.9882813
vt 0.09881592 0.9863281
vt 0.09893799 0.9863281
vt 0.09893799 0.9863281
vt 0.09881592 0.9863281
vt 0.09881592 0.9853516
vt 0.09893799 0.9858398
vt 0.1074829 0.9853516
vt 0.1074829 0.9941406
vt 0.1074829 0.9941406
vt 0.1074829 0.9853516
vt 0.004989624 0.8862305
vt 0.004779816 0.8842773
vt 0.004779816 0.8837891
vt 0.01239777 0.8837891
vt 0.005661011 0.8876953
vt 0.006793976 0.8891602
vt 0.008308411 0.890625
vt 0.01009369 0.8911133
vt 0.01203156 0.8911133
vt 0.01239777 0.8911133
vt 0.09881592 0.9853516
vt 0.09881592 0.9853516
vt 0.1074829 0.9853516
vt 0.1074829 0.9853516
vt 0.1074829 0.9941406
vt 0.1074829 0.9941406
vt 0.1065674 0.9941406
vt 0.1065674 0.9941406
vt 0.1009521 0.9921875
vt 0.1009521 0.9921875
vt 0.09973145 0.9902344
vt 0.09973145 0.9902344
vt 0.09881592 0.9863281
vt 0.09881592 0.9863281
vt 0.09881592 0.9853516
vt 0.09881592 0.9853516
vt 0.1065674 0.9941406
vt 0.1065674 0.9941406
vt 0.1045532 0.9941406
vt 0.1045532 0.9941406
vt 0.09973145 0.9902344
vt 0.09973145 0.9902344
vt 0.09899902 0.9882813
vt 0.09899902 0.9882813
vt 0.1045532 0.9941406
vt 0.1045532 0.9941406
vt 0.1026001 0.9931641
vt 0.1026001 0.9931641
vt 0.1073608 0.9858398
vt 0.09893799 0.9858398
vt 0.09893799 0.9863281
vt 0.09918213 0.9882813
vt 0.09985352 0.9902344
vt 0.1010742 0.9916992
vt 0.1026611 0.9931641
vt 0.1045532 0.9936523
vt 0.1065674 0.9941406
vt 0.1073608 0.9941406
vt 0.09899902 0.9882813
vt 0.09899902 0.9882813
vt 0.09881592 0.9863281
vt 0.09881592 0.9863281
vt 0.1026001 0.9931641
vt 0.1026001 0.9931641
vt 0.1009521 0.9921875
vt 0.1009521 0.9921875
vt 0.1074829 0.9853516
vt 0.1074829 0.9941406
vt 0.1073608 0.9941406
vt 0.1073608 0.9858398
vt 0.09881592 0.9853516
vt 0.1074829 0.9853516
vt 0.1073608 0.9858398
vt 0.09893799 0.9858398
vt 0.1074829 0.9941406
vt 0.1065674 0.9941406
vt 0.1065674 0.9941406
vt 0.1073608 0.9941406
vt 0.1065674 0.9941406
vt 0.1045532 0.9941406
vt 0.1045532 0.9936523
vt 0.1065674 0.9941406
vt 0.1045532 0.9941406
vt 0.1026001 0.9931641
vt 0.1026611 0.9931641
vt 0.1045532 0.9936523
vt 0.1026001 0.9931641
vt 0.1009521 0.9921875
vt 0.1010742 0.9916992
vt 0.1026611 0.9931641
vt 0.1009521 0.9921875
vt 0.09973145 0.9902344
vt 0.09985352 0.9902344
vt 0.1010742 0.9916992
vt 0.09973145 0.9902344
vt 0.09899902 0.9882813
vt 0.09918213 0.9882813
vt 0.09985352 0.9902344
vt 0.09899902 0.9882813
vt 0.09881592 0.9863281
vt 0.09893799 0.9863281
vt 0.09918213 0.9882813
vt 0.09881592 0.9863281
vt 0.09881592 0.9853516
vt 0.09893799 0.9858398
vt 0.09893799 0.9863281
vt 0.1073608 0.9858398
vt 0.1073608 0.9941406
vt 0.1074829 0.9941406
vt 0.1074829 0.9853516
vt 0.09893799 0.9858398
vt 0.1073608 0.9858398
vt 0.1074829 0.9853516
vt 0.09881592 0.9853516
vt 0.1073608 0.9941406
vt 0.1065674 0.9941406
vt 0.1065674 0.9941406
vt 0.1074829 0.9941406
vt 0.1065674 0.9941406
vt 0.1045532 0.9936523
vt 0.1045532 0.9941406
vt 0.1065674 0.9941406
vt 0.1045532 0.9936523
vt 0.1026611 0.9931641
vt 0.1026001 0.9931641
vt 0.1045532 0.9941406
vt 0.1026611 0.9931641
vt 0.1010742 0.9916992
vt 0.1009521 0.9921875
vt 0.1026001 0.9931641
vt 0.1010742 0.9916992
vt 0.09985352 0.9902344
vt 0.09973145 0.9902344
vt 0.1009521 0.9921875
vt 0.09985352 0.9902344
vt 0.09918213 0.9882813
vt 0.09899902 0.9882813
vt 0.09973145 0.9902344
vt 0.09918213 0.9882813
vt 0.09893799 0.9863281
vt 0.09881592 0.9863281
vt 0.09899902 0.9882813
vt 0.09893799 0.9863281
vt 0.09893799 0.9858398
vt 0.09881592 0.9853516
vt 0.09881592 0.9863281
vt 0.1074829 0.9853516
vt 0.1074829 0.9853516
vt 0.1074829 0.9941406
vt 0.1074829 0.9941406
vt 0.1072388 0.9858398
vt 0.1072388 0.9868164
vt 0.1072388 0.9868164
vt 0.1072388 0.9858398
vt 0.1072388 0.9868164
vt 0.1072388 0.9858398
vt 0.1072388 0.9868164
vt 0.1072388 0.9858398
vt 0.1071167 0.9858398
vt 0.1071167 0.9868164
vt 0.1071167 0.9868164
vt 0.1071167 0.9858398
vt 0.1071167 0.9868164
vt 0.1071167 0.9858398
vt 0.1071167 0.9868164
vt 0.1071167 0.9858398
vt 0.1069336 0.9936523
vt 0.1073608 0.9941406
vt 0.1073608 0.9858398
vt 0.1069336 0.9858398
vt 0.1065674 0.9936523
vt 0.09893799 0.9858398
vt 0.1065674 0.9941406
vt 0.09936523 0.9858398
vt 0.1046753 0.9936523
vt 0.09893799 0.9863281
vt 0.1045532 0.9936523
vt 0.09936523 0.9863281
vt 0.1028442 0.9926758
vt 0.09918213 0.9882813
vt 0.1026611 0.9931641
vt 0.09954834 0.9882813
vt 0.1013794 0.9916992
vt 0.09985352 0.9902344
vt 0.1010742 0.9916992
vt 0.1002197 0.9902344
vt 0.1069336 0.9936523
vt 0.1069336 0.9858398
vt 0.1073608 0.9858398
vt 0.1073608 0.9941406
vt 0.09893799 0.9858398
vt 0.1065674 0.9936523
vt 0.09936523 0.9858398
vt 0.1065674 0.9941406
vt 0.09893799 0.9863281
vt 0.1046753 0.9936523
vt 0.09936523 0.9863281
vt 0.1045532 0.9936523
vt 0.09918213 0.9882813
vt 0.1028442 0.9926758
vt 0.09954834 0.9882813
vt 0.1026611 0.9931641
vt 0.09985352 0.9902344
vt 0.1013794 0.9916992
vt 0.1002197 0.9902344
vt 0.1010742 0.9916992
vn 0.5771484 0.5771484 0.5771484
vn 0.5771484 0.5771484 0.5771484
vn 0.5771484 0.5771484 0.5771484
vn 0.5771484 -0.5771484 0.5771484
vn 0.5771484 -0.5771484 0.5771484
vn 0.5771484 -0.5771484 0.5771484
vn 0.5771484 0.5771484 -0.5771484
vn 0.5771484 0.5771484 -0.5771484
vn 0.5771484 0.5771484 -0.5771484
vn 0.5771484 -0.5771484 -0.5771484
vn 0.5771484 -0.5771484 -0.5771484
vn 0.5771484 -0.5771484 -0.5771484
vn -0.5771484 0.5771484 0.5771484
vn -0.5771484 0.5771484 0.5771484
vn -0.5771484 0.5771484 0.5771484
vn -0.5771484 -0.5771484 0.5771484
vn -0.5771484 -0.5771484 0.5771484
vn -0.5771484 -0.5771484 0.5771484
vn -0.5771484 0.5771484 -0.5771484
vn -0.5771484 0.5771484 -0.5771484
vn -0.5771484 0.5771484 -0.5771484
vn -0.5771484 -0.5771484 -0.5771484
vn -0.5771484 -0.5771484 -0.5771484
vn -0.5771484 -0.5771484 -0.5771484
vn -0.5771484 0.5771484 0.5771484
vn -0.5771484 0.5771484 0.5771484
vn -0.5771484 0.5771484 0.5771484
vn -0.5771484 -0.5771484 0.5771484
vn -0.5771484 -0.5771484 0.5771484
vn -0.5771484 -0.5771484 0.5771484
vn -0.5771484 0.5771484 -0.5771484
vn -0.5771484 0.5771484 -0.5771484
vn -0.5771484 0.5771484 -0.5771484
vn -0.5771484 -0.5771484 -0.5771484
vn -0.5771484 -0.5771484 -0.5771484
vn -0.5771484 -0.5771484 -0.5771484
vn 0.5771484 0.5771484 0.5771484
vn 0.5771484 0.5771484 0.5771484
vn 0.5771484 0.5771484 0.5771484
vn 0.5771484 -0.5771484 0.5771484
vn 0.5771484 -0.5771484 0.5771484
vn 0.5771484 -0.5771484 0.5771484
vn 0.5771484 0.5771484 -0.5771484
vn 0.5771484 0.5771484 -0.5771484
vn 0.5771484 0.5771484 -0.5771484
vn 0.5771484 -0.5771484 -0.5771484
vn 0.5771484 -0.5771484 -0.5771484
vn 0.5771484 -0.5771484 -0.5771484
vn 0 0 1
vn 0 0 1
vn 0 0 1
vn 0 0 1
vn 0 1 0
vn 0 1 0
vn 0 1 0
vn 0 1 0
vn 0 -1 0
vn 0 -1 0
vn 0 -1 0
vn 0 -1 0
vn 1 0 0
vn 1 0 0
vn 1 0 0
vn 1 0 0
vn 0 0 -1
vn 0 0 -1
vn 0 0 -1
vn 0 0 -1
vn 0.7070313 0.7070313 0
vn 0.7070313 0.7070313 0
vn 0.7070313 0.7070313 0
vn 0.7070313 0.7070313 0
vn 0.7070313 0 0.7070313
vn 0.7070313 0 0.7070313
vn 0.7070313 0 0.7070313
vn 0.7070313 0 0.7070313
vn 0.7070313 -0.7070313 0
vn 0.7070313 -0.7070313 0
vn 0.7070313 -0.7070313 0
vn 0.7070313 -0.7070313 0
vn 0.7070313 0 -0.7070313
vn 0.7070313 0 -0.7070313
vn 0.7070313 0 -0.7070313
vn 0.7070313 0 -0.7070313
vn 0 0.7070313 -0.7070313
vn 0 0.7070313 -0.7070313
vn 0 0.7070313 -0.7070313
vn 0 0.7070313 -0.7070313
vn 0 -0.7070313 -0.7070313
vn 0 -0.7070313 -0.7070313
vn 0 -0.7070313 -0.7070313
vn 0 -0.7070313 -0.7070313
vn -0.7070313 0 -0.7070313
vn -0.7070313 0 -0.7070313
vn -0.7070313 0 -0.7070313
vn -0.7070313 0 -0.7070313
vn -0.7070313 0.7070313 0
vn -0.7070313 0.7070313 0
vn -0.7070313 0.7070313 0
vn -0.7070313 0.7070313 0
vn -0.7070313 -0.7070313 0
vn -0.7070313 -0.7070313 0
vn -0.7070313 -0.7070313 0
vn -0.7070313 -0.7070313 0
vn -0.7070313 0 0.7070313
vn -0.7070313 0 0.7070313
vn -0.7070313 0 0.7070313
vn -0.7070313 0 0.7070313
vn 0 0.7070313 0.7070313
vn 0 0.7070313 0.7070313
vn 0 0.7070313 0.7070313
vn 0 0.7070313 0.7070313
vn 0 -0.7070313 0.7070313
vn 0 -0.7070313 0.7070313
vn 0 -0.7070313 0.7070313
vn 0 -0.7070313 0.7070313
vn 0 1 0
vn 0 1 0
vn 0 1 0
vn 0 1 0
vn 0 0 -1
vn 0 0 -1
vn 0 0 -1
vn 0 0 -1
vn 0 0 1
vn 0 0 1
vn 0 0 1
vn 0 0 1
vn 0 -1 0
vn 0 -1 0
vn 0 -1 0
vn 0 -1 0
vn -1 0 0
vn -1 0 0
vn -1 0 0
vn -1 0 0
vn -0.7070313 0 0.7070313
vn -0.7070313 0 0.7070313
vn -0.7070313 0 0.7070313
vn -0.7070313 0 0.7070313
vn -0.7070313 -0.7070313 0
vn -0.7070313 -0.7070313 0
vn -0.7070313 -0.7070313 0
vn -0.7070313 -0.7070313 0
vn -0.7070313 0.7070313 0
vn -0.7070313 0.7070313 0
vn -0.7070313 0.7070313 0
vn -0.7070313 0.7070313 0
vn -0.7070313 0 -0.7070313
vn -0.7070313 0 -0.7070313
vn -0.7070313 0 -0.7070313
vn -0.7070313 0 -0.7070313
vn 0 0 1
vn 0 0 1
vn 0 0 1
vn 0 0 1
vn 0 1 0
vn 0 1 0
vn 0 1 0
vn 0 1 0
vn 0 -1 0
vn 0 -1 0
vn 0 -1 0
vn 0 -1 0
vn -1 0 0
vn -1 0 0
vn -1 0 0
vn -1 0 0
vn 0 0 -1
vn 0 0 -1
vn 0 0 -1
vn 0 0 -1
vn -0.7070313 0.7070313 0
vn -0.7070313 0.7070313 0
vn -0.7070313 0.7070313 0
vn -0.7070313 0.7070313 0
vn -0.7070313 0 0.7070313
vn -0.7070313 0 0.7070313
vn -0.7070313 0 0.7070313
vn -0.7070313 0 0.7070313
vn -0.7070313 -0.7070313 0
vn -0.7070313 -0.7070313 0
vn -0.7070313 -0.7070313 0
vn -0.7070313 -0.7070313 0
vn -0.7070313 0 -0.7070313
vn -0.7070313 0 -0.7070313
vn -0.7070313 0 -0.7070313
vn -0.7070313 0 -0.7070313
vn 0 0.7070313 -0.7070313
vn 0 0.7070313 -0.7070313
vn 0 0.7070313 -0.7070313
vn 0 0.7070313 -0.7070313
vn 0 -0.7070313 -0.7070313
vn 0 -0.7070313 -0.7070313
vn 0 -0.7070313 -0.7070313
vn 0 -0.7070313 -0.7070313
vn 0.7070313 0 -0.7070313
vn 0.7070313 0 -0.7070313
vn 0.7070313 0 -0.7070313
vn 0.7070313 0 -0.7070313
vn 0.7070313 0.7070313 0
vn 0.7070313 0.7070313 0
vn 0.7070313 0.7070313 0
vn 0.7070313 0.7070313 0
vn 0.7070313 -0.7070313 0
vn 0.7070313 -0.7070313 0
vn 0.7070313 -0.7070313 0
vn 0.7070313 -0.7070313 0
vn 0.7070313 0 0.7070313
vn 0.7070313 0 0.7070313
vn 0.7070313 0 0.7070313
vn 0.7070313 0 0.7070313
vn 0 0.7070313 0.7070313
vn 0 0.7070313 0.7070313
vn 0 0.7070313 0.7070313
vn 0 0.7070313 0.7070313
vn 0 -0.7070313 0.7070313
vn 0 -0.7070313 0.7070313
vn 0 -0.7070313 0.7070313
vn 0 -0.7070313 0.7070313
vn 0 1 0
vn 0 1 0
vn 0 1 0
vn 0 1 0
vn 0 0 -1
vn 0 0 -1
vn 0 0 -1
vn 0 0 -1
vn 0 0 1
vn 0 0 1
vn 0 0 1
vn 0 0 1
vn 0 -1 0
vn 0 -1 0
vn 0 -1 0
vn 0 -1 0
vn 1 0 0
vn 1 0 0
vn 1 0 0
vn 1 0 0
vn 0.7070313 0 0.7070313
vn 0.7070313 0 0.7070313
vn 0.7070313 0 0.7070313
vn 0.7070313 0 0.7070313
vn 0.7070313 -0.7070313 0
vn 0.7070313 -0.7070313 0
vn 0.7070313 -0.7070313 0
vn 0.7070313 -0.7070313 0
vn 0.7070313 0.7070313 0
vn 0.7070313 0.7070313 0
vn 0.7070313 0.7070313 0
vn 0.7070313 0.7070313 0
vn 0.7070313 0 -0.7070313
vn 0.7070313 0 -0.7070313
vn 0.7070313 0 -0.7070313
vn 0.7070313 0 -0.7070313
vn 0 1 0
vn 0 0.7070313 0.7070313
vn 0 1 0
vn 0 0.7070313 0.7070313
vn 0 0 1
vn 0 0 1
vn 0 -0.7070313 0.7070313
vn 0 -0.7070313 0.7070313
vn 0 -1 0
vn 0 -1 0
vn 0 0.7070313 -0.7070313
vn 0 1 0
vn 0 1 0
vn 0 0.7070313 -0.7070313
vn 0 0 -1
vn 0 0 -1
vn 0 -0.7070313 -0.7070313
vn 0 -0.7070313 -0.7070313
vn 0 -1 0
vn 0 -1 0
vn 0 1 0
vn 0 0.7070313 0.7070313
vn 0 1 0
vn 0 0.7070313 0.7070313
vn 0 0 1
vn 0 0 1
vn 0 -0.7070313 0.7070313
vn 0 -0.7070313 0.7070313
vn 0 -1 0
vn 0 -1 0
vn 0 0.7070313 -0.7070313
vn 0 1 0
vn 0 1 0
vn 0 0.7070313 -0.7070313
vn 0 0 -1
vn 0 0 -1
vn 0 -0.7070313 -0.7070313
vn 0 -0.7070313 -0.7070313
vn 0 -1 0
vn 0 -1 0
vn 0 1 0
vn 0 0.7070313 0.7070313
vn 0 1 0
vn 0 0.7070313 0.7070313
vn 0 0 1
vn 0 0 1
vn 0 -0.7070313 0.7070313
vn 0 -0.7070313 0.7070313
vn 0 -1 0
vn 0 -1 0
vn 0 0.7070313 -0.7070313
vn 0 1 0
vn 0 1 0
vn 0 0.7070313 -0.7070313
vn 0 0 -1
vn 0 0 -1
vn 0 -0.7070313 -0.7070313
vn 0 -0.7070313 -0.7070313
vn 0 -1 0
vn 0 -1 0
vn 0 1 0
vn 0 0.7070313 0.7070313
vn 0 1 0
vn 0 0.7070313 0.7070313
vn 0 0 1
vn 0 0 1
vn 0 -0.7070313 0.7070313
vn 0 -0.7070313 0.7070313
vn 0 -1 0
vn 0 -1 0
vn 0 0.7070313 -0.7070313
vn 0 1 0
vn 0 1 0
vn 0 0.7070313 -0.7070313
vn 0 0 -1
vn 0 0 -1
vn 0 -0.7070313 -0.7070313
vn 0 -0.7070313 -0.7070313
vn 0 -1 0
vn 0 -1 0
vn 0 1 0
vn 0 0.7070313 0.7070313
vn 0 1 0
vn 0 0.7070313 0.7070313
vn 0 0 1
vn 0 0 1
vn 0 -0.7070313 0.7070313
vn 0 -0.7070313 0.7070313
vn 0 -1 0
vn 0 -1 0
vn 0 0.7070313 -0.7070313
vn 0 1 0
vn 0 1 0
vn 0 0.7070313 -0.7070313
vn 0 0 -1
vn 0 0 -1
vn 0 -0.7070313 -0.7070313
vn 0 -0.7070313 -0.7070313
vn 0 -1 0
vn 0 -1 0
vn 0 1 0
vn 0 0.7070313 0.7070313
vn 0 1 0
vn 0 0.7070313 0.7070313
vn 0 0 1
vn 0 0 1
vn 0 -0.7070313 0.7070313
vn 0 -0.7070313 0.7070313
vn 0 -1 0
vn 0 -1 0
vn 0 0.7070313 -0.7070313
vn 0 1 0
vn 0 1 0
vn 0 0.7070313 -0.7070313
vn 0 0 -1
vn 0 0 -1
vn 0 -0.7070313 -0.7070313
vn 0 -0.7070313 -0.7070313
vn 0 -1 0
vn 0 -1 0
vn 1 0 0
vn 1 0 0
vn 1 0 0
vn 1 0 0
vn 1 0 0
vn 1 0 0
vn 1 0 0
vn 1 0 0
vn 1 0 0
vn 1 0 0
vn 0 0 -1
vn 0 0 -1
vn 0 0 -1
vn 0 0 -1
vn 0 0 1
vn 0 0 1
vn 0 0 1
vn 0 0 1
vn 0 -0.8012695 0.5981445
vn 0 -0.8012695 0.5981445
vn 0 -0.8012695 0.5981445
vn 0 -0.8012695 0.5981445
vn 0 -1 0
vn 0 -1 0
vn 0 -1 0
vn 0 -1 0
vn 0 -0.1071167 0.9941406
vn 0 -0.1071167 0.9941406
vn 0 -0.1071167 0.9941406
vn 0 -0.1071167 0.9941406
vn 0 -0.9355469 0.3530273
vn 0 -0.9355469 0.3530273
vn 0 -0.9355469 0.3530273
vn 0 -0.9355469 0.3530273
vn 0 -0.3530273 0.9355469
vn 0 -0.3530273 0.9355469
vn 0 -0.3530273 0.9355469
vn 0 -0.3530273 0.9355469
vn -1 0 0
vn -1 0 0
vn -1 0 0
vn -1 0 0
vn -1 0 0
vn -1 0 0
vn -1 0 0
vn -1 0 0
vn -1 0 0
vn -1 0 0
vn 0 -0.9941406 0.1071167
vn 0 -0.9941406 0.1071167
vn 0 -0.9941406 0.1071167
vn 0 -0.9941406 0.1071167
vn 0 -0.5981445 0.8012695
vn 0 -0.5981445 0.8012695
vn 0 -0.5981445 0.8012695
vn 0 -0.5981445 0.8012695
vn 0.7070313 0.7070313 0
vn 0.7070313 0.7070313 0
vn 0.7070313 0.7070313 0
vn 0.7070313 0.7070313 0
vn 0.7070313 0 -0.7070313
vn 0.7070313 0 -0.7070313
vn 0.7070313 0 -0.7070313
vn 0.7070313 0 -0.7070313
vn 0.7070313 0 0.7070313
vn 0.7070313 0 0.7070313
vn 0.7070313 0 0.7070313
vn 0.7070313 0 0.7070313
vn 0.7070313 -0.07574463 0.703125
vn 0.7070313 -0.07574463 0.703125
vn 0.7070313 -0.07574463 0.703125
vn 0.7070313 -0.07574463 0.703125
vn 0.7070313 -0.2496338 0.6616211
vn 0.7070313 -0.2496338 0.6616211
vn 0.7070313 -0.2496338 0.6616211
vn 0.7070313 -0.2496338 0.6616211
vn 0.7070313 -0.4228516 0.5668945
vn 0.7070313 -0.4228516 0.5668945
vn 0.7070313 -0.4228516 0.5668945
vn 0.7070313 -0.4228516 0.5668945
vn 0.7070313 -0.5668945 0.4228516
vn 0.7070313 -0.5668945 0.4228516
vn 0.7070313 -0.5668945 0.4228516
vn 0.7070313 -0.5668945 0.4228516
vn 0.7070313 -0.6616211 0.2496338
vn 0.7070313 -0.6616211 0.2496338
vn 0.7070313 -0.6616211 0.2496338
vn 0.7070313 -0.6616211 0.2496338
vn 0.7070313 -0.703125 0.07574463
vn 0.7070313 -0.703125 0.07574463
vn 0.7070313 -0.703125 0.07574463
vn 0.7070313 -0.703125 0.07574463
vn 0.7070313 -0.7070313 0
vn 0.7070313 -0.7070313 0
vn 0.7070313 -0.7070313 0
vn 0.7070313 -0.7070313 0
vn -0.7070313 0.7070313 0
vn -0.7070313 0.7070313 0
vn -0.7070313 0.7070313 0
vn -0.7070313 0.7070313 0
vn -0.7070313 0 -0.7070313
vn -0.7070313 0 -0.7070313
vn -0.7070313 0 -0.7070313
vn -0.7070313 0 -0.7070313
vn -0.7070313 0 0.7070313
vn -0.7070313 0 0.7070313
vn -0.7070313 0 0.7070313
vn -0.7070313 0 0.7070313
vn -0.7070313 -0.07574463 0.703125
vn -0.7070313 -0.07574463 0.703125
vn -0.7070313 -0.07574463 0.703125
vn -0.7070313 -0.07574463 0.703125
vn -0.7070313 -0.2496338 0.6616211
vn -0.7070313 -0.2496338 0.6616211
vn -0.7070313 -0.2496338 0.6616211
vn -0.7070313 -0.2496338 0.6616211
vn -0.7070313 -0.4228516 0.5668945
vn -0.7070313 -0.4228516 0.5668945
vn -0.7070313 -0.4228516 0.5668945
vn -0.7070313 -0.4228516 0.5668945
vn -0.7070313 -0.5668945 0.4228516
vn -0.7070313 -0.5668945 0.4228516
vn -0.7070313 -0.5668945 0.4228516
vn -0.7070313 -0.5668945 0.4228516
vn -0.7070313 -0.6616211 0.2496338
vn -0.7070313 -0.6616211 0.2496338
vn -0.7070313 -0.6616211 0.2496338
vn -0.7070313 -0.6616211 0.2496338
vn -0.7070313 -0.703125 0.07574463
vn -0.7070313 -0.703125 0.07574463
vn -0.7070313 -0.703125 0.07574463
vn -0.7070313 -0.703125 0.07574463
vn -0.7070313 -0.7070313 0
vn -0.7070313 -0.7070313 0
vn -0.7070313 -0.7070313 0
vn -0.7070313 -0.7070313 0
vn 0 1 0
vn 0 1 0
vn 0 1 0
vn 0 1 0
vn -1 0 0
vn -1 0 0
vn -1 0 0
vn -1 0 0
vn -1 0 0
vn -1 0 0
vn -1 0 0
vn -1 0 0
vn -1 0 0
vn -1 0 0
vn 0 0 -1
vn 0 0 -1
vn 0 0 -1
vn 0 0 -1
vn 0 0 1
vn 0 0 1
vn 0 0 1
vn 0 0 1
vn 0 -0.8012695 0.5981445
vn 0 -0.8012695 0.5981445
vn 0 -0.8012695 0.5981445
vn 0 -0.8012695 0.5981445
vn 0 -1 0
vn 0 -1 0
vn 0 -1 0
vn 0 -1 0
vn 0 -0.1071167 0.9941406
vn 0 -0.1071167 0.9941406
vn 0 -0.1071167 0.9941406
vn 0 -0.1071167 0.9941406
vn 0 -0.9355469 0.3530273
vn 0 -0.9355469 0.3530273
vn 0 -0.9355469 0.3530273
vn 0 -0.9355469 0.3530273
vn 0 -0.3530273 0.9355469
vn 0 -0.3530273 0.9355469
vn 0 -0.3530273 0.9355469
vn 0 -0.3530273 0.9355469
vn 1 0 0
vn 1 0 0
vn 1 0 0
vn 1 0 0
vn 1 0 0
vn 1 0 0
vn 1 0 0
vn 1 0 0
vn 1 0 0
vn 1 0 0
vn 0 -0.9941406 0.1071167
vn 0 -0.9941406 0.1071167
vn 0 -0.9941406 0.1071167
vn 0 -0.9941406 0.1071167
vn 0 -0.5981445 0.8012695
vn 0 -0.5981445 0.8012695
vn 0 -0.5981445 0.8012695
vn 0 -0.5981445 0.8012695
vn -0.7070313 0.7070313 0
vn -0.7070313 0.7070313 0
vn -0.7070313 0.7070313 0
vn -0.7070313 0.7070313 0
vn -0.7070313 0 -0.7070313
vn -0.7070313 0 -0.7070313
vn -0.7070313 0 -0.7070313
vn -0.7070313 0 -0.7070313
vn -0.7070313 0 0.7070313
vn -0.7070313 0 0.7070313
vn -0.7070313 0 0.7070313
vn -0.7070313 0 0.7070313
vn -0.7070313 -0.07574463 0.703125
vn -0.7070313 -0.07574463 0.703125
vn -0.7070313 -0.07574463 0.703125
vn -0.7070313 -0.07574463 0.703125
vn -0.7070313 -0.2496338 0.6616211
vn -0.7070313 -0.2496338 0.6616211
vn -0.7070313 -0.2496338 0.6616211
vn -0.7070313 -0.2496338 0.6616211
vn -0.7070313 -0.4228516 0.5668945
vn -0.7070313 -0.4228516 0.5668945
vn -0.7070313 -0.4228516 0.5668945
vn -0.7070313 -0.4228516 0.5668945
vn -0.7070313 -0.5668945 0.4228516
vn -0.7070313 -0.5668945 0.4228516
vn -0.7070313 -0.5668945 0.4228516
vn -0.7070313 -0.5668945 0.4228516
vn -0.7070313 -0.6616211 0.2496338
vn -0.7070313 -0.6616211 0.2496338
vn -0.7070313 -0.6616211 0.2496338
vn -0.7070313 -0.6616211 0.2496338
vn -0.7070313 -0.703125 0.07574463
vn -0.7070313 -0.703125 0.07574463
vn -0.7070313 -0.703125 0.07574463
vn -0.7070313 -0.703125 0.07574463
vn -0.7070313 -0.7070313 0
vn -0.7070313 -0.7070313 0
vn -0.7070313 -0.7070313 0
vn -0.7070313 -0.7070313 0
vn 0.7070313 0.7070313 0
vn 0.7070313 0.7070313 0
vn 0.7070313 0.7070313 0
vn 0.7070313 0.7070313 0
vn 0.7070313 0 -0.7070313
vn 0.7070313 0 -0.7070313
vn 0.7070313 0 -0.7070313
vn 0.7070313 0 -0.7070313
vn 0.7070313 0 0.7070313
vn 0.7070313 0 0.7070313
vn 0.7070313 0 0.7070313
vn 0.7070313 0 0.7070313
vn 0.7070313 -0.07574463 0.703125
vn 0.7070313 -0.07574463 0.703125
vn 0.7070313 -0.07574463 0.703125
vn 0.7070313 -0.07574463 0.703125
vn 0.7070313 -0.2496338 0.6616211
vn 0.7070313 -0.2496338 0.6616211
vn 0.7070313 -0.2496338 0.6616211
vn 0.7070313 -0.2496338 0.6616211
vn 0.7070313 -0.4228516 0.5668945
vn 0.7070313 -0.4228516 0.5668945
vn 0.7070313 -0.4228516 0.5668945
vn 0.7070313 -0.4228516 0.5668945
vn 0.7070313 -0.5668945 0.4228516
vn 0.7070313 -0.5668945 0.4228516
vn 0.7070313 -0.5668945 0.4228516
vn 0.7070313 -0.5668945 0.4228516
vn 0.7070313 -0.6616211 0.2496338
vn 0.7070313 -0.6616211 0.2496338
vn 0.7070313 -0.6616211 0.2496338
vn 0.7070313 -0.6616211 0.2496338
vn 0.7070313 -0.703125 0.07574463
vn 0.7070313 -0.703125 0.07574463
vn 0.7070313 -0.703125 0.07574463
vn 0.7070313 -0.703125 0.07574463
vn 0.7070313 -0.7070313 0
vn 0.7070313 -0.7070313 0
vn 0.7070313 -0.7070313 0
vn 0.7070313 -0.7070313 0
vn 0 1 0
vn 0 1 0
vn 0 1 0
vn 0 1 0
vn -1 0 0
vn -1 0 0
vn -1 0 0
vn -1 0 0
vn -1 0 0
vn -1 0 0
vn -1 0 0
vn -1 0 0
vn 1 0 0
vn 1 0 0
vn 1 0 0
vn 1 0 0
vn 1 0 0
vn 1 0 0
vn 1 0 0
vn 1 0 0
vn 1 0 0
vn 1 0 0
vn 1 0 0
vn 1 0 0
vn 1 0 0
vn 1 0 0
vn 1 0 0
vn 1 0 0
vn 1 0 0
vn 1 0 0
vn 1 0 0
vn 1 0 0
vn 1 0 0
vn 1 0 0
vn 1 0 0
vn 1 0 0
vn 1 0 0
vn 1 0 0
vn 1 0 0
vn 1 0 0
vn -1 0 0
vn -1 0 0
vn -1 0 0
vn -1 0 0
vn -1 0 0
vn -1 0 0
vn -1 0 0
vn -1 0 0
vn -1 0 0
vn -1 0 0
vn -1 0 0
vn -1 0 0
vn -1 0 0
vn -1 0 0
vn -1 0 0
vn -1 0 0
vn -1 0 0
vn -1 0 0
vn -1 0 0
vn -1 0 0
g Shelf_Wall_03_0
f 3/3/3 2/2/2 1/1/1
f 6/6/6 5/5/5 4/4/4
f 9/9/9 8/8/8 7/7/7
f 12/12/12 11/11/11 10/10/10
f 15/15/15 14/14/14 13/13/13
f 18/18/18 17/17/17 16/16/16
f 21/21/21 20/20/20 19/19/19
f 24/24/24 23/23/23 22/22/22
f 27/27/27 26/26/26 25/25/25
f 30/30/30 29/29/29 28/28/28
f 33/33/33 32/32/32 31/31/31
f 36/36/36 35/35/35 34/34/34
f 39/39/39 38/38/38 37/37/37
f 42/42/42 41/41/41 40/40/40
f 45/45/45 44/44/44 43/43/43
f 48/48/48 47/47/47 46/46/46
f 51/51/51 50/50/50 49/49/49
f 52/52/52 51/51/51 49/49/49
f 55/55/55 54/54/54 53/53/53
f 56/56/56 55/55/55 53/53/53
f 59/59/59 58/58/58 57/57/57
f 60/60/60 59/59/59 57/57/57
f 63/63/63 62/62/62 61/61/61
f 64/64/64 63/63/63 61/61/61
f 67/67/67 66/66/66 65/65/65
f 68/68/68 67/67/67 65/65/65
f 71/71/71 70/70/70 69/69/69
f 72/72/72 71/71/71 69/69/69
f 75/75/75 74/74/74 73/73/73
f 76/76/76 75/75/75 73/73/73
f 79/79/79 78/78/78 77/77/77
f 80/80/80 79/79/79 77/77/77
f 83/83/83 82/82/82 81/81/81
f 84/84/84 83/83/83 81/81/81
f 87/87/87 86/86/86 85/85/85
f 88/88/88 87/87/87 85/85/85
f 91/91/91 90/90/90 89/89/89
f 92/92/92 91/91/91 89/89/89
f 95/95/95 94/94/94 93/93/93
f 96/96/96 95/95/95 93/93/93
f 99/99/99 98/98/98 97/97/97
f 100/100/100 99/99/99 97/97/97
f 103/103/103 102/102/102 101/101/101
f 104/104/104 103/103/103 101/101/101
f 107/107/107 106/106/106 105/105/105
f 108/108/108 107/107/107 105/105/105
f 111/111/111 110/110/110 109/109/109
f 112/112/112 111/111/111 109/109/109
f 115/115/115 114/114/114 113/113/113
f 116/116/116 115/115/115 113/113/113
f 119/119/119 118/118/118 117/117/117
f 120/120/120 119/119/119 117/117/117
f 123/123/123 122/122/122 121/121/121
f 124/124/124 123/123/123 121/121/121
f 127/127/127 126/126/126 125/125/125
f 128/128/128 127/127/127 125/125/125
f 131/131/131 130/130/130 129/129/129
f 132/132/132 131/131/131 129/129/129
f 135/135/135 134/134/134 133/133/133
f 136/136/136 135/135/135 133/133/133
f 139/139/139 138/138/138 137/137/137
f 140/140/140 139/139/139 137/137/137
f 143/143/143 142/142/142 141/141/141
f 144/144/144 143/143/143 141/141/141
f 147/147/147 146/146/146 145/145/145
f 148/148/148 147/147/147 145/145/145
f 151/151/151 150/150/150 149/149/149
f 152/152/152 151/151/151 149/149/149
f 155/155/155 154/154/154 153/153/153
f 156/156/156 155/155/155 153/153/153
f 159/159/159 158/158/158 157/157/157
f 160/160/160 159/159/159 157/157/157
f 163/163/163 162/162/162 161/161/161
f 164/164/164 163/163/163 161/161/161
f 167/167/167 166/166/166 165/165/165
f 168/168/168 167/167/167 165/165/165
f 171/171/171 170/170/170 169/169/169
f 172/172/172 171/171/171 169/169/169
f 175/175/175 174/174/174 173/173/173
f 176/176/176 175/175/175 173/173/173
f 179/179/179 178/178/178 177/177/177
f 180/180/180 179/179/179 177/177/177
f 183/183/183 182/182/182 181/181/181
f 184/184/184 183/183/183 181/181/181
f 187/187/187 186/186/186 185/185/185
f 188/188/188 187/187/187 185/185/185
f 191/191/191 190/190/190 189/189/189
f 192/192/192 191/191/191 189/189/189
f 195/195/195 194/194/194 193/193/193
f 196/196/196 195/195/195 193/193/193
f 199/199/199 198/198/198 197/197/197
f 200/200/200 199/199/199 197/197/197
f 203/203/203 202/202/202 201/201/201
f 204/204/204 203/203/203 201/201/201
f 207/207/207 206/206/206 205/205/205
f 208/208/208 207/207/207 205/205/205
f 211/211/211 210/210/210 209/209/209
f 212/212/212 211/211/211 209/209/209
f 215/215/215 214/214/214 213/213/213
f 216/216/216 215/215/215 213/213/213
f 219/219/219 218/218/218 217/217/217
f 220/220/220 219/219/219 217/217/217
f 223/223/223 222/222/222 221/221/221
f 224/224/224 223/223/223 221/221/221
f 227/227/227 226/226/226 225/225/225
f 228/228/228 227/227/227 225/225/225
f 231/231/231 230/230/230 229/229/229
f 232/232/232 231/231/231 229/229/229
f 235/235/235 234/234/234 233/233/233
f 236/236/236 235/235/235 233/233/233
f 239/239/239 238/238/238 237/237/237
f 240/240/240 239/239/239 237/237/237
f 243/243/243 242/242/242 241/241/241
f 244/244/244 243/243/243 241/241/241
f 247/247/247 246/246/246 245/245/245
f 248/248/248 247/247/247 245/245/245
f 251/251/251 250/250/250 249/249/249
f 252/252/252 251/251/251 249/249/249
f 255/255/255 254/254/254 253/253/253
f 256/256/256 255/255/255 253/253/253
f 259/259/259 258/258/258 257/257/257
f 258/258/258 260/260/260 257/257/257
f 258/258/258 261/261/261 260/260/260
f 261/261/261 262/262/262 260/260/260
f 261/261/261 263/263/263 262/262/262
f 263/263/263 264/264/264 262/262/262
f 263/263/263 265/265/265 264/264/264
f 265/265/265 266/266/266 264/264/264
f 269/269/269 268/268/268 267/267/267
f 270/270/270 269/269/269 267/267/267
f 270/270/270 267/267/267 271/271/271
f 272/272/272 270/270/270 271/271/271
f 272/272/272 271/271/271 273/273/273
f 274/274/274 272/272/272 273/273/273
f 274/274/274 273/273/273 275/275/275
f 276/276/276 274/274/274 275/275/275
f 279/279/279 278/278/278 277/277/277
f 278/278/278 280/280/280 277/277/277
f 278/278/278 281/281/281 280/280/280
f 281/281/281 282/282/282 280/280/280
f 281/281/281 283/283/283 282/282/282
f 283/283/283 284/284/284 282/282/282
f 283/283/283 285/285/285 284/284/284
f 285/285/285 286/286/286 284/284/284
f 289/289/289 288/288/288 287/287/287
f 290/290/290 289/289/289 287/287/287
f 290/290/290 287/287/287 291/291/291
f 292/292/292 290/290/290 291/291/291
f 292/292/292 291/291/291 293/293/293
f 294/294/294 292/292/292 293/293/293
f 294/294/294 293/293/293 295/295/295
f 296/296/296 294/294/294 295/295/295
f 299/299/299 298/298/298 297/297/297
f 298/298/298 300/300/300 297/297/297
f 298/298/298 301/301/301 300/300/300
f 301/301/301 302/302/302 300/300/300
f 301/301/301 303/303/303 302/302/302
f 303/303/303 304/304/304 302/302/302
f 303/303/303 305/305/305 304/304/304
f 305/305/305 306/306/306 304/304/304
f 309/309/309 308/308/308 307/307/307
f 310/310/310 309/309/309 307/307/307
f 310/310/310 307/307/307 311/311/311
f 312/312/312 310/310/310 311/311/311
f 312/312/312 311/311/311 313/313/313
f 314/314/314 312/312/312 313/313/313
f 314/314/314 313/313/313 315/315/315
f 316/316/316 314/314/314 315/315/315
f 319/319/319 318/318/318 317/317/317
f 318/318/318 320/320/320 317/317/317
f 318/318/318 321/321/321 320/320/320
f 321/321/321 322/322/322 320/320/320
f 321/321/321 323/323/323 322/322/322
f 323/323/323 324/324/324 322/322/322
f 323/323/323 325/325/325 324/324/324
f 325/325/325 326/326/326 324/324/324
f 329/329/329 328/328/328 327/327/327
f 330/330/330 329/329/329 327/327/327
f 330/330/330 327/327/327 331/331/331
f 332/332/332 330/330/330 331/331/331
f 332/332/332 331/331/331 333/333/333
f 334/334/334 332/332/332 333/333/333
f 334/334/334 333/333/333 335/335/335
f 336/336/336 334/334/334 335/335/335
f 339/339/339 338/338/338 337/337/337
f 338/338/338 340/340/340 337/337/337
f 338/338/338 341/341/341 340/340/340
f 341/341/341 342/342/342 340/340/340
f 341/341/341 343/343/343 342/342/342
f 343/343/343 344/344/344 342/342/342
f 343/343/343 345/345/345 344/344/344
f 345/345/345 346/346/346 344/344/344
f 349/349/349 348/348/348 347/347/347
f 350/350/350 349/349/349 347/347/347
f 350/350/350 347/347/347 351/351/351
f 352/352/352 350/350/350 351/351/351
f 352/352/352 351/351/351 353/353/353
f 354/354/354 352/352/352 353/353/353
f 354/354/354 353/353/353 355/355/355
f 356/356/356 354/354/354 355/355/355
f 359/359/359 358/358/358 357/357/357
f 358/358/358 360/360/360 357/357/357
f 358/358/358 361/361/361 360/360/360
f 361/361/361 362/362/362 360/360/360
f 361/361/361 363/363/363 362/362/362
f 363/363/363 364/364/364 362/362/362
f 363/363/363 365/365/365 364/364/364
f 365/365/365 366/366/366 364/364/364
f 369/369/369 368/368/368 367/367/367
f 370/370/370 369/369/369 367/367/367
f 370/370/370 367/367/367 371/371/371
f 372/372/372 370/370/370 371/371/371
f 372/372/372 371/371/371 373/373/373
f 374/374/374 372/372/372 373/373/373
f 374/374/374 373/373/373 375/375/375
f 376/376/376 374/374/374 375/375/375
f 379/379/379 378/378/378 377/377/377
f 377/377/377 380/380/380 379/379/379
f 377/377/377 381/381/381 380/380/380
f 377/377/377 382/382/382 381/381/381
f 377/377/377 383/383/383 382/382/382
f 377/377/377 384/384/384 383/383/383
f 377/377/377 385/385/385 384/384/384
f 377/377/377 386/386/386 385/385/385
f 389/389/389 388/388/388 387/387/387
f 390/390/390 389/389/389 387/387/387
f 393/393/393 392/392/392 391/391/391
f 394/394/394 393/393/393 391/391/391
f 397/397/397 396/396/396 395/395/395
f 398/398/398 397/397/397 395/395/395
f 401/401/401 400/400/400 399/399/399
f 402/402/402 401/401/401 399/399/399
f 405/405/405 404/404/404 403/403/403
f 406/406/406 405/405/405 403/403/403
f 409/409/409 408/408/408 407/407/407
f 410/410/410 409/409/409 407/407/407
f 413/413/413 412/412/412 411/411/411
f 414/414/414 413/413/413 411/411/411
f 417/417/417 416/416/416 415/415/415
f 415/415/415 418/418/418 417/417/417
f 415/415/415 419/419/419 418/418/418
f 419/419/419 420/420/420 418/418/418
f 420/420/420 421/421/421 418/418/418
f 421/421/421 422/422/422 418/418/418
f 422/422/422 423/423/423 418/418/418
f 423/423/423 424/424/424 418/418/418
f 427/427/427 426/426/426 425/425/425
f 428/428/428 427/427/427 425/425/425
f 431/431/431 430/430/430 429/429/429
f 432/432/432 431/431/431 429/429/429
f 435/435/435 434/434/434 433/433/433
f 436/436/436 435/435/435 433/433/433
f 439/439/439 438/438/438 437/437/437
f 440/440/440 439/439/439 437/437/437
f 443/443/443 442/442/442 441/441/441
f 444/444/444 443/443/443 441/441/441
f 447/447/447 446/446/446 445/445/445
f 448/448/448 447/447/447 445/445/445
f 451/451/451 450/450/450 449/449/449
f 452/452/452 451/451/451 449/449/449
f 455/455/455 454/454/454 453/453/453
f 456/456/456 455/455/455 453/453/453
f 459/459/459 458/458/458 457/457/457
f 460/460/460 459/459/459 457/457/457
f 463/463/463 462/462/462 461/461/461
f 464/464/464 463/463/463 461/461/461
f 467/467/467 466/466/466 465/465/465
f 468/468/468 467/467/467 465/465/465
f 471/471/471 470/470/470 469/469/469
f 472/472/472 471/471/471 469/469/469
f 475/475/475 474/474/474 473/473/473
f 476/476/476 475/475/475 473/473/473
f 479/479/479 478/478/478 477/477/477
f 480/480/480 479/479/479 477/477/477
f 483/483/483 482/482/482 481/481/481
f 484/484/484 483/483/483 481/481/481
f 487/487/487 486/486/486 485/485/485
f 488/488/488 487/487/487 485/485/485
f 491/491/491 490/490/490 489/489/489
f 492/492/492 491/491/491 489/489/489
f 495/495/495 494/494/494 493/493/493
f 496/496/496 495/495/495 493/493/493
f 499/499/499 498/498/498 497/497/497
f 500/500/500 499/499/499 497/497/497
f 503/503/503 502/502/502 501/501/501
f 504/504/504 503/503/503 501/501/501
f 507/507/507 506/506/506 505/505/505
f 508/508/508 507/507/507 505/505/505
f 511/511/511 510/510/510 509/509/509
f 512/512/512 511/511/511 509/509/509
f 515/515/515 514/514/514 513/513/513
f 516/516/516 515/515/515 513/513/513
f 519/519/519 518/518/518 517/517/517
f 517/517/517 520/520/520 519/519/519
f 517/517/517 521/521/521 520/520/520
f 521/521/521 522/522/522 520/520/520
f 522/522/522 523/523/523 520/520/520
f 523/523/523 524/524/524 520/520/520
f 524/524/524 525/525/525 520/520/520
f 525/525/525 526/526/526 520/520/520
f 529/529/529 528/528/528 527/527/527
f 530/530/530 529/529/529 527/527/527
f 533/533/533 532/532/532 531/531/531
f 534/534/534 533/533/533 531/531/531
f 537/537/537 536/536/536 535/535/535
f 538/538/538 537/537/537 535/535/535
f 541/541/541 540/540/540 539/539/539
f 542/542/542 541/541/541 539/539/539
f 545/545/545 544/544/544 543/543/543
f 546/546/546 545/545/545 543/543/543
f 549/549/549 548/548/548 547/547/547
f 550/550/550 549/549/549 547/547/547
f 553/553/553 552/552/552 551/551/551
f 554/554/554 553/553/553 551/551/551
f 557/557/557 556/556/556 555/555/555
f 555/555/555 558/558/558 557/557/557
f 555/555/555 559/559/559 558/558/558
f 555/555/555 560/560/560 559/559/559
f 555/555/555 561/561/561 560/560/560
f 555/555/555 562/562/562 561/561/561
f 555/555/555 563/563/563 562/562/562
f 555/555/555 564/564/564 563/563/563
f 567/567/567 566/566/566 565/565/565
f 568/568/568 567/567/567 565/565/565
f 571/571/571 570/570/570 569/569/569
f 572/572/572 571/571/571 569/569/569
f 575/575/575 574/574/574 573/573/573
f 576/576/576 575/575/575 573/573/573
f 579/579/579 578/578/578 577/577/577
f 580/580/580 579/579/579 577/577/577
f 583/583/583 582/582/582 581/581/581
f 584/584/584 583/583/583 581/581/581
f 587/587/587 586/586/586 585/585/585
f 588/588/588 587/587/587 585/585/585
f 591/591/591 590/590/590 589/589/589
f 592/592/592 591/591/591 589/589/589
f 595/595/595 594/594/594 593/593/593
f 596/596/596 595/595/595 593/593/593
f 599/599/599 598/598/598 597/597/597
f 600/600/600 599/599/599 597/597/597
f 603/603/603 602/602/602 601/601/601
f 604/604/604 603/603/603 601/601/601
f 607/607/607 606/606/606 605/605/605
f 608/608/608 607/607/607 605/605/605
f 611/611/611 610/610/610 609/609/609
f 612/612/612 611/611/611 609/609/609
f 615/615/615 614/614/614 613/613/613
f 616/616/616 615/615/615 613/613/613
f 619/619/619 618/618/618 617/617/617
f 620/620/620 619/619/619 617/617/617
f 623/623/623 622/622/622 621/621/621
f 624/624/624 623/623/623 621/621/621
f 627/627/627 626/626/626 625/625/625
f 628/628/628 627/627/627 625/625/625
f 631/631/631 630/630/630 629/629/629
f 632/632/632 631/631/631 629/629/629
f 635/635/635 634/634/634 633/633/633
f 636/636/636 635/635/635 633/633/633
f 639/639/639 638/638/638 637/637/637
f 640/640/640 639/639/639 637/637/637
f 643/643/643 642/642/642 641/641/641
f 644/644/644 643/643/643 641/641/641
f 647/647/647 646/646/646 645/645/645
f 648/648/648 647/647/647 645/645/645
f 651/651/651 650/650/650 649/649/649
f 652/652/652 651/651/651 649/649/649
f 655/655/655 654/654/654 653/653/653
f 656/656/656 655/655/655 653/653/653
f 659/659/659 658/658/658 657/657/657
f 660/660/660 659/659/659 657/657/657
f 659/659/659 661/661/661 658/658/658
f 660/660/660 657/657/657 662/662/662
f 661/661/661 663/663/663 658/658/658
f 664/664/664 660/660/660 662/662/662
f 664/664/664 662/662/662 663/663/663
f 661/661/661 664/664/664 663/663/663
f 667/667/667 666/666/666 665/665/665
f 666/666/666 668/668/668 665/665/665
f 669/669/669 666/666/666 667/667/667
f 665/665/665 668/668/668 670/670/670
f 671/671/671 669/669/669 667/667/667
f 668/668/668 672/672/672 670/670/670
f 672/672/672 669/669/669 671/671/671
f 670/670/670 672/672/672 671/671/671
f 675/675/675 674/674/674 673/673/673
f 676/676/676 675/675/675 673/673/673
f 673/673/673 674/674/674 677/677/677
f 678/678/678 675/675/675 676/676/676
f 674/674/674 679/679/679 677/677/677
f 680/680/680 678/678/678 676/676/676
f 677/677/677 679/679/679 681/681/681
f 682/682/682 678/678/678 680/680/680
f 679/679/679 683/683/683 681/681/681
f 684/684/684 682/682/682 680/680/680
f 681/681/681 683/683/683 685/685/685
f 686/686/686 682/682/682 684/684/684
f 683/683/683 687/687/687 685/685/685
f 688/688/688 686/686/686 684/684/684
f 685/685/685 687/687/687 689/689/689
f 690/690/690 686/686/686 688/688/688
f 687/687/687 691/691/691 689/689/689
f 692/692/692 690/690/690 688/688/688
f 689/689/689 691/691/691 692/692/692
f 691/691/691 690/690/690 692/692/692
f 695/695/695 694/694/694 693/693/693
f 696/696/696 695/695/695 693/693/693
f 695/695/695 697/697/697 694/694/694
f 696/696/696 693/693/693 698/698/698
f 697/697/697 699/699/699 694/694/694
f 700/700/700 696/696/696 698/698/698
f 697/697/697 701/701/701 699/699/699
f 700/700/700 698/698/698 702/702/702
f 701/701/701 703/703/703 699/699/699
f 704/704/704 700/700/700 702/702/702
f 701/701/701 705/705/705 703/703/703
f 704/704/704 702/702/702 706/706/706
f 705/705/705 707/707/707 703/703/703
f 708/708/708 704/704/704 706/706/706
f 705/705/705 709/709/709 707/707/707
f 708/708/708 706/706/706 710/710/710
f 709/709/709 711/711/711 707/707/707
f 712/712/712 708/708/708 710/710/710
f 712/712/712 710/710/710 711/711/711
f 709/709/709 712/712/712 711/711/711
