%YAML 1.1
%TAG !u! tag:unity3d.com,2011:
--- !u!114 &11400000
MonoBehaviour:
  m_ObjectHideFlags: 0
  m_CorrespondingSourceObject: {fileID: 0}
  m_PrefabInstance: {fileID: 0}
  m_PrefabAsset: {fileID: 0}
  m_GameObject: {fileID: 0}
  m_Enabled: 1
  m_EditorHideFlags: 0
  m_Script: {fileID: 11500000, guid: 3999c7c78ef0bc347b25577ad30969e2, type: 3}
  m_Name: BrushConfig
  m_EditorClassIdentifier: 
  BrushHeight: 0.2
  FallRange: 0.5
  FallTime: 0.5
  Cuver:
    serializedVersion: 2
    m_Curve:
    - serializedVersion: 3
      time: 0
      value: 0
      inSlope: 0
      outSlope: 0
      tangentMode: 0
      weightedMode: 0
      inWeight: 0
      outWeight: 0
    - serializedVersion: 3
      time: 0.6954739
      value: 0.48611298
      inSlope: 1.129003
      outSlope: 1.129003
      tangentMode: 0
      weightedMode: 0
      inWeight: 0.33333334
      outWeight: 0.33333334
    - serializedVersion: 3
      time: 1
      value: 1
      inSlope: 0
      outSlope: 0
      tangentMode: 0
      weightedMode: 0
      inWeight: 0
      outWeight: 0
    m_PreInfinity: 2
    m_PostInfinity: 2
    m_RotationOrder: 4
  StartWidthPercent: 0.65
  ScaleTime: 1
  ScaleRange: 0.5
  ScaleCuver:
    serializedVersion: 2
    m_Curve:
    - serializedVersion: 3
      time: 0
      value: 1
      inSlope: 0
      outSlope: 0
      tangentMode: 34
      weightedMode: 0
      inWeight: 0
      outWeight: 0
    - serializedVersion: 3
      time: 1
      value: 1
      inSlope: 0
      outSlope: 0
      tangentMode: 34
      weightedMode: 0
      inWeight: 0
      outWeight: 0
    m_PreInfinity: 2
    m_PostInfinity: 2
    m_RotationOrder: 4
  fillColorCurver:
    serializedVersion: 2
    m_Curve:
    - serializedVersion: 3
      time: 0
      value: 1
      inSlope: 0
      outSlope: 0
      tangentMode: 0
      weightedMode: 0
      inWeight: 0.33333334
      outWeight: 0.33333334
    - serializedVersion: 3
      time: 0.6484859
      value: 1
      inSlope: -0
      outSlope: -0.12867814
      tangentMode: 5
      weightedMode: 0
      inWeight: 0.09206175
      outWeight: 0.110307574
    - serializedVersion: 3
      time: 1
      value: 0
      inSlope: -6.0622916
      outSlope: -6.0622916
      tangentMode: 0
      weightedMode: 0
      inWeight: 0.04165817
      outWeight: 0.33333334
    m_PreInfinity: 2
    m_PostInfinity: 2
    m_RotationOrder: 4
  VertexSize: 100
  FillHeight: 0.15
  FillRadius: 0.2
  darkBrushColor: 0.3
  fillTunings:
  - LoangSpeed: 0.2
    LoangTime: 1.3
    GravitySpeed: 0.08
  - LoangSpeed: 0.4
    LoangTime: 1.38
    GravitySpeed: 0.08
  - LoangSpeed: 0.8
    LoangTime: 1.7
    GravitySpeed: 0.08
