%YAML 1.1
%TAG !u! tag:unity3d.com,2011:
--- !u!1 &7748245678428103078
GameObject:
  m_ObjectHideFlags: 0
  m_CorrespondingSourceObject: {fileID: 0}
  m_PrefabInstance: {fileID: 0}
  m_PrefabAsset: {fileID: 0}
  serializedVersion: 6
  m_Component:
  - component: {fileID: 6975122309549521692}
  - component: {fileID: -7592513051941661079}
  - component: {fileID: 1183660264886643194}
  m_Layer: 16
  m_Name: Candlesyellow preivew
  m_TagString: CandlesPreview
  m_Icon: {fileID: 0}
  m_NavMeshLayer: 0
  m_StaticEditorFlags: 0
  m_IsActive: 1
--- !u!4 &6975122309549521692
Transform:
  m_ObjectHideFlags: 0
  m_CorrespondingSourceObject: {fileID: 0}
  m_PrefabInstance: {fileID: 0}
  m_PrefabAsset: {fileID: 0}
  m_GameObject: {fileID: 7748245678428103078}
  m_LocalRotation: {x: 0, y: 0, z: 0, w: 1}
  m_LocalPosition: {x: 0, y: 0, z: 0}
  m_LocalScale: {x: 1, y: 1, z: 1}
  m_Children:
  - {fileID: 1420751333509571537}
  m_Father: {fileID: 0}
  m_RootOrder: 0
  m_LocalEulerAnglesHint: {x: 0, y: 0, z: 0}
--- !u!65 &-7592513051941661079
BoxCollider:
  m_ObjectHideFlags: 0
  m_CorrespondingSourceObject: {fileID: 0}
  m_PrefabInstance: {fileID: 0}
  m_PrefabAsset: {fileID: 0}
  m_GameObject: {fileID: 7748245678428103078}
  m_Material: {fileID: 0}
  m_IsTrigger: 0
  m_Enabled: 1
  serializedVersion: 2
  m_Size: {x: 0.2, y: 1.4417214, z: 0.2}
  m_Center: {x: 0, y: 0.6208607, z: 0}
--- !u!114 &1183660264886643194
MonoBehaviour:
  m_ObjectHideFlags: 0
  m_CorrespondingSourceObject: {fileID: 0}
  m_PrefabInstance: {fileID: 0}
  m_PrefabAsset: {fileID: 0}
  m_GameObject: {fileID: 7748245678428103078}
  m_Enabled: 1
  m_EditorHideFlags: 0
  m_Script: {fileID: 11500000, guid: fcaa941a020ecd44396a993160c43294, type: 3}
  m_Name: 
  m_EditorClassIdentifier: 
--- !u!1001 &1458388589719929914
PrefabInstance:
  m_ObjectHideFlags: 0
  serializedVersion: 2
  m_Modification:
    m_TransformParent: {fileID: 6975122309549521692}
    m_Modifications:
    - target: {fileID: -8679921383154817045, guid: a668349faabc85f449c29d49715401f9,
        type: 3}
      propertyPath: m_RootOrder
      value: 0
      objectReference: {fileID: 0}
    - target: {fileID: -8679921383154817045, guid: a668349faabc85f449c29d49715401f9,
        type: 3}
      propertyPath: m_LocalPosition.x
      value: 0
      objectReference: {fileID: 0}
    - target: {fileID: -8679921383154817045, guid: a668349faabc85f449c29d49715401f9,
        type: 3}
      propertyPath: m_LocalPosition.y
      value: 0
      objectReference: {fileID: 0}
    - target: {fileID: -8679921383154817045, guid: a668349faabc85f449c29d49715401f9,
        type: 3}
      propertyPath: m_LocalPosition.z
      value: 0
      objectReference: {fileID: 0}
    - target: {fileID: -8679921383154817045, guid: a668349faabc85f449c29d49715401f9,
        type: 3}
      propertyPath: m_LocalRotation.w
      value: 0.7071067
      objectReference: {fileID: 0}
    - target: {fileID: -8679921383154817045, guid: a668349faabc85f449c29d49715401f9,
        type: 3}
      propertyPath: m_LocalRotation.x
      value: -0.7071068
      objectReference: {fileID: 0}
    - target: {fileID: -8679921383154817045, guid: a668349faabc85f449c29d49715401f9,
        type: 3}
      propertyPath: m_LocalRotation.y
      value: 0
      objectReference: {fileID: 0}
    - target: {fileID: -8679921383154817045, guid: a668349faabc85f449c29d49715401f9,
        type: 3}
      propertyPath: m_LocalRotation.z
      value: -0
      objectReference: {fileID: 0}
    - target: {fileID: -8679921383154817045, guid: a668349faabc85f449c29d49715401f9,
        type: 3}
      propertyPath: m_LocalEulerAnglesHint.x
      value: 0
      objectReference: {fileID: 0}
    - target: {fileID: -8679921383154817045, guid: a668349faabc85f449c29d49715401f9,
        type: 3}
      propertyPath: m_LocalEulerAnglesHint.y
      value: 0
      objectReference: {fileID: 0}
    - target: {fileID: -8679921383154817045, guid: a668349faabc85f449c29d49715401f9,
        type: 3}
      propertyPath: m_LocalEulerAnglesHint.z
      value: 0
      objectReference: {fileID: 0}
    - target: {fileID: -7511558181221131132, guid: a668349faabc85f449c29d49715401f9,
        type: 3}
      propertyPath: m_Materials.Array.data[0]
      value: 
      objectReference: {fileID: 2100000, guid: 00437ec56e1848c4a81083bc2cd317d9, type: 2}
    - target: {fileID: 919132149155446097, guid: a668349faabc85f449c29d49715401f9,
        type: 3}
      propertyPath: m_Name
      value: candle yellow
      objectReference: {fileID: 0}
    - target: {fileID: 919132149155446097, guid: a668349faabc85f449c29d49715401f9,
        type: 3}
      propertyPath: m_Layer
      value: 16
      objectReference: {fileID: 0}
    m_RemovedComponents: []
  m_SourcePrefab: {fileID: 100100000, guid: a668349faabc85f449c29d49715401f9, type: 3}
--- !u!4 &1420751333509571537 stripped
Transform:
  m_CorrespondingSourceObject: {fileID: -8679921383154817045, guid: a668349faabc85f449c29d49715401f9,
    type: 3}
  m_PrefabInstance: {fileID: 1458388589719929914}
  m_PrefabAsset: {fileID: 0}
