%YAML 1.1
%TAG !u! tag:unity3d.com,2011:
--- !u!1045 &1
EditorBuildSettings:
  m_ObjectHideFlags: 0
  serializedVersion: 2
  m_Scenes:
  - enabled: 1
    path: Assets/Scenes/GameManager.unity
    guid: 1f6b3809b99cceb4695f04ca30ae51ae
  - enabled: 1
    path: Assets/Scenes/Gameplay.unity
    guid: 281b44281966f824e97d9a3c908e459e
  - enabled: 1
    path: Assets/Scenes/tower/Home.unity
    guid: 3b8d82602128c0348a351ff75bbaaaf9
  - enabled: 1
    path: Assets/Scenes/tower/Shop.unity
    guid: 9b01f067e3d8677499e8c8efcf2eed2a
  - enabled: 1
    path: Assets/Scenes/tower/Rate.unity
    guid: c618dc2b6651c824ebc9b88279ea537b
  - enabled: 1
    path: Assets/Scenes/tower/Revive.unity
    guid: 33ef5fd3e85c68b488c4730c2f9ee48a
  - enabled: 1
    path: Assets/Scenes/tower/Exit.unity
    guid: bc3a57267f28fb145a0e240d2b8a5674
  - enabled: 1
    path: Assets/Scenes/tower/Complete.unity
    guid: bb644799d71cda248ac51a1bcf9b4bfd
  - enabled: 1
    path: Assets/Scenes/tower/GlobalUI.unity
    guid: 697bc6706bad1f14a89b97339b6073ef
  m_configObjects: {}
