%YAML 1.1
%TAG !u! tag:unity3d.com,2011:
--- !u!1 &1533095341939918561
GameObject:
  m_ObjectHideFlags: 0
  m_CorrespondingSourceObject: {fileID: 0}
  m_PrefabInstance: {fileID: 0}
  m_PrefabAsset: {fileID: 0}
  serializedVersion: 6
  m_Component:
  - component: {fileID: 6633756243367481647}
  - component: {fileID: 6639614995281356355}
  m_Layer: 0
  m_Name: ProgressList
  m_TagString: Untagged
  m_Icon: {fileID: 0}
  m_NavMeshLayer: 0
  m_StaticEditorFlags: 0
  m_IsActive: 1
--- !u!4 &6633756243367481647
Transform:
  m_ObjectHideFlags: 0
  m_CorrespondingSourceObject: {fileID: 0}
  m_PrefabInstance: {fileID: 0}
  m_PrefabAsset: {fileID: 0}
  m_GameObject: {fileID: 1533095341939918561}
  m_LocalRotation: {x: 0, y: 0, z: 0, w: 1}
  m_LocalPosition: {x: 0, y: 0, z: 0}
  m_LocalScale: {x: 1, y: 1, z: 1}
  m_Children: []
  m_Father: {fileID: 0}
  m_RootOrder: 0
  m_LocalEulerAnglesHint: {x: 0, y: 0, z: 0}
--- !u!114 &6639614995281356355
MonoBehaviour:
  m_ObjectHideFlags: 0
  m_CorrespondingSourceObject: {fileID: 0}
  m_PrefabInstance: {fileID: 0}
  m_PrefabAsset: {fileID: 0}
  m_GameObject: {fileID: 1533095341939918561}
  m_Enabled: 1
  m_EditorHideFlags: 0
  m_Script: {fileID: 11500000, guid: 4787c41f0b5868e438143b1863db9c4a, type: 3}
  m_Name: 
  m_EditorClassIdentifier: 
  list:
  - {fileID: 1843452643644440372, guid: 02a0077c283b14b48867100b4f690ac3, type: 3}
  - {fileID: 1843452643644440372, guid: b3a753796f0bd2a4a8c08627f97f114b, type: 3}
  - {fileID: 1843452643644440372, guid: 564e5ceacc1716843b4c3cd3d9d6581b, type: 3}
  - {fileID: 1843452643644440372, guid: 2a4876f107f77394488d62c3dd1cd339, type: 3}
  - {fileID: 1843452643644440372, guid: 882e60753fc19f149872c102370f7557, type: 3}
  - {fileID: 1843452643644440372, guid: 9e42477cca967f54481d4cce836f722c, type: 3}
  - {fileID: 1843452643644440372, guid: 9d2e6ba857514c2459cc7d97775175bd, type: 3}
  - {fileID: 1843452643644440372, guid: a2a8a2c945809004cbd356652ca3c18e, type: 3}
  - {fileID: 1843452643644440372, guid: 5ffed77ea673b56469a664bc01eeb1a7, type: 3}
  - {fileID: 1843452643644440372, guid: 5350976d1324aa444af62823b91491c5, type: 3}
  - {fileID: 1843452643644440372, guid: 78556c963e17234479901640b0025c0a, type: 3}
  - {fileID: 1843452643644440372, guid: df12fa8004b8aa147bbecd011db55e46, type: 3}
